Note: In this directory, resbosm_cp.f and resbosm_yao.f differ in the setup of electroweak couplings.


/home/yuan/sync/work/legacy_resbos/resbos_legacy_bin/resbos_cp_01312019 >diffp resbosm.f ../resbos_cp_11222016/resbosm.f


---------------------------------------- 3484-----------------------------------------c----------------------------------------- 3484----------------------------------------
      Dimension SigY (0:5)                                                            |       Dimension SigY (0:4)                                                           
---------------------------------------- 3544-----------------------------------------c----------------------------------------- 3544----------------------------------------
      Data (SigY(ii), ii=0,5) / 0.d0,0.d0,0.d0,0.d0,0.d0,0.d0 /                       |       Data (SigY(ii), ii=0,4) / 0.d0,0.d0,0.d0,0.d0,0.d0 /                           
------------------------------------- 3578,3595 --------------------------------------d----------------------------------------- 3577----------------------------------------
CJI 2019                                                                              |                                                                                      
      INTEGER kloc                                                                    |                                                                                      
      REAL*8 a0k, a1k, a2k, a4k                                                       |                                                                                      
      Dimension a0k(1:13), a1k(1:13), a2k(1:13), a4k(1:13)                            |                                                                                      
      Data a0k / 1.0, 1.04942, 0.99937, 0.98386,                                      |                                                                                      
     &       0.98072, 0.98752, 0.99214, 0.99911,                                      |                                                                                      
     &       0.99931, 1.00636, 1.00651, 1.00556, 1.00584 /                            |                                                                                      
      Data a1k / 1.0, 1.38766, 1.32044, 1.27543,                                      |                                                                                      
     &       1.23318, 1.19356, 1.15258, 1.10204,                                      |                                                                                      
     &       1.05422, 1.01613, 0.97663, 0.93760, 0.890199 /                           |                                                                                      
      Data a2k / 1.0, 0.67204, 0.72555, 0.76808,                                      |                                                                                      
     &       0.79788, 0.82768, 0.85473, 0.88185,                                      |                                                                                      
     &       0.90417, 0.91681, 0.92883, 0.94021, 0.95305 /                            |                                                                                      
      Data a4k / 1.0, 1.02092, 1.02134, 1.02168,                                      |                                                                                      
     &       1.03259, 1.02571, 1.01893, 1.00042,                                      |                                                                                      
     &       0.98253, 0.97951, 0.94404, 0.92094, 0.90040 /                            |                                                                                      
                                                                                      |                                                                                      
                                                                                      |                                                                                      
---------------------------------------- 3606-----------------------------------------c----------------------------------------- 3588----------------------------------------
      SigY(5) = 0.d0                                                                  | !     SigY(5) = 0.d0                                                                 
---------------------------------------- 3807-----------------------------------------d----------------------------------------- 3788----------------------------------------
        SIGY(5)= SIGY(5)*(XMW/XMW_GRID)**2                                            |                                                                                      
---------------------------------------- 3816-----------------------------------------d----------------------------------------- 3796----------------------------------------
        SIGY(5)= SIGY(5)*(XMZ/XMZ_GRID)**2                                            |                                                                                      
------------------------------------- 4389,4417 --------------------------------------d----------------------------------------- 4368----------------------------------------
CJI Add in k-factors for pert piece from 1708.00008                                   |                                                                                      
                if(QT_V .lt. 11.4) then                                               |                                                                                      
                    kloc = 1                                                          |                                                                                      
                else if(QT_V .lt. 18.5) then                                          |                                                                                      
                    kloc = 2                                                          |                                                                                      
                else if(QT_V .lt. 25.5) then                                          |                                                                                      
                    kloc = 3                                                          |                                                                                      
                else if(QT_V .lt. 32.6) then                                          |                                                                                      
                    kloc = 4                                                          |                                                                                      
                else if(QT_V .lt. 40.4) then                                          |                                                                                      
                    kloc = 5                                                          |                                                                                      
                else if(QT_V .lt. 50.2) then                                          |                                                                                      
                    kloc = 6                                                          |                                                                                      
                else if(QT_V .lt. 63.9) then                                          |                                                                                      
                    kloc = 7                                                          |                                                                                      
                else if(QT_V .lt. 85.4) then                                          |                                                                                      
                    kloc = 8                                                          |                                                                                      
                else if(QT_V .lt. 105.0) then                                         |                                                                                      
                    kloc = 9                                                          |                                                                                      
                else if(QT_V .lt. 132.0) then                                         |                                                                                      
                    kloc = 10                                                         |                                                                                      
                else if(QT_V .lt. 173.0) then                                         |                                                                                      
                    kloc = 11                                                         |                                                                                      
                else if(QT_V .lt. 253.0) then                                         |                                                                                      
                    kloc = 12                                                         |                                                                                      
                else                                                                  |                                                                                      
                    kloc = 13                                                         |                                                                                      
                end if                                                                |                                                                                      
                                                                                      |                                                                                      
------------------------------------- 4419,4424 --------------------------------------c-------------------------------------- 4370,4373 -------------------------------------
     &         (1.d0 + Cos(the_sta)**2) *      (SigS + SigY(0)) +       ! L0          |      &         (1.d0 + Cos(the_sta)**2) *      (SigS + SigY(0)) +    ! L0            
     &         (1.d0-3.d0*Cos(the_sta)**2)/2.d0*SigY(2)*a0k(kloc) +     ! A0          |      &         (1.d0 - 3.d0*Cos(the_sta)**2)/2.d0 *     SigY(2) +    ! A0            
     &         Sin(2.d0*the_sta)*Cos(phi_sta) *SigY(1)*a1k(kloc) +      ! A1          |      &         Sin(2.d0*the_sta)*Cos(phi_sta) *         SigY(1) +    ! A1            
     &         Sin(the_sta)**2*Cos(2.d0*phi_sta)/2.d0*SigY(2)*a2k(kloc))! A2          |      &         Sin(the_sta)**2*Cos(2.d0*phi_sta)/2.d0 * SigY(2) )   ! A2             
                                                                                      |                                                                                      
        print*, sigy(5)                                                               |                                                                                      
---------------------------------------- 4428-----------------------------------------c----------------------------------------- 4377----------------------------------------
     &         Sin(the_sta)*Cos(phi_sta) *      SigY(4)*a4k(kloc))   ! A4             |      &         Sin(the_sta)*Cos(phi_sta) *              SigY(4) )   ! A4             
----------------------------------------19529-----------------------------------------d-----------------------------------------19477----------------------------------------
CJI Comment out, since they are not used anywhere                                     |                                                                                      
-------------------------------------19531,19539--------------------------------------c--------------------------------------19479,19487-------------------------------------
C      Real*8 X1A_C,X2A_C,X3A_C, YAS_C,YAA_C,                                         |       Real*8 X1A_C,X2A_C,X3A_C, YAS_C,YAA_C,                                         
C     > YDAS_C,YDAA_C, X1Y_C,X2Y_C,X3Y_C, YAY_C                                       |      > YDAS_C,YDAA_C, X1Y_C,X2Y_C,X3Y_C, YAY_C                                       
C      Dimension X1A_C(0:MD1), X2A_C(0:MD2), X3A_C(0:MD3)                             |       Dimension X1A_C(0:MD1), X2A_C(0:MD2), X3A_C(0:MD3)                             
C      Dimension YAS_c(0:MD1,0:MD2,0:MD3), YAA_c(0:MD1,0:MD2,0:MD3)                   |       Dimension YAS_c(0:MD1,0:MD2,0:MD3), YAA_c(0:MD1,0:MD2,0:MD3)                   
C      Dimension X1Y_C(0:MD1), X2Y_C(0:MD2), X3Y_C(0:MD3)                             |       Dimension X1Y_C(0:MD1), X2Y_C(0:MD2), X3Y_C(0:MD3)                             
C      Dimension YAY_C(0:MD1,0:MD2,0:MD3,0:6)                                         |       Dimension YAY_C(0:MD1,0:MD2,0:MD3,0:6)                                         
C      Dimension YDAS_C(0:MD1,0:MD2,0:MD3), YDAA_C(0:MD1,0:MD2,0:MD3)                 |       Dimension YDAS_C(0:MD1,0:MD2,0:MD3), YDAA_C(0:MD1,0:MD2,0:MD3)                 
C      Common / Arrays_C / X1A_C,X2A_C,X3A_C, YAS_c,YAA_c,                            |       Common / Arrays_C / X1A_C,X2A_C,X3A_C, YAS_c,YAA_c,                            
C     >X1Y_C,X2Y_C,X3Y_C, YAY_C                                                       |      >X1Y_C,X2Y_C,X3Y_C, YAY_C                                                       
-----------------------------------------------------------------------------------------------------------------------------------------------------------------------------
/home/yuan/sync/work/legacy_resbos/resbos_legacy_bin/resbos_cp_01312019 >
/home/yuan/sync/work/legacy_resbos/resbos_legacy_bin/resbos_cp_01312019 >
/home/yuan/sync/work/legacy_resbos/resbos_legacy_bin/resbos_cp_01312019 >
/home/yuan/sync/work/legacy_resbos/resbos_legacy_bin/resbos_cp_01312019 >diffp resbos_root.f ../resbos_cp_11222016/resbos_root.f
----------------------------------------  680-----------------------------------------d-----------------------------------------  679----------------------------------------
                                                                                      |                                                                                      
---------------------------------------- 3797-----------------------------------------c----------------------------------------- 3796----------------------------------------
            YAY(I,J,IQ,2) = A(9)        !         A2-A0 piece                         |             YAY(I,J,IQ,2) = A(9)        !         A0 = A2 piece                      
-----------------------------------------------------------------------------------------------------------------------------------------------------------------------------
/home/yuan/sync/work/legacy_resbos/resbos_legacy_bin/resbos_cp_01312019 >

