14.54047001918402, 0.7206389621240775
21.18075752529143, 0.7573236756976475
29.239735313006403, 0.7840468353930142
37.29706361081354, 0.8109111335678114
46.23988844625615, 0.8378262415952034
57.145460697573824, 0.8676205746029773
73.12037585044733, 0.9074103347240178
97.17887699447586, 0.9485691380955337
118.96227343462661, 0.9841275666032482
151.25838966171804, 1.023928617802643
197.87221327969763, 1.0665524385906473
289.5876769124162, 1.123343739943883

