GFORTRAN module version '10' created from qcd.f90
MD5:637a04597fac15a468bf744eca9ece02 -- If you edit this, you'll get what you deserve.

(() () () () () () () () () () () () () () () () () () () () () () ()
() () () ())

()

()

()

()

()

(2 '__convert_i4_r8' '(intrinsic)' '' 1 ((PROCEDURE UNKNOWN-INTENT
UNKNOWN-PROC UNKNOWN UNKNOWN 0 0 FUNCTION ELEMENTAL PURE) (REAL 8 0 0 0
REAL ()) 0 0 () () 2 () () () 0 0)
3 'alphastep11' 'qcd' '' 1 ((VARIABLE UNKNOWN-INTENT UNKNOWN-PROC
UNKNOWN IMPLICIT-SAVE 0 0) (REAL 8 0 0 0 REAL ()) 0 0 () () 0 () () () 0
0)
4 'alphastep20_msbar' 'qcd' '' 1 ((VARIABLE UNKNOWN-INTENT UNKNOWN-PROC
UNKNOWN IMPLICIT-SAVE 0 0) (REAL 8 0 0 0 REAL ()) 0 0 () () 0 () () () 0
0)
5 'alphastep20_pole' 'qcd' '' 1 ((VARIABLE UNKNOWN-INTENT UNKNOWN-PROC
UNKNOWN IMPLICIT-SAVE 0 0) (REAL 8 0 0 0 REAL ()) 0 0 () () 0 () () () 0
0)
6 'alphastep21' 'qcd' '' 1 ((VARIABLE UNKNOWN-INTENT UNKNOWN-PROC
UNKNOWN IMPLICIT-SAVE 0 0) (REAL 8 0 0 0 REAL ()) 0 0 () () 0 () () () 0
0)
7 'alphastep22' 'qcd' '' 1 ((VARIABLE UNKNOWN-INTENT UNKNOWN-PROC
UNKNOWN IMPLICIT-SAVE 0 0) (REAL 8 0 0 0 REAL ()) 0 0 () () 0 () () () 0
0)
8 'alphastep30_msbar' 'qcd' '' 1 ((VARIABLE UNKNOWN-INTENT UNKNOWN-PROC
UNKNOWN IMPLICIT-SAVE 0 0) (REAL 8 0 0 0 REAL ()) 0 0 () () 0 () () () 0
0)
9 'alphastep30_msbar_nl' 'qcd' '' 1 ((VARIABLE UNKNOWN-INTENT
UNKNOWN-PROC UNKNOWN IMPLICIT-SAVE 0 0) (REAL 8 0 0 0 REAL ()) 0 0 () ()
0 () () () 0 0)
10 'alphastep30_pole' 'qcd' '' 1 ((VARIABLE UNKNOWN-INTENT UNKNOWN-PROC
UNKNOWN IMPLICIT-SAVE 0 0) (REAL 8 0 0 0 REAL ()) 0 0 () () 0 () () () 0
0)
11 'alphastep30_pole_nl' 'qcd' '' 1 ((VARIABLE UNKNOWN-INTENT
UNKNOWN-PROC UNKNOWN IMPLICIT-SAVE 0 0) (REAL 8 0 0 0 REAL ()) 0 0 () ()
0 () () () 0 0)
12 'alphastep31_msbar' 'qcd' '' 1 ((VARIABLE UNKNOWN-INTENT UNKNOWN-PROC
UNKNOWN IMPLICIT-SAVE 0 0) (REAL 8 0 0 0 REAL ()) 0 0 () () 0 () () () 0
0)
13 'alphastep31_msbar_inv' 'qcd' '' 1 ((VARIABLE UNKNOWN-INTENT
UNKNOWN-PROC UNKNOWN IMPLICIT-SAVE 0 0) (REAL 8 0 0 0 REAL ()) 0 0 () ()
0 () () () 0 0)
14 'alphastep31_msbar_nl' 'qcd' '' 1 ((VARIABLE UNKNOWN-INTENT
UNKNOWN-PROC UNKNOWN IMPLICIT-SAVE 0 0) (REAL 8 0 0 0 REAL ()) 0 0 () ()
0 () () () 0 0)
15 'alphastep31_pole' 'qcd' '' 1 ((VARIABLE UNKNOWN-INTENT UNKNOWN-PROC
UNKNOWN IMPLICIT-SAVE 0 0) (REAL 8 0 0 0 REAL ()) 0 0 () () 0 () () () 0
0)
16 'alphastep31_pole_inv' 'qcd' '' 1 ((VARIABLE UNKNOWN-INTENT
UNKNOWN-PROC UNKNOWN IMPLICIT-SAVE 0 0) (REAL 8 0 0 0 REAL ()) 0 0 () ()
0 () () () 0 0)
17 'alphastep31_pole_nl' 'qcd' '' 1 ((VARIABLE UNKNOWN-INTENT
UNKNOWN-PROC UNKNOWN IMPLICIT-SAVE 0 0) (REAL 8 0 0 0 REAL ()) 0 0 () ()
0 () () () 0 0)
18 'alphastep32' 'qcd' '' 1 ((VARIABLE UNKNOWN-INTENT UNKNOWN-PROC
UNKNOWN IMPLICIT-SAVE 0 0) (REAL 8 0 0 0 REAL ()) 0 0 () () 0 () () () 0
0)
19 'alphastep32_inv' 'qcd' '' 1 ((VARIABLE UNKNOWN-INTENT UNKNOWN-PROC
UNKNOWN IMPLICIT-SAVE 0 0) (REAL 8 0 0 0 REAL ()) 0 0 () () 0 () () () 0
0)
20 'alphastep33' 'qcd' '' 1 ((VARIABLE UNKNOWN-INTENT UNKNOWN-PROC
UNKNOWN IMPLICIT-SAVE 0 0) (REAL 8 0 0 0 REAL ()) 0 0 () () 0 () () () 0
0)
21 'beta0' 'qcd' '' 1 ((VARIABLE UNKNOWN-INTENT UNKNOWN-PROC UNKNOWN
IMPLICIT-SAVE 0 0) (REAL 8 0 0 0 REAL ()) 0 0 () () 0 () () () 0 0)
22 'beta1' 'qcd' '' 1 ((VARIABLE UNKNOWN-INTENT UNKNOWN-PROC UNKNOWN
IMPLICIT-SAVE 0 0) (REAL 8 0 0 0 REAL ()) 0 0 () () 0 () () () 0 0)
23 'beta2' 'qcd' '' 1 ((VARIABLE UNKNOWN-INTENT UNKNOWN-PROC UNKNOWN
IMPLICIT-SAVE 0 0) (REAL 8 0 0 0 REAL ()) 0 0 () () 0 () () () 0 0)
24 'beta3' 'qcd' '' 1 ((VARIABLE UNKNOWN-INTENT UNKNOWN-PROC UNKNOWN
IMPLICIT-SAVE 0 0) (REAL 8 0 0 0 REAL ()) 0 0 () () 0 () () () 0 0)
25 'ca' 'qcd' '' 1 ((VARIABLE UNKNOWN-INTENT UNKNOWN-PROC UNKNOWN
IMPLICIT-SAVE 0 0) (REAL 8 0 0 0 REAL ()) 0 0 () () 0 () () () 0 0)
26 'ca_def' 'qcd' '' 1 ((PARAMETER UNKNOWN-INTENT UNKNOWN-PROC UNKNOWN
IMPLICIT-SAVE 0 0) (REAL 8 0 0 0 REAL ()) 0 0 () (CONSTANT (REAL 8 0 0 0
REAL ()) 0 '0.30000000000000@1') () 0 () () () 0 0)
27 'cf' 'qcd' '' 1 ((VARIABLE UNKNOWN-INTENT UNKNOWN-PROC UNKNOWN
IMPLICIT-SAVE 0 0) (REAL 8 0 0 0 REAL ()) 0 0 () () 0 () () () 0 0)
28 'cf_def' 'qcd' '' 1 ((PARAMETER UNKNOWN-INTENT UNKNOWN-PROC UNKNOWN
IMPLICIT-SAVE 0 0) (REAL 8 0 0 0 REAL ()) 0 0 () (CONSTANT (REAL 8 0 0 0
REAL ()) 0 '0.15555555555555@1') () 0 () () () 0 0)
29 'cmw_k' 'qcd' '' 1 ((VARIABLE UNKNOWN-INTENT UNKNOWN-PROC UNKNOWN
IMPLICIT-SAVE 0 0) (REAL 8 0 0 0 REAL ()) 0 0 () () 0 () () () 0 0)
30 'cmw_k2' 'qcd' '' 1 ((VARIABLE UNKNOWN-INTENT UNKNOWN-PROC UNKNOWN
IMPLICIT-SAVE 0 0) (REAL 8 0 0 0 REAL ()) 0 0 () () 0 () () () 0 0)
31 'cmw_k2_def' 'qcd' '' 1 ((PARAMETER UNKNOWN-INTENT UNKNOWN-PROC
UNKNOWN IMPLICIT-SAVE 0 0) (REAL 8 0 0 0 REAL ()) 0 0 () (CONSTANT (
REAL 8 0 0 0 REAL ()) 0 '0.b367f13f6f8298@1') () 0 () () () 0 0)
32 'dp' 'types' '' 1 ((PARAMETER UNKNOWN-INTENT UNKNOWN-PROC UNKNOWN
IMPLICIT-SAVE 0 0) (INTEGER 4 0 0 0 INTEGER ()) 0 0 () (CONSTANT (
INTEGER 4 0 0 0 INTEGER ()) 0 '8') () 0 () () () 0 0)
33 'eulergamma' 'consts_dp' '' 1 ((PARAMETER UNKNOWN-INTENT UNKNOWN-PROC
UNKNOWN IMPLICIT-SAVE 0 0) (REAL 8 0 0 0 REAL ()) 0 0 () (CONSTANT (
REAL 8 0 0 0 REAL ()) 0 '0.93c467e37db0c8@0') () 0 () () () 0 0)
34 'four' 'consts_dp' '' 1 ((PARAMETER UNKNOWN-INTENT UNKNOWN-PROC
UNKNOWN IMPLICIT-SAVE 0 0) (REAL 8 0 0 0 REAL ()) 0 0 () (CONSTANT (
REAL 8 0 0 0 REAL ()) 0 '0.40000000000000@1') () 0 () () () 0 0)
35 'half' 'consts_dp' '' 1 ((PARAMETER UNKNOWN-INTENT UNKNOWN-PROC
UNKNOWN IMPLICIT-SAVE 0 0) (REAL 8 0 0 0 REAL ()) 0 0 () (CONSTANT (
REAL 8 0 0 0 REAL ()) 0 '0.80000000000000@0') () 0 () () () 0 0)
36 'kind' '(intrinsic)' '' 1 ((PROCEDURE UNKNOWN-INTENT UNKNOWN-PROC
UNKNOWN UNKNOWN 0 0 FUNCTION) (INTEGER 4 0 0 0 INTEGER ()) 0 0 () () 36
() () () 0 0)
37 'ln2' 'consts_dp' '' 1 ((PARAMETER UNKNOWN-INTENT UNKNOWN-PROC
UNKNOWN IMPLICIT-SAVE 0 0) (REAL 8 0 0 0 REAL ()) 0 0 () (CONSTANT (
REAL 8 0 0 0 REAL ()) 0 '0.b17217f7d1cf78@0') () 0 () () () 0 0)
38 'log' '(intrinsic)' '' 1 ((PROCEDURE UNKNOWN-INTENT UNKNOWN-PROC
UNKNOWN UNKNOWN 0 0 FUNCTION) (INTEGER 4 0 0 0 INTEGER ()) 0 0 () () 38
() () () 0 0)
39 'mass_steps_on' 'qcd' '' 1 ((VARIABLE UNKNOWN-INTENT UNKNOWN-PROC
UNKNOWN IMPLICIT-SAVE 0 0) (LOGICAL 4 0 0 0 LOGICAL ()) 0 0 () () 0 () ()
() 0 0)
40 'mvv_a3' 'qcd' '' 1 ((VARIABLE UNKNOWN-INTENT UNKNOWN-PROC UNKNOWN
IMPLICIT-SAVE 0 0) (REAL 8 0 0 0 REAL ()) 0 0 () () 0 () () () 0 0)
41 'mvv_a3g' 'qcd' '' 1 ((VARIABLE UNKNOWN-INTENT UNKNOWN-PROC UNKNOWN
IMPLICIT-SAVE 0 0) (REAL 8 0 0 0 REAL ()) 0 0 () () 0 () () () 0 0)
42 'nf' 'qcd' '' 1 ((VARIABLE UNKNOWN-INTENT UNKNOWN-PROC UNKNOWN
IMPLICIT-SAVE 0 0) (REAL 8 0 0 0 REAL ()) 0 0 () () 0 () () () 0 0)
43 'nf_d' 'qcd' '' 1 ((VARIABLE UNKNOWN-INTENT UNKNOWN-PROC UNKNOWN
IMPLICIT-SAVE 0 0) (INTEGER 4 0 0 0 INTEGER ()) 0 0 () () 0 () () () 0 0)
44 'nf_def' 'qcd' '' 1 ((PARAMETER UNKNOWN-INTENT UNKNOWN-PROC UNKNOWN
IMPLICIT-SAVE 0 0) (INTEGER 4 0 0 0 INTEGER ()) 0 0 () (CONSTANT (
INTEGER 4 0 0 0 INTEGER ()) 0 '5') () 0 () () () 0 0)
45 'nf_int' 'qcd' '' 1 ((VARIABLE UNKNOWN-INTENT UNKNOWN-PROC UNKNOWN
IMPLICIT-SAVE 0 0) (INTEGER 4 0 0 0 INTEGER ()) 0 0 () () 0 () () () 0 0)
46 'nf_u' 'qcd' '' 1 ((VARIABLE UNKNOWN-INTENT UNKNOWN-PROC UNKNOWN
IMPLICIT-SAVE 0 0) (INTEGER 4 0 0 0 INTEGER ()) 0 0 () () 0 () () () 0 0)
47 'one' 'consts_dp' '' 1 ((PARAMETER UNKNOWN-INTENT UNKNOWN-PROC
UNKNOWN IMPLICIT-SAVE 0 0) (REAL 8 0 0 0 REAL ()) 0 0 () (CONSTANT (
REAL 8 0 0 0 REAL ()) 0 '0.10000000000000@1') () 0 () () () 0 0)
48 'pi' 'consts_dp' '' 1 ((PARAMETER UNKNOWN-INTENT UNKNOWN-PROC UNKNOWN
IMPLICIT-SAVE 0 0) (REAL 8 0 0 0 REAL ()) 0 0 () (CONSTANT (REAL 8 0 0 0
REAL ()) 0 '0.3243f6a8885a30@1') () 0 () () () 0 0)
49 'picb' 'consts_dp' '' 1 ((PARAMETER UNKNOWN-INTENT UNKNOWN-PROC
UNKNOWN IMPLICIT-SAVE 0 0) (REAL 8 0 0 0 REAL ()) 0 0 () (CONSTANT (
REAL 8 0 0 0 REAL ()) 0 '0.1f019b59389d7c@2') () 0 () () () 0 0)
50 'pisq' 'consts_dp' '' 1 ((PARAMETER UNKNOWN-INTENT UNKNOWN-PROC
UNKNOWN IMPLICIT-SAVE 0 0) (REAL 8 0 0 0 REAL ()) 0 0 () (CONSTANT (
REAL 8 0 0 0 REAL ()) 0 '0.9de9e64df22ef0@1') () 0 () () () 0 0)
51 'qcd' 'qcd' '' 1 ((MODULE UNKNOWN-INTENT UNKNOWN-PROC UNKNOWN UNKNOWN
0 0) (UNKNOWN 0 0 0 0 UNKNOWN ()) 0 0 () () 0 () () () 0 0)
52 'qcd_set_beta0' 'qcd' '' 1 ((PROCEDURE UNKNOWN-INTENT MODULE-PROC
DECL UNKNOWN 0 0 SUBROUTINE) (UNKNOWN 0 0 0 0 UNKNOWN ()) 0 0 () () 0 ()
() () 0 0)
53 'qcd_setgroup' 'qcd' '' 1 ((PROCEDURE UNKNOWN-INTENT MODULE-PROC DECL
UNKNOWN 0 0 SUBROUTINE) (UNKNOWN 0 0 0 0 UNKNOWN ()) 54 0 (55 56 57) ()
0 () () () 0 0)
58 'qcd_setnf' 'qcd' '' 1 ((PROCEDURE UNKNOWN-INTENT MODULE-PROC DECL
UNKNOWN 0 0 SUBROUTINE) (UNKNOWN 0 0 0 0 UNKNOWN ()) 59 0 (60) () 0 () ()
() 0 0)
61 'quark_masses_def' 'qcd' '' 1 ((PARAMETER UNKNOWN-INTENT UNKNOWN-PROC
UNKNOWN IMPLICIT-SAVE 0 0 DIMENSION) (REAL 8 0 0 0 REAL ()) 0 0 () (
ARRAY (REAL 8 0 0 0 REAL ()) 1 (((CONSTANT (REAL 8 0 0 0 REAL ()) 0
'0.6df37f675ef6ec@-8') ()) ((CONSTANT (REAL 8 0 0 0 REAL ()) 0
'0.6df37f675ef6ec@-8') ()) ((CONSTANT (REAL 8 0 0 0 REAL ()) 0
'0.26666666666666@0') ()) ((CONSTANT (REAL 8 0 0 0 REAL ()) 0
'0.16a09e66aa506d@1') ()) ((CONSTANT (REAL 8 0 0 0 REAL ()) 0
'0.48000000000000@1') ()) ((CONSTANT (REAL 8 0 0 0 REAL ()) 0
'0.af000000000000@2') ())) ('6')) (1 0 EXPLICIT (CONSTANT (INTEGER 4 0 0
0 INTEGER ()) 0 '1') (CONSTANT (INTEGER 4 0 0 0 INTEGER ()) 0 '6')) 0 ()
() () 0 0)
62 'sp' 'types' '' 1 ((PARAMETER UNKNOWN-INTENT UNKNOWN-PROC UNKNOWN
IMPLICIT-SAVE 0 0) (INTEGER 4 0 0 0 INTEGER ()) 0 0 () (CONSTANT (
INTEGER 4 0 0 0 INTEGER ()) 0 '4') () 0 () () () 0 0)
63 'tf' 'qcd' '' 1 ((VARIABLE UNKNOWN-INTENT UNKNOWN-PROC UNKNOWN
IMPLICIT-SAVE 0 0) (REAL 8 0 0 0 REAL ()) 0 0 () () 0 () () () 0 0)
64 'tf_def' 'qcd' '' 1 ((PARAMETER UNKNOWN-INTENT UNKNOWN-PROC UNKNOWN
IMPLICIT-SAVE 0 0) (REAL 8 0 0 0 REAL ()) 0 0 () (CONSTANT (REAL 8 0 0 0
REAL ()) 0 '0.28000000000000@1') () 0 () () () 0 0)
65 'three' 'consts_dp' '' 1 ((PARAMETER UNKNOWN-INTENT UNKNOWN-PROC
UNKNOWN IMPLICIT-SAVE 0 0) (REAL 8 0 0 0 REAL ()) 0 0 () (CONSTANT (
REAL 8 0 0 0 REAL ()) 0 '0.30000000000000@1') () 0 () () () 0 0)
66 'tr' 'qcd' '' 1 ((VARIABLE UNKNOWN-INTENT UNKNOWN-PROC UNKNOWN
IMPLICIT-SAVE 0 0) (REAL 8 0 0 0 REAL ()) 0 0 () () 0 () () () 0 0)
67 'tr_def' 'qcd' '' 1 ((PARAMETER UNKNOWN-INTENT UNKNOWN-PROC UNKNOWN
IMPLICIT-SAVE 0 0) (REAL 8 0 0 0 REAL ()) 0 0 () (CONSTANT (REAL 8 0 0 0
REAL ()) 0 '0.80000000000000@0') () 0 () () () 0 0)
68 'two' 'consts_dp' '' 1 ((PARAMETER UNKNOWN-INTENT UNKNOWN-PROC
UNKNOWN IMPLICIT-SAVE 0 0) (REAL 8 0 0 0 REAL ()) 0 0 () (CONSTANT (
REAL 8 0 0 0 REAL ()) 0 '0.20000000000000@1') () 0 () () () 0 0)
69 'twopi' 'consts_dp' '' 1 ((PARAMETER UNKNOWN-INTENT UNKNOWN-PROC
UNKNOWN IMPLICIT-SAVE 0 0) (REAL 8 0 0 0 REAL ()) 0 0 () (CONSTANT (
REAL 8 0 0 0 REAL ()) 0 '0.6487ed5110b460@1') () 0 () () () 0 0)
70 'twopi_beta0' 'qcd' '' 1 ((VARIABLE UNKNOWN-INTENT UNKNOWN-PROC
UNKNOWN IMPLICIT-SAVE 0 0) (REAL 8 0 0 0 REAL ()) 0 0 () () 0 () () () 0
0)
71 'types' 'types' '' 1 ((MODULE UNKNOWN-INTENT UNKNOWN-PROC UNKNOWN
UNKNOWN 0 0) (UNKNOWN 0 0 0 0 UNKNOWN ()) 0 0 () () 0 () () () 0 0)
72 'zero' 'consts_dp' '' 1 ((PARAMETER UNKNOWN-INTENT UNKNOWN-PROC
UNKNOWN IMPLICIT-SAVE 0 0) (REAL 8 0 0 0 REAL ()) 0 0 () (CONSTANT (
REAL 8 0 0 0 REAL ()) 0 '0.00000000000000@0') () 0 () () () 0 0)
73 'zeta2' 'consts_dp' '' 1 ((PARAMETER UNKNOWN-INTENT UNKNOWN-PROC
UNKNOWN IMPLICIT-SAVE 0 0) (REAL 8 0 0 0 REAL ()) 0 0 () (CONSTANT (
REAL 8 0 0 0 REAL ()) 0 '0.1a51a6625307d3@1') () 0 () () () 0 0)
74 'zeta3' 'consts_dp' '' 1 ((PARAMETER UNKNOWN-INTENT UNKNOWN-PROC
UNKNOWN IMPLICIT-SAVE 0 0) (REAL 8 0 0 0 REAL ()) 0 0 () (CONSTANT (
REAL 8 0 0 0 REAL ()) 0 '0.133ba004f00621@1') () 0 () () () 0 0)
55 'ca_in' '' '' 54 ((VARIABLE IN UNKNOWN-PROC UNKNOWN UNKNOWN 0 0 DUMMY)
(REAL 8 0 0 0 REAL ()) 0 0 () () 0 () () () 0 0)
56 'cf_in' '' '' 54 ((VARIABLE IN UNKNOWN-PROC UNKNOWN UNKNOWN 0 0 DUMMY)
(REAL 8 0 0 0 REAL ()) 0 0 () () 0 () () () 0 0)
57 'tr_in' '' '' 54 ((VARIABLE IN UNKNOWN-PROC UNKNOWN UNKNOWN 0 0 DUMMY)
(REAL 8 0 0 0 REAL ()) 0 0 () () 0 () () () 0 0)
60 'nf_in' '' '' 59 ((VARIABLE UNKNOWN-INTENT UNKNOWN-PROC UNKNOWN
UNKNOWN 0 0 DUMMY) (INTEGER 4 0 0 0 INTEGER ()) 0 0 () () 0 () () () 0 0)
)

('__convert_i4_r8' 0 2 'alphastep11' 0 3 'alphastep20_msbar' 0 4
'alphastep20_pole' 0 5 'alphastep21' 0 6 'alphastep22' 0 7
'alphastep30_msbar' 0 8 'alphastep30_msbar_nl' 0 9 'alphastep30_pole' 0
10 'alphastep30_pole_nl' 0 11 'alphastep31_msbar' 0 12
'alphastep31_msbar_inv' 0 13 'alphastep31_msbar_nl' 0 14
'alphastep31_pole' 0 15 'alphastep31_pole_inv' 0 16 'alphastep31_pole_nl'
0 17 'alphastep32' 0 18 'alphastep32_inv' 0 19 'alphastep33' 0 20 'beta0'
0 21 'beta1' 0 22 'beta2' 0 23 'beta3' 0 24 'ca' 0 25 'ca_def' 0 26 'cf'
0 27 'cf_def' 0 28 'cmw_k' 0 29 'cmw_k2' 0 30 'cmw_k2_def' 0 31 'dp' 0
32 'eulergamma' 0 33 'four' 0 34 'half' 0 35 'kind' 0 36 'ln2' 0 37 'log'
0 38 'mass_steps_on' 0 39 'mvv_a3' 0 40 'mvv_a3g' 0 41 'nf' 0 42 'nf_d'
0 43 'nf_def' 0 44 'nf_int' 0 45 'nf_u' 0 46 'one' 0 47 'pi' 0 48 'picb'
0 49 'pisq' 0 50 'qcd' 0 51 'qcd_set_beta0' 0 52 'qcd_setgroup' 0 53
'qcd_setnf' 0 58 'quark_masses_def' 0 61 'sp' 0 62 'tf' 0 63 'tf_def' 0
64 'three' 0 65 'tr' 0 66 'tr_def' 0 67 'two' 0 68 'twopi' 0 69
'twopi_beta0' 0 70 'types' 0 71 'zero' 0 72 'zeta2' 0 73 'zeta3' 0 74)
