GFORTRAN module version '10' created from qcd_coupling.f90
MD5:d9ce6b380ad0c89cca60090b8c4a8551 -- If you edit this, you'll get what you deserve.

(() () () () () () () () () () () () () () () () () () () () () () ()
() () () ())

()

(('delete' 'qcd_coupling' 2) ('initrunningcoupling' 'qcd_coupling' 3 4)
('numberofloops' 'qcd_coupling' 5) ('running_coupling' 'qcd_coupling' 6)
('runningcoupling' 'qcd_coupling' 7 8) ('setdefaultcouplingdt' 'new_as'
9) ('value' 'qcd_coupling' 7 8))

()

()

()

(6 'Running_coupling' 'qcd_coupling' '' 1 ((DERIVED UNKNOWN-INTENT
UNKNOWN-PROC UNKNOWN UNKNOWN 0 0 POINTER_COMP PRIVATE_COMP) (UNKNOWN 0 0
0 0 UNKNOWN ()) 0 0 () () 0 ((10 'nah' (DERIVED 11 0 0 0 DERIVED ()) ()
(UNKNOWN-FL UNKNOWN-INTENT UNKNOWN-PROC UNKNOWN UNKNOWN 0 0)
UNKNOWN-ACCESS ()) (12 'use_nah' (LOGICAL 4 0 0 0 LOGICAL ()) () (
UNKNOWN-FL UNKNOWN-INTENT UNKNOWN-PROC UNKNOWN UNKNOWN 0 0)
UNKNOWN-ACCESS ()) (13 'qcdl5' (REAL 8 0 0 0 REAL ()) () (UNKNOWN-FL
UNKNOWN-INTENT UNKNOWN-PROC UNKNOWN UNKNOWN 0 0) UNKNOWN-ACCESS ()) (14
'bn' (REAL 8 0 0 0 REAL ()) (1 0 EXPLICIT (CONSTANT (INTEGER 4 0 0 0
INTEGER ()) 0 '3') (CONSTANT (INTEGER 4 0 0 0 INTEGER ()) 0 '6')) (
UNKNOWN-FL UNKNOWN-INTENT UNKNOWN-PROC UNKNOWN UNKNOWN 0 0 DIMENSION)
UNKNOWN-ACCESS ()) (15 'cn' (REAL 8 0 0 0 REAL ()) (1 0 EXPLICIT (
CONSTANT (INTEGER 4 0 0 0 INTEGER ()) 0 '3') (CONSTANT (INTEGER 4 0 0 0
INTEGER ()) 0 '6')) (UNKNOWN-FL UNKNOWN-INTENT UNKNOWN-PROC UNKNOWN
UNKNOWN 0 0 DIMENSION) UNKNOWN-ACCESS ()) (16 'cn5' (REAL 8 0 0 0 REAL ())
(1 0 EXPLICIT (CONSTANT (INTEGER 4 0 0 0 INTEGER ()) 0 '3') (CONSTANT (
INTEGER 4 0 0 0 INTEGER ()) 0 '6')) (UNKNOWN-FL UNKNOWN-INTENT
UNKNOWN-PROC UNKNOWN UNKNOWN 0 0 DIMENSION) UNKNOWN-ACCESS ()) (17 'nloop'
(INTEGER 4 0 0 0 INTEGER ()) () (UNKNOWN-FL UNKNOWN-INTENT UNKNOWN-PROC
UNKNOWN UNKNOWN 0 0) UNKNOWN-ACCESS ()) (18 'nf' (INTEGER 4 0 0 0
INTEGER ()) () (UNKNOWN-FL UNKNOWN-INTENT UNKNOWN-PROC UNKNOWN UNKNOWN 0
0) UNKNOWN-ACCESS ())) PRIVATE (() () () ()) () 0 0 28920530)
19 'as_bn' 'qcd_coupling' '' 1 ((PARAMETER UNKNOWN-INTENT UNKNOWN-PROC
UNKNOWN IMPLICIT-SAVE 0 0 DIMENSION) (REAL 8 0 0 0 REAL ()) 0 0 () (
ARRAY (REAL 8 0 0 0 REAL ()) 1 (((CONSTANT (REAL 8 0 0 0 REAL ()) 0
'0.b758b3dc180c98@0') ()) ((CONSTANT (REAL 8 0 0 0 REAL ()) 0
'0.a9c3e8e83c3198@0') ()) ((CONSTANT (REAL 8 0 0 0 REAL ()) 0
'0.9c2f1df4605698@0') ()) ((CONSTANT (REAL 8 0 0 0 REAL ()) 0
'0.8e9a5300847b98@0') ())) ('4')) (1 0 EXPLICIT (CONSTANT (INTEGER 4 0 0
0 INTEGER ()) 0 '3') (CONSTANT (INTEGER 4 0 0 0 INTEGER ()) 0 '6')) 0 ()
() () 0 0)
20 'ash_global' 'qcd_coupling' '' 1 ((VARIABLE UNKNOWN-INTENT
UNKNOWN-PROC UNKNOWN EXPLICIT-SAVE 0 0 TARGET) (DERIVED 6 0 0 0 DERIVED
()) 0 0 () () 0 () () () 0 0)
21 'defaultcouplingdt' 'new_as' '' 1 ((PROCEDURE UNKNOWN-INTENT
MODULE-PROC DECL UNKNOWN 0 0 FUNCTION IMPLICIT_PURE) (REAL 8 0 0 0 REAL
()) 0 0 () () 21 () () () 0 0)
22 'nfatq' 'qcd_coupling' '' 1 ((PROCEDURE UNKNOWN-INTENT MODULE-PROC
DECL UNKNOWN 0 0 FUNCTION ALWAYS_EXPLICIT) (INTEGER 4 0 0 0 INTEGER ())
23 0 (24 25 26 27 28) () 22 () () () 0 0)
29 'nfrange' 'qcd_coupling' '' 1 ((PROCEDURE UNKNOWN-INTENT MODULE-PROC
DECL UNKNOWN 0 0 SUBROUTINE) (UNKNOWN 0 0 0 0 UNKNOWN ()) 30 0 (31 32 33)
() 0 () () () 0 0)
34 'qrangeatnf' 'qcd_coupling' '' 1 ((PROCEDURE UNKNOWN-INTENT
MODULE-PROC DECL UNKNOWN 0 0 SUBROUTINE ALWAYS_EXPLICIT) (UNKNOWN 0 0 0
0 UNKNOWN ()) 35 0 (36 37 38 39 40) () 0 () () () 0 0)
41 'quarkmass' 'qcd_coupling' '' 1 ((PROCEDURE UNKNOWN-INTENT
MODULE-PROC DECL UNKNOWN 0 0 FUNCTION) (REAL 8 0 0 0 REAL ()) 42 0 (43
44) () 45 () () () 0 0)
46 'quarkmassesaremsbar' 'qcd_coupling' '' 1 ((PROCEDURE UNKNOWN-INTENT
MODULE-PROC DECL UNKNOWN 0 0 FUNCTION) (LOGICAL 4 0 0 0 LOGICAL ()) 47 0
(48) () 49 () () () 0 0)
50 'running_coupling' 'qcd_coupling' '' 1 ((PROCEDURE UNKNOWN-INTENT
UNKNOWN-PROC DECL UNKNOWN 0 0 FUNCTION GENERIC) (UNKNOWN 0 0 0 0 UNKNOWN
()) 0 0 () () 0 () () () 0 0)
2 'as_del_ash' 'qcd_coupling' '' 1 ((PROCEDURE UNKNOWN-INTENT
MODULE-PROC DECL UNKNOWN 0 0 SUBROUTINE) (UNKNOWN 0 0 0 0 UNKNOWN ()) 51
0 (52) () 0 () () () 0 0)
3 'as_init_noash' 'qcd_coupling' '' 1 ((PROCEDURE UNKNOWN-INTENT
MODULE-PROC DECL UNKNOWN 0 0 SUBROUTINE ALWAYS_EXPLICIT) (UNKNOWN 0 0 0
0 UNKNOWN ()) 53 0 (54 55 56 57 58 59 60 61 62) () 0 () () () 0 0)
4 'as_init_ash' 'qcd_coupling' '' 1 ((PROCEDURE UNKNOWN-INTENT
MODULE-PROC DECL UNKNOWN 0 0 SUBROUTINE ALWAYS_EXPLICIT) (UNKNOWN 0 0 0
0 UNKNOWN ()) 63 0 (64 65 66 67 68 69 70 71 72 73) () 0 () () () 0 0)
5 'numloops_in_coupling' 'qcd_coupling' '' 1 ((PROCEDURE UNKNOWN-INTENT
MODULE-PROC DECL UNKNOWN 0 0 FUNCTION) (INTEGER 4 0 0 0 INTEGER ()) 74 0
(75) () 5 () () () 0 0)
7 'as_value_noash' 'qcd_coupling' '' 1 ((PROCEDURE UNKNOWN-INTENT
MODULE-PROC DECL UNKNOWN 0 0 FUNCTION ALWAYS_EXPLICIT) (REAL 8 0 0 0
REAL ()) 76 0 (77 78) () 79 () () () 0 0)
8 'as_value_ash' 'qcd_coupling' '' 1 ((PROCEDURE UNKNOWN-INTENT
MODULE-PROC DECL UNKNOWN 0 0 FUNCTION ALWAYS_EXPLICIT) (REAL 8 0 0 0
REAL ()) 80 0 (81 82 83) () 84 () () () 0 0)
9 'na_set_dt_base' 'new_as' '' 1 ((PROCEDURE UNKNOWN-INTENT MODULE-PROC
DECL UNKNOWN 0 0 SUBROUTINE) (UNKNOWN 0 0 0 0 UNKNOWN ()) 85 0 (86) () 0
() () () 0 0)
11 'Na_handle' 'new_as' '' 1 ((DERIVED UNKNOWN-INTENT UNKNOWN-PROC
UNKNOWN UNKNOWN 0 0 POINTER_COMP PRIVATE_COMP) (UNKNOWN 0 0 0 0 UNKNOWN
()) 0 0 () () 0 ((87 'seg' (DERIVED 88 0 0 0 DERIVED ()) (1 0 DEFERRED ()
()) (UNKNOWN-FL UNKNOWN-INTENT UNKNOWN-PROC UNKNOWN UNKNOWN 0 0
DIMENSION POINTER) UNKNOWN-ACCESS ()) (89 'nlo' (INTEGER 4 0 0 0 INTEGER
()) () (UNKNOWN-FL UNKNOWN-INTENT UNKNOWN-PROC UNKNOWN UNKNOWN 0 0)
UNKNOWN-ACCESS ()) (90 'nhi' (INTEGER 4 0 0 0 INTEGER ()) () (
UNKNOWN-FL UNKNOWN-INTENT UNKNOWN-PROC UNKNOWN UNKNOWN 0 0)
UNKNOWN-ACCESS ()) (91 'nloop' (INTEGER 4 0 0 0 INTEGER ()) () (
UNKNOWN-FL UNKNOWN-INTENT UNKNOWN-PROC UNKNOWN UNKNOWN 0 0)
UNKNOWN-ACCESS ()) (92 'fixnf' (INTEGER 4 0 0 0 INTEGER ()) () (
UNKNOWN-FL UNKNOWN-INTENT UNKNOWN-PROC UNKNOWN UNKNOWN 0 0)
UNKNOWN-ACCESS ()) (93 'alfas' (REAL 8 0 0 0 REAL ()) () (UNKNOWN-FL
UNKNOWN-INTENT UNKNOWN-PROC UNKNOWN UNKNOWN 0 0) UNKNOWN-ACCESS ()) (94
'q' (REAL 8 0 0 0 REAL ()) () (UNKNOWN-FL UNKNOWN-INTENT UNKNOWN-PROC
UNKNOWN UNKNOWN 0 0) UNKNOWN-ACCESS ()) (95 'quark_masses' (REAL 8 0 0 0
REAL ()) (1 0 EXPLICIT (CONSTANT (INTEGER 4 0 0 0 INTEGER ()) 0 '1') (
CONSTANT (INTEGER 4 0 0 0 INTEGER ()) 0 '6')) (UNKNOWN-FL UNKNOWN-INTENT
UNKNOWN-PROC UNKNOWN UNKNOWN 0 0 DIMENSION) UNKNOWN-ACCESS ()) (96
'mumatch_mquark' (REAL 8 0 0 0 REAL ()) () (UNKNOWN-FL UNKNOWN-INTENT
UNKNOWN-PROC UNKNOWN UNKNOWN 0 0) UNKNOWN-ACCESS ()) (97
'masses_are_msbar' (LOGICAL 4 0 0 0 LOGICAL ()) () (UNKNOWN-FL
UNKNOWN-INTENT UNKNOWN-PROC UNKNOWN UNKNOWN 0 0) UNKNOWN-ACCESS ()))
PRIVATE (() () () ()) () 0 0 14435142)
24 'coupling' '' '' 23 ((VARIABLE IN UNKNOWN-PROC UNKNOWN UNKNOWN 0 0
DUMMY) (DERIVED 6 0 0 0 DERIVED ()) 0 0 () () 0 () () () 0 0)
25 'q' '' '' 23 ((VARIABLE IN UNKNOWN-PROC UNKNOWN UNKNOWN 0 0 DUMMY) (
REAL 8 0 0 0 REAL ()) 0 0 () () 0 () () () 0 0)
26 'qlo' '' '' 23 ((VARIABLE OUT UNKNOWN-PROC UNKNOWN UNKNOWN 0 0
OPTIONAL DUMMY) (REAL 8 0 0 0 REAL ()) 0 0 () () 0 () () () 0 0)
27 'qhi' '' '' 23 ((VARIABLE OUT UNKNOWN-PROC UNKNOWN UNKNOWN 0 0
OPTIONAL DUMMY) (REAL 8 0 0 0 REAL ()) 0 0 () () 0 () () () 0 0)
28 'mum_mq' '' '' 23 ((VARIABLE IN UNKNOWN-PROC UNKNOWN UNKNOWN 0 0
OPTIONAL DUMMY) (REAL 8 0 0 0 REAL ()) 0 0 () () 0 () () () 0 0)
31 'coupling' '' '' 30 ((VARIABLE IN UNKNOWN-PROC UNKNOWN UNKNOWN 0 0
DUMMY) (DERIVED 6 0 0 0 DERIVED ()) 0 0 () () 0 () () () 0 0)
32 'nflo' '' '' 30 ((VARIABLE OUT UNKNOWN-PROC UNKNOWN UNKNOWN 0 0 DUMMY)
(INTEGER 4 0 0 0 INTEGER ()) 0 0 () () 0 () () () 0 0)
33 'nfhi' '' '' 30 ((VARIABLE OUT UNKNOWN-PROC UNKNOWN UNKNOWN 0 0 DUMMY)
(INTEGER 4 0 0 0 INTEGER ()) 0 0 () () 0 () () () 0 0)
36 'coupling' '' '' 35 ((VARIABLE IN UNKNOWN-PROC UNKNOWN UNKNOWN 0 0
DUMMY) (DERIVED 6 0 0 0 DERIVED ()) 0 0 () () 0 () () () 0 0)
37 'nflcl' '' '' 35 ((VARIABLE IN UNKNOWN-PROC UNKNOWN UNKNOWN 0 0 DUMMY)
(INTEGER 4 0 0 0 INTEGER ()) 0 0 () () 0 () () () 0 0)
38 'qlo' '' '' 35 ((VARIABLE OUT UNKNOWN-PROC UNKNOWN UNKNOWN 0 0 DUMMY)
(REAL 8 0 0 0 REAL ()) 0 0 () () 0 () () () 0 0)
39 'qhi' '' '' 35 ((VARIABLE OUT UNKNOWN-PROC UNKNOWN UNKNOWN 0 0 DUMMY)
(REAL 8 0 0 0 REAL ()) 0 0 () () 0 () () () 0 0)
40 'mum_mq' '' '' 35 ((VARIABLE IN UNKNOWN-PROC UNKNOWN UNKNOWN 0 0
OPTIONAL DUMMY) (REAL 8 0 0 0 REAL ()) 0 0 () () 0 () () () 0 0)
43 'coupling' '' '' 42 ((VARIABLE IN UNKNOWN-PROC UNKNOWN UNKNOWN 0 0
DUMMY) (DERIVED 6 0 0 0 DERIVED ()) 0 0 () () 0 () () () 0 0)
44 'iflv' '' '' 42 ((VARIABLE IN UNKNOWN-PROC UNKNOWN UNKNOWN 0 0 DUMMY)
(INTEGER 4 0 0 0 INTEGER ()) 0 0 () () 0 () () () 0 0)
45 'mass' '' '' 42 ((VARIABLE UNKNOWN-INTENT UNKNOWN-PROC UNKNOWN
UNKNOWN 0 0 RESULT) (REAL 8 0 0 0 REAL ()) 0 0 () () 0 () () () 0 0)
48 'coupling' '' '' 47 ((VARIABLE IN UNKNOWN-PROC UNKNOWN UNKNOWN 0 0
DUMMY) (DERIVED 6 0 0 0 DERIVED ()) 0 0 () () 0 () () () 0 0)
49 'res' '' '' 47 ((VARIABLE UNKNOWN-INTENT UNKNOWN-PROC UNKNOWN UNKNOWN
0 0 RESULT) (LOGICAL 4 0 0 0 LOGICAL ()) 0 0 () () 0 () () () 0 0)
52 'coupling' '' '' 51 ((VARIABLE UNKNOWN-INTENT UNKNOWN-PROC UNKNOWN
UNKNOWN 0 0 DUMMY) (DERIVED 6 0 0 0 DERIVED ()) 0 0 () () 0 () () () 0 0)
54 'alfas' '' '' 53 ((VARIABLE IN UNKNOWN-PROC UNKNOWN UNKNOWN 0 0
OPTIONAL DUMMY) (REAL 8 0 0 0 REAL ()) 0 0 () () 0 () () () 0 0)
55 'q' '' '' 53 ((VARIABLE IN UNKNOWN-PROC UNKNOWN UNKNOWN 0 0 OPTIONAL
DUMMY) (REAL 8 0 0 0 REAL ()) 0 0 () () 0 () () () 0 0)
56 'qcdl5' '' '' 53 ((VARIABLE IN UNKNOWN-PROC UNKNOWN UNKNOWN 0 0
OPTIONAL DUMMY) (REAL 8 0 0 0 REAL ()) 0 0 () () 0 () () () 0 0)
57 'nloop' '' '' 53 ((VARIABLE IN UNKNOWN-PROC UNKNOWN UNKNOWN 0 0
OPTIONAL DUMMY) (INTEGER 4 0 0 0 INTEGER ()) 0 0 () () 0 () () () 0 0)
58 'fixnf' '' '' 53 ((VARIABLE IN UNKNOWN-PROC UNKNOWN UNKNOWN 0 0
OPTIONAL DUMMY) (INTEGER 4 0 0 0 INTEGER ()) 0 0 () () 0 () () () 0 0)
59 'quark_masses' '' '' 53 ((VARIABLE IN UNKNOWN-PROC UNKNOWN UNKNOWN 0
0 DIMENSION OPTIONAL DUMMY) (REAL 8 0 0 0 REAL ()) 0 0 () (1 0 EXPLICIT
(CONSTANT (INTEGER 4 0 0 0 INTEGER ()) 0 '4') (CONSTANT (INTEGER 4 0 0 0
INTEGER ()) 0 '6')) 0 () () () 0 0)
60 'masses_are_msbar' '' '' 53 ((VARIABLE IN UNKNOWN-PROC UNKNOWN
UNKNOWN 0 0 OPTIONAL DUMMY) (LOGICAL 4 0 0 0 LOGICAL ()) 0 0 () () 0 ()
() () 0 0)
61 'mumatch_mquark' '' '' 53 ((VARIABLE IN UNKNOWN-PROC UNKNOWN UNKNOWN
0 0 OPTIONAL DUMMY) (REAL 8 0 0 0 REAL ()) 0 0 () () 0 () () () 0 0)
62 'use_nah' '' '' 53 ((VARIABLE IN UNKNOWN-PROC UNKNOWN UNKNOWN 0 0
OPTIONAL DUMMY) (LOGICAL 4 0 0 0 LOGICAL ()) 0 0 () () 0 () () () 0 0)
64 'coupling' '' '' 63 ((VARIABLE UNKNOWN-INTENT UNKNOWN-PROC UNKNOWN
UNKNOWN 0 0 DUMMY) (DERIVED 6 0 0 0 DERIVED ()) 0 0 () () 0 () () () 0 0)
65 'alfas' '' '' 63 ((VARIABLE IN UNKNOWN-PROC UNKNOWN UNKNOWN 0 0
OPTIONAL DUMMY) (REAL 8 0 0 0 REAL ()) 0 0 () () 0 () () () 0 0)
66 'q' '' '' 63 ((VARIABLE IN UNKNOWN-PROC UNKNOWN UNKNOWN 0 0 OPTIONAL
DUMMY) (REAL 8 0 0 0 REAL ()) 0 0 () () 0 () () () 0 0)
67 'nloop' '' '' 63 ((VARIABLE IN UNKNOWN-PROC UNKNOWN UNKNOWN 0 0
OPTIONAL DUMMY) (INTEGER 4 0 0 0 INTEGER ()) 0 0 () () 0 () () () 0 0)
68 'fixnf' '' '' 63 ((VARIABLE IN UNKNOWN-PROC UNKNOWN UNKNOWN 0 0
OPTIONAL DUMMY) (INTEGER 4 0 0 0 INTEGER ()) 0 0 () () 0 () () () 0 0)
69 'quark_masses' '' '' 63 ((VARIABLE IN UNKNOWN-PROC UNKNOWN UNKNOWN 0
0 DIMENSION OPTIONAL DUMMY) (REAL 8 0 0 0 REAL ()) 0 0 () (1 0 EXPLICIT
(CONSTANT (INTEGER 4 0 0 0 INTEGER ()) 0 '4') (CONSTANT (INTEGER 4 0 0 0
INTEGER ()) 0 '6')) 0 () () () 0 0)
70 'masses_are_msbar' '' '' 63 ((VARIABLE IN UNKNOWN-PROC UNKNOWN
UNKNOWN 0 0 OPTIONAL DUMMY) (LOGICAL 4 0 0 0 LOGICAL ()) 0 0 () () 0 ()
() () 0 0)
71 'mumatch_mquark' '' '' 63 ((VARIABLE IN UNKNOWN-PROC UNKNOWN UNKNOWN
0 0 OPTIONAL DUMMY) (REAL 8 0 0 0 REAL ()) 0 0 () () 0 () () () 0 0)
72 'use_nah' '' '' 63 ((VARIABLE IN UNKNOWN-PROC UNKNOWN UNKNOWN 0 0
OPTIONAL DUMMY) (LOGICAL 4 0 0 0 LOGICAL ()) 0 0 () () 0 () () () 0 0)
73 'qcdl5' '' '' 63 ((VARIABLE IN UNKNOWN-PROC UNKNOWN UNKNOWN 0 0
OPTIONAL DUMMY) (REAL 8 0 0 0 REAL ()) 0 0 () () 0 () () () 0 0)
75 'coupling' '' '' 74 ((VARIABLE UNKNOWN-INTENT UNKNOWN-PROC UNKNOWN
UNKNOWN 0 0 DUMMY) (DERIVED 6 0 0 0 DERIVED ()) 0 0 () () 0 () () () 0 0)
77 'q' '' '' 76 ((VARIABLE IN UNKNOWN-PROC UNKNOWN UNKNOWN 0 0 DUMMY) (
REAL 8 0 0 0 REAL ()) 0 0 () () 0 () () () 0 0)
78 'fixnf' '' '' 76 ((VARIABLE IN UNKNOWN-PROC UNKNOWN UNKNOWN 0 0
OPTIONAL DUMMY) (INTEGER 4 0 0 0 INTEGER ()) 0 0 () () 0 () () () 0 0)
79 'value' '' '' 76 ((VARIABLE UNKNOWN-INTENT UNKNOWN-PROC UNKNOWN
UNKNOWN 0 0 RESULT ALWAYS_EXPLICIT) (REAL 8 0 0 0 REAL ()) 0 0 () () 0 ()
() () 0 0)
81 'coupling' '' '' 80 ((VARIABLE UNKNOWN-INTENT UNKNOWN-PROC UNKNOWN
UNKNOWN 0 0 DUMMY) (DERIVED 6 0 0 0 DERIVED ()) 0 0 () () 0 () () () 0 0)
82 'q' '' '' 80 ((VARIABLE IN UNKNOWN-PROC UNKNOWN UNKNOWN 0 0 DUMMY) (
REAL 8 0 0 0 REAL ()) 0 0 () () 0 () () () 0 0)
83 'fixnf' '' '' 80 ((VARIABLE IN UNKNOWN-PROC UNKNOWN UNKNOWN 0 0
OPTIONAL DUMMY) (INTEGER 4 0 0 0 INTEGER ()) 0 0 () () 0 () () () 0 0)
84 'value' '' '' 80 ((VARIABLE UNKNOWN-INTENT UNKNOWN-PROC UNKNOWN
UNKNOWN 0 0 RESULT ALWAYS_EXPLICIT) (REAL 8 0 0 0 REAL ()) 0 0 () () 0 ()
() () 0 0)
86 'new_dt_base' '' '' 85 ((VARIABLE UNKNOWN-INTENT UNKNOWN-PROC UNKNOWN
UNKNOWN 0 0 DUMMY) (REAL 8 0 0 0 REAL ()) 0 0 () () 0 () () () 0 0)
88 'Na_segment' 'new_as' '' 1 ((DERIVED UNKNOWN-INTENT UNKNOWN-PROC
UNKNOWN UNKNOWN 0 0 POINTER_COMP) (UNKNOWN 0 0 0 0 UNKNOWN ()) 0 0 () ()
0 ((98 'tlo' (REAL 8 0 0 0 REAL ()) () (UNKNOWN-FL UNKNOWN-INTENT
UNKNOWN-PROC UNKNOWN UNKNOWN 0 0) UNKNOWN-ACCESS ()) (99 'thi' (REAL 8 0
0 0 REAL ()) () (UNKNOWN-FL UNKNOWN-INTENT UNKNOWN-PROC UNKNOWN UNKNOWN
0 0) UNKNOWN-ACCESS ()) (100 'dt' (REAL 8 0 0 0 REAL ()) () (UNKNOWN-FL
UNKNOWN-INTENT UNKNOWN-PROC UNKNOWN UNKNOWN 0 0) UNKNOWN-ACCESS ()) (
101 'beta0' (REAL 8 0 0 0 REAL ()) () (UNKNOWN-FL UNKNOWN-INTENT
UNKNOWN-PROC UNKNOWN UNKNOWN 0 0) UNKNOWN-ACCESS ()) (102 'beta1' (REAL
8 0 0 0 REAL ()) () (UNKNOWN-FL UNKNOWN-INTENT UNKNOWN-PROC UNKNOWN
UNKNOWN 0 0) UNKNOWN-ACCESS ()) (103 'beta2' (REAL 8 0 0 0 REAL ()) () (
UNKNOWN-FL UNKNOWN-INTENT UNKNOWN-PROC UNKNOWN UNKNOWN 0 0)
UNKNOWN-ACCESS ()) (104 'beta3' (REAL 8 0 0 0 REAL ()) () (UNKNOWN-FL
UNKNOWN-INTENT UNKNOWN-PROC UNKNOWN UNKNOWN 0 0) UNKNOWN-ACCESS ()) (
105 'ra' (REAL 8 0 0 0 REAL ()) (1 0 DEFERRED () ()) (UNKNOWN-FL
UNKNOWN-INTENT UNKNOWN-PROC UNKNOWN UNKNOWN 0 0 DIMENSION POINTER)
UNKNOWN-ACCESS ()) (106 'iflip' (INTEGER 4 0 0 0 INTEGER ()) () (
UNKNOWN-FL UNKNOWN-INTENT UNKNOWN-PROC UNKNOWN UNKNOWN 0 0)
UNKNOWN-ACCESS ()) (107 'dummy' (INTEGER 4 0 0 0 INTEGER ()) () (
UNKNOWN-FL UNKNOWN-INTENT UNKNOWN-PROC UNKNOWN UNKNOWN 0 0)
UNKNOWN-ACCESS ())) PUBLIC (() () () ()) () 0 0 56529557)
)

('Running_coupling' 0 6 'as_bn' 0 19 'ash_global' 0 20 'defaultcouplingdt'
0 21 'nfatq' 0 22 'nfrange' 0 29 'qrangeatnf' 0 34 'quarkmass' 0 41
'quarkmassesaremsbar' 0 46 'running_coupling' 0 50)
