ECM, TYPE_V, PDF
1960.0 W+ CT14nnlo.00
  Q,qT,y R_A0 R_A1 R_A2 R_A3
80 8.14308 -4.2 1 1 1 1
80 8.34894 -4.2 1 1 1 1
80 8.56001 -4.2 1 1 1 1
80 8.77641 -4.2 1 1 1 1
80 8.99828 -4.2 1 1 1 1
80 9.22576 -4.2 1 1 1 1
80 9.45899 -4.2 1 1 1 1
80 9.69812 -4.2 1 1 1 1
80 9.9433 -4.2 1 1 1 1
80 10.19467 -4.2 1 1 1 1
80 10.4524 -4.2 1 1 1 1
80 10.71664 -4.2 1 1 1 1
80 10.98756 -4.2 1 1 1 1
80 11.26533 -4.2 1 1 1 1
80 11.55013 -4.2 1 1 1 1
80 11.84212 -4.2 1 1 1 1
80 12.1415 -4.2 1 1 1 1
80 12.44844 -4.2 1 1 1 1
80 12.76314 -4.2 1 1 1 1
80 13.0858 -4.2 1 1 1 1
80 13.41662 -4.2 1 1 1 1
80 13.7558 -4.2 1 1 1 1
80 14.10355 -4.2 1 1 1 1
80 14.4601 -4.2 1 1 1 1
80 14.82566 -4.2 1 1 1 1
80 15.20046 -4.2 1 1 1 1
80 15.58473 -4.2 1 1 1 1
80 15.97872 -4.2 1 1 1 1
80 16.38268 -4.2 1 1 1 1
80 16.79684 -4.2 1 1 1 1
80 17.22147 -4.2 1 1 1 1
80 17.65684 -4.2 1 1 1 1
80 18.10322 -4.2 1 1 1 1
80 18.56088 -4.2 1 1 1 1
80 19.0301 -4.2 1 1 1 1
80 19.5112 -4.2 1 1 1 1
80 20.00445 -4.2 1 1 1 1
80 20.51017 -4.2 1 1 1 1
80 21.02868 -4.2 1 1 1 1
80 21.5603 -4.2 1 1 1 1
80 22.10536 -4.2 1 1 1 1
80 22.66419 -4.2 1 1 1 1
80 23.23715 -4.2 1 1 1 1
80 23.8246 -4.2 1 1 1 1
80 24.4269 -4.2 1 1 1 1
80 25.04443 -4.2 1 1 1 1
80 25.67756 -4.2 1 1 1 1
80 26.32671 -4.2 1 1 1 1
80 26.99226 -4.2 1 1 1 1
80 27.67464 -4.2 1 1 1 1
80 28.37427 -4.2 1 1 1 1
80 29.09159 -4.2 1 1 1 1
80 29.82704 -4.2 1 1 1 1
80 30.58108 -4.2 1 1 1 1
80 31.35419 -4.2 1 1 1 1
80 32.14684 -4.2 1 1 1 1
80 32.95953 -4.2 1 1 1 1
80 33.79277 -4.2 1 1 1 1
80 34.64707 -4.2 1 1 1 1
80 35.52297 -4.2 1 1 1 1
80 36.42101 -4.2 1 1 1 1
80 37.34175 -4.2 1 1 1 1
80 38.28577 -4.2 1 1 1 1
80 39.25366 -4.2 1 1 1 1
80 40.24601 -4.2 1 1 1 1
80 41.26345 -4.2 1 1 1 1
80 42.30661 -4.2 1 1 1 1
80 43.37615 -4.2 1 1 1 1
80 44.47272 -4.2 1 1 1 1
80 45.59702 -4.2 1 1 1 1
80 46.74974 -4.2 1 1 1 1
80 47.93159 -4.2 1 1 1 1
80 49.14333 -4.2 1 1 1 1
80 50.3857 -4.2 1 1 1 1
80 51.65948 -4.2 1 1 1 1
80 52.96546 -4.2 1 1 1 1
80 54.30446 -4.2 1 1 1 1
80 55.67731 -4.2 1 1 1 1
80 57.08486 -4.2 1 1 1 1
80 58.528 -4.2 1 1 1 1
80 60.00762 -4.2 1 1 1 1
80 61.52464 -4.2 1 1 1 1
80 63.08002 -4.2 1 1 1 1
80 64.67472 -4.2 1 1 1 1
80 66.30973 -4.2 1 1 1 1
80 67.98608 -4.2 1 1 1 1
80 69.7048 -4.2 1 1 1 1
80 71.46698 -4.2 1 1 1 1
80 73.2737 -4.2 1 1 1 1
80 75.1261 -4.2 1 1 1 1
80 77.02533 -4.2 1 1 1 1
80 78.97258 -4.2 1 1 1 1
80 80.96905 -4.2 1 1 1 1
80 83.01599 -4.2 1 1 1 1
80 85.11468 -4.2 1 1 1 1
80 87.26643 -4.2 1 1 1 1
80 89.47257 -4.2 1 1 1 1
80 91.73449 -4.2 1 1 1 1
80 94.05359 -4.2 1 1 1 1
80 96.43131 -4.2 1 1 1 1
80 98.86915 -4.2 1 1 1 1
80 101.36862 -4.2 1 1 1 1
80 103.93127 -4.2 1 1 1 1
80 106.55872 -4.2 1 1 1 1
80 109.25258 -4.2 1 1 1 1
80 112.01454 -4.2 1 1 1 1
80 114.84633 -4.2 1 1 1 1
80 117.74971 -4.2 1 1 1 1
80 120.72649 -4.2 1 1 1 1
80 123.77853 -4.2 1 1 1 1
80 126.90772 -4.2 1 1 1 1
80 130.11601 -4.2 1 1 1 1
80 133.40542 -4.2 1 1 1 1
80 136.77798 -4.2 1 1 1 1
80 140.23581 -4.2 1 1 1 1
80 143.78105 -4.2 1 1 1 1
80 147.41591 -4.2 1 1 1 1
80 151.14267 -4.2 1 1 1 1
80 154.96364 -4.2 1 1 1 1
80 158.8812 -4.2 1 1 1 1
80 162.89781 -4.2 1 1 1 1
80 167.01596 -4.2 1 1 1 1
80 171.23821 -4.2 1 1 1 1
80 175.56721 -4.2 1 1 1 1
80 180.00565 -4.2 1 1 1 1
80 184.55629 -4.2 1 1 1 1
80 189.22198 -4.2 1 1 1 1
80 194.00561 -4.2 1 1 1 1
80 198.91018 -4.2 1 1 1 1
80 203.93874 -4.2 1 1 1 1
80 209.09443 -4.2 1 1 1 1
80 214.38045 -4.2 1 1 1 1
80 219.80011 -4.2 1 1 1 1
80 225.35678 -4.2 1 1 1 1
80 231.05392 -4.2 1 1 1 1
80 236.8951 -4.2 1 1 1 1
80 242.88394 -4.2 1 1 1 1
80 249.02418 -4.2 1 1 1 1
80 255.31965 -4.2 1 1 1 1
80 261.77427 -4.2 1 1 1 1
80 268.39207 -4.2 1 1 1 1
80 275.17717 -4.2 1 1 1 1
80 282.1338 -4.2 1 1 1 1
80 289.2663 -4.2 1 1 1 1
80 296.57912 -4.2 1 1 1 1
80 304.0768 -4.2 1 1 1 1
80 311.76403 -4.2 1 1 1 1
80 319.6456 -4.2 1 1 1 1
80 327.72642 -4.2 1 1 1 1
80 336.01153 -4.2 1 1 1 1
80 344.50609 -4.2 1 1 1 1
80 353.21539 -4.2 1 1 1 1
80 362.14487 -4.2 1 1 1 1
80 371.3001 -4.2 1 1 1 1
80 380.68677 -4.2 1 1 1 1
80 390.31075 -4.2 1 1 1 1
80 400.17802 -4.2 1 1 1 1
80 410.29474 -4.2 1 1 1 1
80 420.66722 -4.2 1 1 1 1
80 431.30192 -4.2 1 1 1 1
80 442.20548 -4.2 1 1 1 1
80 453.38468 -4.2 1 1 1 1
80 464.84649 -4.2 1 1 1 1
80 476.59807 -4.2 1 1 1 1
80 488.64674 -4.2 1 1 1 1
80 501 -4.2 1 1 1 1
80 8.14308 -3.8 1 1 1 1
80 8.34894 -3.8 1 1 1 1
80 8.56001 -3.8 1 1 1 1
80 8.77641 -3.8 1 1 1 1
80 8.99828 -3.8 1 1 1 1
80 9.22576 -3.8 1 1 1 1
80 9.45899 -3.8 1 1 1 1
80 9.69812 -3.8 1 1 1 1
80 9.9433 -3.8 1 1 1 1
80 10.19467 -3.8 1 1 1 1
80 10.4524 -3.8 1 1 1 1
80 10.71664 -3.8 1 1 1 1
80 10.98756 -3.8 1 1 1 1
80 11.26533 -3.8 1 1 1 1
80 11.55013 -3.8 1 1 1 1
80 11.84212 -3.8 1 1 1 1
80 12.1415 -3.8 1 1 1 1
80 12.44844 -3.8 1 1 1 1
80 12.76314 -3.8 1 1 1 1
80 13.0858 -3.8 1 1 1 1
80 13.41662 -3.8 1 1 1 1
80 13.7558 -3.8 1 1 1 1
80 14.10355 -3.8 1 1 1 1
80 14.4601 -3.8 1 1 1 1
80 14.82566 -3.8 1 1 1 1
80 15.20046 -3.8 1 1 1 1
80 15.58473 -3.8 1 1 1 1
80 15.97872 -3.8 1 1 1 1
80 16.38268 -3.8 1 1 1 1
80 16.79684 -3.8 1 1 1 1
80 17.22147 -3.8 1 1 1 1
80 17.65684 -3.8 1 1 1 1
80 18.10322 -3.8 1 1 1 1
80 18.56088 -3.8 1 1 1 1
80 19.0301 -3.8 1 1 1 1
80 19.5112 -3.8 1 1 1 1
80 20.00445 -3.8 1 1 1 1
80 20.51017 -3.8 1 1 1 1
80 21.02868 -3.8 1 1 1 1
80 21.5603 -3.8 1 1 1 1
80 22.10536 -3.8 1 1 1 1
80 22.66419 -3.8 1 1 1 1
80 23.23715 -3.8 1 1 1 1
80 23.8246 -3.8 1 1 1 1
80 24.4269 -3.8 1 1 1 1
80 25.04443 -3.8 1 1 1 1
80 25.67756 -3.8 1 1 1 1
80 26.32671 -3.8 1 1 1 1
80 26.99226 -3.8 1 1 1 1
80 27.67464 -3.8 1 1 1 1
80 28.37427 -3.8 1 1 1 1
80 29.09159 -3.8 1 1 1 1
80 29.82704 -3.8 1 1 1 1
80 30.58108 -3.8 1 1 1 1
80 31.35419 -3.8 1 1 1 1
80 32.14684 -3.8 1 1 1 1
80 32.95953 -3.8 1 1 1 1
80 33.79277 -3.8 1 1 1 1
80 34.64707 -3.8 1 1 1 1
80 35.52297 -3.8 1 1 1 1
80 36.42101 -3.8 1 1 1 1
80 37.34175 -3.8 1 1 1 1
80 38.28577 -3.8 1 1 1 1
80 39.25366 -3.8 1 1 1 1
80 40.24601 -3.8 1 1 1 1
80 41.26345 -3.8 1 1 1 1
80 42.30661 -3.8 1 1 1 1
80 43.37615 -3.8 1 1 1 1
80 44.47272 -3.8 1 1 1 1
80 45.59702 -3.8 1 1 1 1
80 46.74974 -3.8 1 1 1 1
80 47.93159 -3.8 1 1 1 1
80 49.14333 -3.8 1 1 1 1
80 50.3857 -3.8 1 1 1 1
80 51.65948 -3.8 1 1 1 1
80 52.96546 -3.8 1 1 1 1
80 54.30446 -3.8 1 1 1 1
80 55.67731 -3.8 1 1 1 1
80 57.08486 -3.8 1 1 1 1
80 58.528 -3.8 1 1 1 1
80 60.00762 -3.8 1 1 1 1
80 61.52464 -3.8 1 1 1 1
80 63.08002 -3.8 1 1 1 1
80 64.67472 -3.8 1 1 1 1
80 66.30973 -3.8 1 1 1 1
80 67.98608 -3.8 1 1 1 1
80 69.7048 -3.8 1 1 1 1
80 71.46698 -3.8 1 1 1 1
80 73.2737 -3.8 1 1 1 1
80 75.1261 -3.8 1 1 1 1
80 77.02533 -3.8 1 1 1 1
80 78.97258 -3.8 1 1 1 1
80 80.96905 -3.8 1 1 1 1
80 83.01599 -3.8 1 1 1 1
80 85.11468 -3.8 1 1 1 1
80 87.26643 -3.8 1 1 1 1
80 89.47257 -3.8 1 1 1 1
80 91.73449 -3.8 1 1 1 1
80 94.05359 -3.8 1 1 1 1
80 96.43131 -3.8 1 1 1 1
80 98.86915 -3.8 1 1 1 1
80 101.36862 -3.8 1 1 1 1
80 103.93127 -3.8 1 1 1 1
80 106.55872 -3.8 1 1 1 1
80 109.25258 -3.8 1 1 1 1
80 112.01454 -3.8 1 1 1 1
80 114.84633 -3.8 1 1 1 1
80 117.74971 -3.8 1 1 1 1
80 120.72649 -3.8 1 1 1 1
80 123.77853 -3.8 1 1 1 1
80 126.90772 -3.8 1 1 1 1
80 130.11601 -3.8 1 1 1 1
80 133.40542 -3.8 1 1 1 1
80 136.77798 -3.8 1 1 1 1
80 140.23581 -3.8 1 1 1 1
80 143.78105 -3.8 1 1 1 1
80 147.41591 -3.8 1 1 1 1
80 151.14267 -3.8 1 1 1 1
80 154.96364 -3.8 1 1 1 1
80 158.8812 -3.8 1 1 1 1
80 162.89781 -3.8 1 1 1 1
80 167.01596 -3.8 1 1 1 1
80 171.23821 -3.8 1 1 1 1
80 175.56721 -3.8 1 1 1 1
80 180.00565 -3.8 1 1 1 1
80 184.55629 -3.8 1 1 1 1
80 189.22198 -3.8 1 1 1 1
80 194.00561 -3.8 1 1 1 1
80 198.91018 -3.8 1 1 1 1
80 203.93874 -3.8 1 1 1 1
80 209.09443 -3.8 1 1 1 1
80 214.38045 -3.8 1 1 1 1
80 219.80011 -3.8 1 1 1 1
80 225.35678 -3.8 1 1 1 1
80 231.05392 -3.8 1 1 1 1
80 236.8951 -3.8 1 1 1 1
80 242.88394 -3.8 1 1 1 1
80 249.02418 -3.8 1 1 1 1
80 255.31965 -3.8 1 1 1 1
80 261.77427 -3.8 1 1 1 1
80 268.39207 -3.8 1 1 1 1
80 275.17717 -3.8 1 1 1 1
80 282.1338 -3.8 1 1 1 1
80 289.2663 -3.8 1 1 1 1
80 296.57912 -3.8 1 1 1 1
80 304.0768 -3.8 1 1 1 1
80 311.76403 -3.8 1 1 1 1
80 319.6456 -3.8 1 1 1 1
80 327.72642 -3.8 1 1 1 1
80 336.01153 -3.8 1 1 1 1
80 344.50609 -3.8 1 1 1 1
80 353.21539 -3.8 1 1 1 1
80 362.14487 -3.8 1 1 1 1
80 371.3001 -3.8 1 1 1 1
80 380.68677 -3.8 1 1 1 1
80 390.31075 -3.8 1 1 1 1
80 400.17802 -3.8 1 1 1 1
80 410.29474 -3.8 1 1 1 1
80 420.66722 -3.8 1 1 1 1
80 431.30192 -3.8 1 1 1 1
80 442.20548 -3.8 1 1 1 1
80 453.38468 -3.8 1 1 1 1
80 464.84649 -3.8 1 1 1 1
80 476.59807 -3.8 1 1 1 1
80 488.64674 -3.8 1 1 1 1
80 501 -3.8 1 1 1 1
80 8.14308 -3.4 1 1 1 1
80 8.34894 -3.4 1 1 1 1
80 8.56001 -3.4 1 1 1 1
80 8.77641 -3.4 1 1 1 1
80 8.99828 -3.4 1 1 1 1
80 9.22576 -3.4 1 1 1 1
80 9.45899 -3.4 1 1 1 1
80 9.69812 -3.4 1 1 1 1
80 9.9433 -3.4 1 1 1 1
80 10.19467 -3.4 1 1 1 1
80 10.4524 -3.4 1 1 1 1
80 10.71664 -3.4 1 1 1 1
80 10.98756 -3.4 1 1 1 1
80 11.26533 -3.4 1 1 1 1
80 11.55013 -3.4 1 1 1 1
80 11.84212 -3.4 1 1 1 1
80 12.1415 -3.4 1 1 1 1
80 12.44844 -3.4 1 1 1 1
80 12.76314 -3.4 1 1 1 1
80 13.0858 -3.4 1 1 1 1
80 13.41662 -3.4 1 1 1 1
80 13.7558 -3.4 1 1 1 1
80 14.10355 -3.4 1 1 1 1
80 14.4601 -3.4 1 1 1 1
80 14.82566 -3.4 1 1 1 1
80 15.20046 -3.4 1 1 1 1
80 15.58473 -3.4 1 1 1 1
80 15.97872 -3.4 1 1 1 1
80 16.38268 -3.4 1 1 1 1
80 16.79684 -3.4 1 1 1 1
80 17.22147 -3.4 1 1 1 1
80 17.65684 -3.4 1 1 1 1
80 18.10322 -3.4 1 1 1 1
80 18.56088 -3.4 1 1 1 1
80 19.0301 -3.4 1 1 1 1
80 19.5112 -3.4 1 1 1 1
80 20.00445 -3.4 1 1 1 1
80 20.51017 -3.4 1 1 1 1
80 21.02868 -3.4 1 1 1 1
80 21.5603 -3.4 1 1 1 1
80 22.10536 -3.4 1 1 1 1
80 22.66419 -3.4 1 1 1 1
80 23.23715 -3.4 1 1 1 1
80 23.8246 -3.4 1 1 1 1
80 24.4269 -3.4 1 1 1 1
80 25.04443 -3.4 1 1 1 1
80 25.67756 -3.4 1 1 1 1
80 26.32671 -3.4 1 1 1 1
80 26.99226 -3.4 1 1 1 1
80 27.67464 -3.4 1 1 1 1
80 28.37427 -3.4 1 1 1 1
80 29.09159 -3.4 1 1 1 1
80 29.82704 -3.4 1 1 1 1
80 30.58108 -3.4 1 1 1 1
80 31.35419 -3.4 1 1 1 1
80 32.14684 -3.4 1 1 1 1
80 32.95953 -3.4 1 1 1 1
80 33.79277 -3.4 1 1 1 1
80 34.64707 -3.4 1 1 1 1
80 35.52297 -3.4 1 1 1 1
80 36.42101 -3.4 1 1 1 1
80 37.34175 -3.4 1 1 1 1
80 38.28577 -3.4 1 1 1 1
80 39.25366 -3.4 1 1 1 1
80 40.24601 -3.4 1 1 1 1
80 41.26345 -3.4 1 1 1 1
80 42.30661 -3.4 1 1 1 1
80 43.37615 -3.4 1 1 1 1
80 44.47272 -3.4 1 1 1 1
80 45.59702 -3.4 1 1 1 1
80 46.74974 -3.4 1 1 1 1
80 47.93159 -3.4 1 1 1 1
80 49.14333 -3.4 1 1 1 1
80 50.3857 -3.4 1 1 1 1
80 51.65948 -3.4 1 1 1 1
80 52.96546 -3.4 1 1 1 1
80 54.30446 -3.4 1 1 1 1
80 55.67731 -3.4 1 1 1 1
80 57.08486 -3.4 1 1 1 1
80 58.528 -3.4 1 1 1 1
80 60.00762 -3.4 1 1 1 1
80 61.52464 -3.4 1 1 1 1
80 63.08002 -3.4 1 1 1 1
80 64.67472 -3.4 1 1 1 1
80 66.30973 -3.4 1 1 1 1
80 67.98608 -3.4 1 1 1 1
80 69.7048 -3.4 1 1 1 1
80 71.46698 -3.4 1 1 1 1
80 73.2737 -3.4 1 1 1 1
80 75.1261 -3.4 1 1 1 1
80 77.02533 -3.4 1 1 1 1
80 78.97258 -3.4 1 1 1 1
80 80.96905 -3.4 1 1 1 1
80 83.01599 -3.4 1 1 1 1
80 85.11468 -3.4 1 1 1 1
80 87.26643 -3.4 1 1 1 1
80 89.47257 -3.4 1 1 1 1
80 91.73449 -3.4 1 1 1 1
80 94.05359 -3.4 1 1 1 1
80 96.43131 -3.4 1 1 1 1
80 98.86915 -3.4 1 1 1 1
80 101.36862 -3.4 1 1 1 1
80 103.93127 -3.4 1 1 1 1
80 106.55872 -3.4 1 1 1 1
80 109.25258 -3.4 1 1 1 1
80 112.01454 -3.4 1 1 1 1
80 114.84633 -3.4 1 1 1 1
80 117.74971 -3.4 1 1 1 1
80 120.72649 -3.4 1 1 1 1
80 123.77853 -3.4 1 1 1 1
80 126.90772 -3.4 1 1 1 1
80 130.11601 -3.4 1 1 1 1
80 133.40542 -3.4 1 1 1 1
80 136.77798 -3.4 1 1 1 1
80 140.23581 -3.4 1 1 1 1
80 143.78105 -3.4 1 1 1 1
80 147.41591 -3.4 1 1 1 1
80 151.14267 -3.4 1 1 1 1
80 154.96364 -3.4 1 1 1 1
80 158.8812 -3.4 1 1 1 1
80 162.89781 -3.4 1 1 1 1
80 167.01596 -3.4 1 1 1 1
80 171.23821 -3.4 1 1 1 1
80 175.56721 -3.4 1 1 1 1
80 180.00565 -3.4 1 1 1 1
80 184.55629 -3.4 1 1 1 1
80 189.22198 -3.4 1 1 1 1
80 194.00561 -3.4 1 1 1 1
80 198.91018 -3.4 1 1 1 1
80 203.93874 -3.4 1 1 1 1
80 209.09443 -3.4 1 1 1 1
80 214.38045 -3.4 1 1 1 1
80 219.80011 -3.4 1 1 1 1
80 225.35678 -3.4 1 1 1 1
80 231.05392 -3.4 1 1 1 1
80 236.8951 -3.4 1 1 1 1
80 242.88394 -3.4 1 1 1 1
80 249.02418 -3.4 1 1 1 1
80 255.31965 -3.4 1 1 1 1
80 261.77427 -3.4 1 1 1 1
80 268.39207 -3.4 1 1 1 1
80 275.17717 -3.4 1 1 1 1
80 282.1338 -3.4 1 1 1 1
80 289.2663 -3.4 1 1 1 1
80 296.57912 -3.4 1 1 1 1
80 304.0768 -3.4 1 1 1 1
80 311.76403 -3.4 1 1 1 1
80 319.6456 -3.4 1 1 1 1
80 327.72642 -3.4 1 1 1 1
80 336.01153 -3.4 1 1 1 1
80 344.50609 -3.4 1 1 1 1
80 353.21539 -3.4 1 1 1 1
80 362.14487 -3.4 1 1 1 1
80 371.3001 -3.4 1 1 1 1
80 380.68677 -3.4 1 1 1 1
80 390.31075 -3.4 1 1 1 1
80 400.17802 -3.4 1 1 1 1
80 410.29474 -3.4 1 1 1 1
80 420.66722 -3.4 1 1 1 1
80 431.30192 -3.4 1 1 1 1
80 442.20548 -3.4 1 1 1 1
80 453.38468 -3.4 1 1 1 1
80 464.84649 -3.4 1 1 1 1
80 476.59807 -3.4 1 1 1 1
80 488.64674 -3.4 1 1 1 1
80 501 -3.4 1 1 1 1
80 8.14308 -3 1 1 1 1
80 8.34894 -3 1 1 1 1
80 8.56001 -3 1 1 1 1
80 8.77641 -3 1 1 1 1
80 8.99828 -3 1 1 1 1
80 9.22576 -3 1 1 1 1
80 9.45899 -3 1 1 1 1
80 9.69812 -3 1 1 1 1
80 9.9433 -3 1 1 1 1
80 10.19467 -3 1 1 1 1
80 10.4524 -3 1 1 1 1
80 10.71664 -3 1 1 1 1
80 10.98756 -3 1 1 1 1
80 11.26533 -3 1 1 1 1
80 11.55013 -3 1 1 1 1
80 11.84212 -3 1 1 1 1
80 12.1415 -3 1 1 1 1
80 12.44844 -3 1 1 1 1
80 12.76314 -3 1 1 1 1
80 13.0858 -3 1 1 1 1
80 13.41662 -3 1 1 1 1
80 13.7558 -3 1 1 1 1
80 14.10355 -3 1 1 1 1
80 14.4601 -3 1 1 1 1
80 14.82566 -3 1 1 1 1
80 15.20046 -3 1 1 1 1
80 15.58473 -3 1 1 1 1
80 15.97872 -3 1 1 1 1
80 16.38268 -3 1 1 1 1
80 16.79684 -3 1 1 1 1
80 17.22147 -3 1 1 1 1
80 17.65684 -3 1 1 1 1
80 18.10322 -3 1 1 1 1
80 18.56088 -3 1 1 1 1
80 19.0301 -3 1 1 1 1
80 19.5112 -3 1 1 1 1
80 20.00445 -3 1 1 1 1
80 20.51017 -3 1 1 1 1
80 21.02868 -3 1 1 1 1
80 21.5603 -3 1 1 1 1
80 22.10536 -3 1 1 1 1
80 22.66419 -3 1 1 1 1
80 23.23715 -3 1 1 1 1
80 23.8246 -3 1 1 1 1
80 24.4269 -3 1 1 1 1
80 25.04443 -3 1 1 1 1
80 25.67756 -3 1 1 1 1
80 26.32671 -3 1 1 1 1
80 26.99226 -3 1 1 1 1
80 27.67464 -3 1 1 1 1
80 28.37427 -3 1 1 1 1
80 29.09159 -3 1 1 1 1
80 29.82704 -3 1 1 1 1
80 30.58108 -3 1 1 1 1
80 31.35419 -3 1 1 1 1
80 32.14684 -3 1 1 1 1
80 32.95953 -3 1 1 1 1
80 33.79277 -3 1 1 1 1
80 34.64707 -3 1 1 1 1
80 35.52297 -3 1 1 1 1
80 36.42101 -3 1 1 1 1
80 37.34175 -3 1 1 1 1
80 38.28577 -3 1 1 1 1
80 39.25366 -3 1 1 1 1
80 40.24601 -3 1 1 1 1
80 41.26345 -3 1 1 1 1
80 42.30661 -3 1 1 1 1
80 43.37615 -3 1 1 1 1
80 44.47272 -3 1 1 1 1
80 45.59702 -3 1 1 1 1
80 46.74974 -3 1 1 1 1
80 47.93159 -3 1 1 1 1
80 49.14333 -3 1 1 1 1
80 50.3857 -3 1 1 1 1
80 51.65948 -3 1 1 1 1
80 52.96546 -3 1 1 1 1
80 54.30446 -3 1 1 1 1
80 55.67731 -3 1 1 1 1
80 57.08486 -3 1 1 1 1
80 58.528 -3 1 1 1 1
80 60.00762 -3 1 1 1 1
80 61.52464 -3 1 1 1 1
80 63.08002 -3 1 1 1 1
80 64.67472 -3 1 1 1 1
80 66.30973 -3 1 1 1 1
80 67.98608 -3 1 1 1 1
80 69.7048 -3 1 1 1 1
80 71.46698 -3 1 1 1 1
80 73.2737 -3 1 1 1 1
80 75.1261 -3 1 1 1 1
80 77.02533 -3 1 1 1 1
80 78.97258 -3 1 1 1 1
80 80.96905 -3 1 1 1 1
80 83.01599 -3 1 1 1 1
80 85.11468 -3 1 1 1 1
80 87.26643 -3 1 1 1 1
80 89.47257 -3 1 1 1 1
80 91.73449 -3 1 1 1 1
80 94.05359 -3 1 1 1 1
80 96.43131 -3 1 1 1 1
80 98.86915 -3 1 1 1 1
80 101.36862 -3 1 1 1 1
80 103.93127 -3 1 1 1 1
80 106.55872 -3 1 1 1 1
80 109.25258 -3 1 1 1 1
80 112.01454 -3 1 1 1 1
80 114.84633 -3 1 1 1 1
80 117.74971 -3 1 1 1 1
80 120.72649 -3 1 1 1 1
80 123.77853 -3 1 1 1 1
80 126.90772 -3 1 1 1 1
80 130.11601 -3 1 1 1 1
80 133.40542 -3 1 1 1 1
80 136.77798 -3 1 1 1 1
80 140.23581 -3 1 1 1 1
80 143.78105 -3 1 1 1 1
80 147.41591 -3 1 1 1 1
80 151.14267 -3 1 1 1 1
80 154.96364 -3 1 1 1 1
80 158.8812 -3 1 1 1 1
80 162.89781 -3 1 1 1 1
80 167.01596 -3 1 1 1 1
80 171.23821 -3 1 1 1 1
80 175.56721 -3 1 1 1 1
80 180.00565 -3 1 1 1 1
80 184.55629 -3 1 1 1 1
80 189.22198 -3 1 1 1 1
80 194.00561 -3 1 1 1 1
80 198.91018 -3 1 1 1 1
80 203.93874 -3 1 1 1 1
80 209.09443 -3 1 1 1 1
80 214.38045 -3 1 1 1 1
80 219.80011 -3 1 1 1 1
80 225.35678 -3 1 1 1 1
80 231.05392 -3 1 1 1 1
80 236.8951 -3 1 1 1 1
80 242.88394 -3 1 1 1 1
80 249.02418 -3 1 1 1 1
80 255.31965 -3 1 1 1 1
80 261.77427 -3 1 1 1 1
80 268.39207 -3 1 1 1 1
80 275.17717 -3 1 1 1 1
80 282.1338 -3 1 1 1 1
80 289.2663 -3 1 1 1 1
80 296.57912 -3 1 1 1 1
80 304.0768 -3 1 1 1 1
80 311.76403 -3 1 1 1 1
80 319.6456 -3 1 1 1 1
80 327.72642 -3 1 1 1 1
80 336.01153 -3 1 1 1 1
80 344.50609 -3 1 1 1 1
80 353.21539 -3 1 1 1 1
80 362.14487 -3 1 1 1 1
80 371.3001 -3 1 1 1 1
80 380.68677 -3 1 1 1 1
80 390.31075 -3 1 1 1 1
80 400.17802 -3 1 1 1 1
80 410.29474 -3 1 1 1 1
80 420.66722 -3 1 1 1 1
80 431.30192 -3 1 1 1 1
80 442.20548 -3 1 1 1 1
80 453.38468 -3 1 1 1 1
80 464.84649 -3 1 1 1 1
80 476.59807 -3 1 1 1 1
80 488.64674 -3 1 1 1 1
80 501 -3 1 1 1 1
80 8.14308 -2.6 1 1 1 1
80 8.34894 -2.6 1 1 1 1
80 8.56001 -2.6 1 1 1 1
80 8.77641 -2.6 1 1 1 1
80 8.99828 -2.6 1 1 1 1
80 9.22576 -2.6 1 1 1 1
80 9.45899 -2.6 1 1 1 1
80 9.69812 -2.6 1 1 1 1
80 9.9433 -2.6 1 1 1 1
80 10.19467 -2.6 1 1 1 1
80 10.4524 -2.6 1 1 1 1
80 10.71664 -2.6 1 1 1 1
80 10.98756 -2.6 1 1 1 1
80 11.26533 -2.6 1 1 1 1
80 11.55013 -2.6 1 1 1 1
80 11.84212 -2.6 1 1 1 1
80 12.1415 -2.6 1 1 1 1
80 12.44844 -2.6 1 1 1 1
80 12.76314 -2.6 1 1 1 1
80 13.0858 -2.6 1 1 1 1
80 13.41662 -2.6 1 1 1 1
80 13.7558 -2.6 1 1 1 1
80 14.10355 -2.6 1 1 1 1
80 14.4601 -2.6 1 1 1 1
80 14.82566 -2.6 1 1 1 1
80 15.20046 -2.6 1 1 1 1
80 15.58473 -2.6 1 1 1 1
80 15.97872 -2.6 1 1 1 1
80 16.38268 -2.6 1 1 1 1
80 16.79684 -2.6 1 1 1 1
80 17.22147 -2.6 1 1 1 1
80 17.65684 -2.6 1 1 1 1
80 18.10322 -2.6 1 1 1 1
80 18.56088 -2.6 1 1 1 1
80 19.0301 -2.6 1 1 1 1
80 19.5112 -2.6 1 1 1 1
80 20.00445 -2.6 1 1 1 1
80 20.51017 -2.6 1 1 1 1
80 21.02868 -2.6 1 1 1 1
80 21.5603 -2.6 1 1 1 1
80 22.10536 -2.6 1 1 1 1
80 22.66419 -2.6 1 1 1 1
80 23.23715 -2.6 1 1 1 1
80 23.8246 -2.6 1 1 1 1
80 24.4269 -2.6 1 1 1 1
80 25.04443 -2.6 1 1 1 1
80 25.67756 -2.6 1 1 1 1
80 26.32671 -2.6 1 1 1 1
80 26.99226 -2.6 1 1 1 1
80 27.67464 -2.6 1 1 1 1
80 28.37427 -2.6 1 1 1 1
80 29.09159 -2.6 1 1 1 1
80 29.82704 -2.6 1 1 1 1
80 30.58108 -2.6 1 1 1 1
80 31.35419 -2.6 1 1 1 1
80 32.14684 -2.6 1 1 1 1
80 32.95953 -2.6 1 1 1 1
80 33.79277 -2.6 1 1 1 1
80 34.64707 -2.6 1 1 1 1
80 35.52297 -2.6 1 1 1 1
80 36.42101 -2.6 1 1 1 1
80 37.34175 -2.6 1 1 1 1
80 38.28577 -2.6 1 1 1 1
80 39.25366 -2.6 1 1 1 1
80 40.24601 -2.6 1 1 1 1
80 41.26345 -2.6 1 1 1 1
80 42.30661 -2.6 1 1 1 1
80 43.37615 -2.6 1 1 1 1
80 44.47272 -2.6 1 1 1 1
80 45.59702 -2.6 1 1 1 1
80 46.74974 -2.6 1 1 1 1
80 47.93159 -2.6 1 1 1 1
80 49.14333 -2.6 1 1 1 1
80 50.3857 -2.6 1 1 1 1
80 51.65948 -2.6 1 1 1 1
80 52.96546 -2.6 1 1 1 1
80 54.30446 -2.6 1 1 1 1
80 55.67731 -2.6 1 1 1 1
80 57.08486 -2.6 1 1 1 1
80 58.528 -2.6 1 1 1 1
80 60.00762 -2.6 1 1 1 1
80 61.52464 -2.6 1 1 1 1
80 63.08002 -2.6 1 1 1 1
80 64.67472 -2.6 1 1 1 1
80 66.30973 -2.6 1 1 1 1
80 67.98608 -2.6 1 1 1 1
80 69.7048 -2.6 1 1 1 1
80 71.46698 -2.6 1 1 1 1
80 73.2737 -2.6 1 1 1 1
80 75.1261 -2.6 1 1 1 1
80 77.02533 -2.6 1 1 1 1
80 78.97258 -2.6 1 1 1 1
80 80.96905 -2.6 1 1 1 1
80 83.01599 -2.6 1 1 1 1
80 85.11468 -2.6 1 1 1 1
80 87.26643 -2.6 1 1 1 1
80 89.47257 -2.6 1 1 1 1
80 91.73449 -2.6 1 1 1 1
80 94.05359 -2.6 1 1 1 1
80 96.43131 -2.6 1 1 1 1
80 98.86915 -2.6 1 1 1 1
80 101.36862 -2.6 1 1 1 1
80 103.93127 -2.6 1 1 1 1
80 106.55872 -2.6 1 1 1 1
80 109.25258 -2.6 1 1 1 1
80 112.01454 -2.6 1 1 1 1
80 114.84633 -2.6 1 1 1 1
80 117.74971 -2.6 1 1 1 1
80 120.72649 -2.6 1 1 1 1
80 123.77853 -2.6 1 1 1 1
80 126.90772 -2.6 1 1 1 1
80 130.11601 -2.6 1 1 1 1
80 133.40542 -2.6 1 1 1 1
80 136.77798 -2.6 1 1 1 1
80 140.23581 -2.6 1 1 1 1
80 143.78105 -2.6 1 1 1 1
80 147.41591 -2.6 1 1 1 1
80 151.14267 -2.6 1 1 1 1
80 154.96364 -2.6 1 1 1 1
80 158.8812 -2.6 1 1 1 1
80 162.89781 -2.6 1 1 1 1
80 167.01596 -2.6 1 1 1 1
80 171.23821 -2.6 1 1 1 1
80 175.56721 -2.6 1 1 1 1
80 180.00565 -2.6 1 1 1 1
80 184.55629 -2.6 1 1 1 1
80 189.22198 -2.6 1 1 1 1
80 194.00561 -2.6 1 1 1 1
80 198.91018 -2.6 1 1 1 1
80 203.93874 -2.6 1 1 1 1
80 209.09443 -2.6 1 1 1 1
80 214.38045 -2.6 1 1 1 1
80 219.80011 -2.6 1 1 1 1
80 225.35678 -2.6 1 1 1 1
80 231.05392 -2.6 1 1 1 1
80 236.8951 -2.6 1 1 1 1
80 242.88394 -2.6 1 1 1 1
80 249.02418 -2.6 1 1 1 1
80 255.31965 -2.6 1 1 1 1
80 261.77427 -2.6 1 1 1 1
80 268.39207 -2.6 1 1 1 1
80 275.17717 -2.6 1 1 1 1
80 282.1338 -2.6 1 1 1 1
80 289.2663 -2.6 1 1 1 1
80 296.57912 -2.6 1 1 1 1
80 304.0768 -2.6 1 1 1 1
80 311.76403 -2.6 1 1 1 1
80 319.6456 -2.6 1 1 1 1
80 327.72642 -2.6 1 1 1 1
80 336.01153 -2.6 1 1 1 1
80 344.50609 -2.6 1 1 1 1
80 353.21539 -2.6 1 1 1 1
80 362.14487 -2.6 1 1 1 1
80 371.3001 -2.6 1 1 1 1
80 380.68677 -2.6 1 1 1 1
80 390.31075 -2.6 1 1 1 1
80 400.17802 -2.6 1 1 1 1
80 410.29474 -2.6 1 1 1 1
80 420.66722 -2.6 1 1 1 1
80 431.30192 -2.6 1 1 1 1
80 442.20548 -2.6 1 1 1 1
80 453.38468 -2.6 1 1 1 1
80 464.84649 -2.6 1 1 1 1
80 476.59807 -2.6 1 1 1 1
80 488.64674 -2.6 1 1 1 1
80 501 -2.6 1 1 1 1
80 8.14308 -2.2 1 1 1 1
80 8.34894 -2.2 1 1 1 1
80 8.56001 -2.2 1 1 1 1
80 8.77641 -2.2 1 1 1 1
80 8.99828 -2.2 1 1 1 1
80 9.22576 -2.2 1 1 1 1
80 9.45899 -2.2 1 1 1 1
80 9.69812 -2.2 1 1 1 1
80 9.9433 -2.2 1 1 1 1
80 10.19467 -2.2 1 1 1 1
80 10.4524 -2.2 1 1 1 1
80 10.71664 -2.2 1 1 1 1
80 10.98756 -2.2 1 1 1 1
80 11.26533 -2.2 1 1 1 1
80 11.55013 -2.2 1 1 1 1
80 11.84212 -2.2 1 1 1 1
80 12.1415 -2.2 1 1 1 1
80 12.44844 -2.2 1 1 1 1
80 12.76314 -2.2 1 1 1 1
80 13.0858 -2.2 1 1 1 1
80 13.41662 -2.2 1 1 1 1
80 13.7558 -2.2 1 1 1 1
80 14.10355 -2.2 1 1 1 1
80 14.4601 -2.2 1 1 1 1
80 14.82566 -2.2 1 1 1 1
80 15.20046 -2.2 1 1 1 1
80 15.58473 -2.2 1 1 1 1
80 15.97872 -2.2 1 1 1 1
80 16.38268 -2.2 1 1 1 1
80 16.79684 -2.2 1 1 1 1
80 17.22147 -2.2 1 1 1 1
80 17.65684 -2.2 1 1 1 1
80 18.10322 -2.2 1 1 1 1
80 18.56088 -2.2 1 1 1 1
80 19.0301 -2.2 1 1 1 1
80 19.5112 -2.2 1 1 1 1
80 20.00445 -2.2 1 1 1 1
80 20.51017 -2.2 1 1 1 1
80 21.02868 -2.2 1 1 1 1
80 21.5603 -2.2 1 1 1 1
80 22.10536 -2.2 1 1 1 1
80 22.66419 -2.2 1 1 1 1
80 23.23715 -2.2 1 1 1 1
80 23.8246 -2.2 1 1 1 1
80 24.4269 -2.2 1 1 1 1
80 25.04443 -2.2 1 1 1 1
80 25.67756 -2.2 1 1 1 1
80 26.32671 -2.2 1 1 1 1
80 26.99226 -2.2 1 1 1 1
80 27.67464 -2.2 1 1 1 1
80 28.37427 -2.2 1 1 1 1
80 29.09159 -2.2 1 1 1 1
80 29.82704 -2.2 1 1 1 1
80 30.58108 -2.2 1 1 1 1
80 31.35419 -2.2 1 1 1 1
80 32.14684 -2.2 1 1 1 1
80 32.95953 -2.2 1 1 1 1
80 33.79277 -2.2 1 1 1 1
80 34.64707 -2.2 1 1 1 1
80 35.52297 -2.2 1 1 1 1
80 36.42101 -2.2 1 1 1 1
80 37.34175 -2.2 1 1 1 1
80 38.28577 -2.2 1 1 1 1
80 39.25366 -2.2 1 1 1 1
80 40.24601 -2.2 1 1 1 1
80 41.26345 -2.2 1 1 1 1
80 42.30661 -2.2 1 1 1 1
80 43.37615 -2.2 1 1 1 1
80 44.47272 -2.2 1 1 1 1
80 45.59702 -2.2 1 1 1 1
80 46.74974 -2.2 1 1 1 1
80 47.93159 -2.2 1 1 1 1
80 49.14333 -2.2 1 1 1 1
80 50.3857 -2.2 1 1 1 1
80 51.65948 -2.2 1 1 1 1
80 52.96546 -2.2 1 1 1 1
80 54.30446 -2.2 1 1 1 1
80 55.67731 -2.2 1 1 1 1
80 57.08486 -2.2 1 1 1 1
80 58.528 -2.2 1 1 1 1
80 60.00762 -2.2 1 1 1 1
80 61.52464 -2.2 1 1 1 1
80 63.08002 -2.2 1 1 1 1
80 64.67472 -2.2 1 1 1 1
80 66.30973 -2.2 1 1 1 1
80 67.98608 -2.2 1 1 1 1
80 69.7048 -2.2 1 1 1 1
80 71.46698 -2.2 1 1 1 1
80 73.2737 -2.2 1 1 1 1
80 75.1261 -2.2 1 1 1 1
80 77.02533 -2.2 1 1 1 1
80 78.97258 -2.2 1 1 1 1
80 80.96905 -2.2 1 1 1 1
80 83.01599 -2.2 1 1 1 1
80 85.11468 -2.2 1 1 1 1
80 87.26643 -2.2 1 1 1 1
80 89.47257 -2.2 1 1 1 1
80 91.73449 -2.2 1 1 1 1
80 94.05359 -2.2 1 1 1 1
80 96.43131 -2.2 1 1 1 1
80 98.86915 -2.2 1 1 1 1
80 101.36862 -2.2 1 1 1 1
80 103.93127 -2.2 1 1 1 1
80 106.55872 -2.2 1 1 1 1
80 109.25258 -2.2 1 1 1 1
80 112.01454 -2.2 1 1 1 1
80 114.84633 -2.2 1 1 1 1
80 117.74971 -2.2 1 1 1 1
80 120.72649 -2.2 1 1 1 1
80 123.77853 -2.2 1 1 1 1
80 126.90772 -2.2 1 1 1 1
80 130.11601 -2.2 1 1 1 1
80 133.40542 -2.2 1 1 1 1
80 136.77798 -2.2 1 1 1 1
80 140.23581 -2.2 1 1 1 1
80 143.78105 -2.2 1 1 1 1
80 147.41591 -2.2 1 1 1 1
80 151.14267 -2.2 1 1 1 1
80 154.96364 -2.2 1 1 1 1
80 158.8812 -2.2 1 1 1 1
80 162.89781 -2.2 1 1 1 1
80 167.01596 -2.2 1 1 1 1
80 171.23821 -2.2 1 1 1 1
80 175.56721 -2.2 1 1 1 1
80 180.00565 -2.2 1 1 1 1
80 184.55629 -2.2 1 1 1 1
80 189.22198 -2.2 1 1 1 1
80 194.00561 -2.2 1 1 1 1
80 198.91018 -2.2 1 1 1 1
80 203.93874 -2.2 1 1 1 1
80 209.09443 -2.2 1 1 1 1
80 214.38045 -2.2 1 1 1 1
80 219.80011 -2.2 1 1 1 1
80 225.35678 -2.2 1 1 1 1
80 231.05392 -2.2 1 1 1 1
80 236.8951 -2.2 1 1 1 1
80 242.88394 -2.2 1 1 1 1
80 249.02418 -2.2 1 1 1 1
80 255.31965 -2.2 1 1 1 1
80 261.77427 -2.2 1 1 1 1
80 268.39207 -2.2 1 1 1 1
80 275.17717 -2.2 1 1 1 1
80 282.1338 -2.2 1 1 1 1
80 289.2663 -2.2 1 1 1 1
80 296.57912 -2.2 1 1 1 1
80 304.0768 -2.2 1 1 1 1
80 311.76403 -2.2 1 1 1 1
80 319.6456 -2.2 1 1 1 1
80 327.72642 -2.2 1 1 1 1
80 336.01153 -2.2 1 1 1 1
80 344.50609 -2.2 1 1 1 1
80 353.21539 -2.2 1 1 1 1
80 362.14487 -2.2 1 1 1 1
80 371.3001 -2.2 1 1 1 1
80 380.68677 -2.2 1 1 1 1
80 390.31075 -2.2 1 1 1 1
80 400.17802 -2.2 1 1 1 1
80 410.29474 -2.2 1 1 1 1
80 420.66722 -2.2 1 1 1 1
80 431.30192 -2.2 1 1 1 1
80 442.20548 -2.2 1 1 1 1
80 453.38468 -2.2 1 1 1 1
80 464.84649 -2.2 1 1 1 1
80 476.59807 -2.2 1 1 1 1
80 488.64674 -2.2 1 1 1 1
80 501 -2.2 1 1 1 1
80 8.14308 -1.8 1 1 1 1
80 8.34894 -1.8 1 1 1 1
80 8.56001 -1.8 1 1 1 1
80 8.77641 -1.8 1 1 1 1
80 8.99828 -1.8 1 1 1 1
80 9.22576 -1.8 1 1 1 1
80 9.45899 -1.8 1 1 1 1
80 9.69812 -1.8 1 1 1 1
80 9.9433 -1.8 1 1 1 1
80 10.19467 -1.8 1 1 1 1
80 10.4524 -1.8 1 1 1 1
80 10.71664 -1.8 1 1 1 1
80 10.98756 -1.8 1 1 1 1
80 11.26533 -1.8 1 1 1 1
80 11.55013 -1.8 1 1 1 1
80 11.84212 -1.8 1 1 1 1
80 12.1415 -1.8 1 1 1 1
80 12.44844 -1.8 1 1 1 1
80 12.76314 -1.8 1 1 1 1
80 13.0858 -1.8 1 1 1 1
80 13.41662 -1.8 1 1 1 1
80 13.7558 -1.8 1 1 1 1
80 14.10355 -1.8 1 1 1 1
80 14.4601 -1.8 1 1 1 1
80 14.82566 -1.8 1 1 1 1
80 15.20046 -1.8 1 1 1 1
80 15.58473 -1.8 1 1 1 1
80 15.97872 -1.8 1 1 1 1
80 16.38268 -1.8 1 1 1 1
80 16.79684 -1.8 1 1 1 1
80 17.22147 -1.8 1 1 1 1
80 17.65684 -1.8 1 1 1 1
80 18.10322 -1.8 1 1 1 1
80 18.56088 -1.8 1 1 1 1
80 19.0301 -1.8 1 1 1 1
80 19.5112 -1.8 1 1 1 1
80 20.00445 -1.8 1 1 1 1
80 20.51017 -1.8 1 1 1 1
80 21.02868 -1.8 1 1 1 1
80 21.5603 -1.8 1 1 1 1
80 22.10536 -1.8 1 1 1 1
80 22.66419 -1.8 1 1 1 1
80 23.23715 -1.8 1 1 1 1
80 23.8246 -1.8 1 1 1 1
80 24.4269 -1.8 1 1 1 1
80 25.04443 -1.8 1 1 1 1
80 25.67756 -1.8 1 1 1 1
80 26.32671 -1.8 1 1 1 1
80 26.99226 -1.8 1 1 1 1
80 27.67464 -1.8 1 1 1 1
80 28.37427 -1.8 1 1 1 1
80 29.09159 -1.8 1 1 1 1
80 29.82704 -1.8 1 1 1 1
80 30.58108 -1.8 1 1 1 1
80 31.35419 -1.8 1 1 1 1
80 32.14684 -1.8 1 1 1 1
80 32.95953 -1.8 1 1 1 1
80 33.79277 -1.8 1 1 1 1
80 34.64707 -1.8 1 1 1 1
80 35.52297 -1.8 1 1 1 1
80 36.42101 -1.8 1 1 1 1
80 37.34175 -1.8 1 1 1 1
80 38.28577 -1.8 1 1 1 1
80 39.25366 -1.8 1 1 1 1
80 40.24601 -1.8 1 1 1 1
80 41.26345 -1.8 1 1 1 1
80 42.30661 -1.8 1 1 1 1
80 43.37615 -1.8 1 1 1 1
80 44.47272 -1.8 1 1 1 1
80 45.59702 -1.8 1 1 1 1
80 46.74974 -1.8 1 1 1 1
80 47.93159 -1.8 1 1 1 1
80 49.14333 -1.8 1 1 1 1
80 50.3857 -1.8 1 1 1 1
80 51.65948 -1.8 1 1 1 1
80 52.96546 -1.8 1 1 1 1
80 54.30446 -1.8 1 1 1 1
80 55.67731 -1.8 1 1 1 1
80 57.08486 -1.8 1 1 1 1
80 58.528 -1.8 1 1 1 1
80 60.00762 -1.8 1 1 1 1
80 61.52464 -1.8 1 1 1 1
80 63.08002 -1.8 1 1 1 1
80 64.67472 -1.8 1 1 1 1
80 66.30973 -1.8 1 1 1 1
80 67.98608 -1.8 1 1 1 1
80 69.7048 -1.8 1 1 1 1
80 71.46698 -1.8 1 1 1 1
80 73.2737 -1.8 1 1 1 1
80 75.1261 -1.8 1 1 1 1
80 77.02533 -1.8 1 1 1 1
80 78.97258 -1.8 1 1 1 1
80 80.96905 -1.8 1 1 1 1
80 83.01599 -1.8 1 1 1 1
80 85.11468 -1.8 1 1 1 1
80 87.26643 -1.8 1 1 1 1
80 89.47257 -1.8 1 1 1 1
80 91.73449 -1.8 1 1 1 1
80 94.05359 -1.8 1 1 1 1
80 96.43131 -1.8 1 1 1 1
80 98.86915 -1.8 1 1 1 1
80 101.36862 -1.8 1 1 1 1
80 103.93127 -1.8 1 1 1 1
80 106.55872 -1.8 1 1 1 1
80 109.25258 -1.8 1 1 1 1
80 112.01454 -1.8 1 1 1 1
80 114.84633 -1.8 1 1 1 1
80 117.74971 -1.8 1 1 1 1
80 120.72649 -1.8 1 1 1 1
80 123.77853 -1.8 1 1 1 1
80 126.90772 -1.8 1 1 1 1
80 130.11601 -1.8 1 1 1 1
80 133.40542 -1.8 1 1 1 1
80 136.77798 -1.8 1 1 1 1
80 140.23581 -1.8 1 1 1 1
80 143.78105 -1.8 1 1 1 1
80 147.41591 -1.8 1 1 1 1
80 151.14267 -1.8 1 1 1 1
80 154.96364 -1.8 1 1 1 1
80 158.8812 -1.8 1 1 1 1
80 162.89781 -1.8 1 1 1 1
80 167.01596 -1.8 1 1 1 1
80 171.23821 -1.8 1 1 1 1
80 175.56721 -1.8 1 1 1 1
80 180.00565 -1.8 1 1 1 1
80 184.55629 -1.8 1 1 1 1
80 189.22198 -1.8 1 1 1 1
80 194.00561 -1.8 1 1 1 1
80 198.91018 -1.8 1 1 1 1
80 203.93874 -1.8 1 1 1 1
80 209.09443 -1.8 1 1 1 1
80 214.38045 -1.8 1 1 1 1
80 219.80011 -1.8 1 1 1 1
80 225.35678 -1.8 1 1 1 1
80 231.05392 -1.8 1 1 1 1
80 236.8951 -1.8 1 1 1 1
80 242.88394 -1.8 1 1 1 1
80 249.02418 -1.8 1 1 1 1
80 255.31965 -1.8 1 1 1 1
80 261.77427 -1.8 1 1 1 1
80 268.39207 -1.8 1 1 1 1
80 275.17717 -1.8 1 1 1 1
80 282.1338 -1.8 1 1 1 1
80 289.2663 -1.8 1 1 1 1
80 296.57912 -1.8 1 1 1 1
80 304.0768 -1.8 1 1 1 1
80 311.76403 -1.8 1 1 1 1
80 319.6456 -1.8 1 1 1 1
80 327.72642 -1.8 1 1 1 1
80 336.01153 -1.8 1 1 1 1
80 344.50609 -1.8 1 1 1 1
80 353.21539 -1.8 1 1 1 1
80 362.14487 -1.8 1 1 1 1
80 371.3001 -1.8 1 1 1 1
80 380.68677 -1.8 1 1 1 1
80 390.31075 -1.8 1 1 1 1
80 400.17802 -1.8 1 1 1 1
80 410.29474 -1.8 1 1 1 1
80 420.66722 -1.8 1 1 1 1
80 431.30192 -1.8 1 1 1 1
80 442.20548 -1.8 1 1 1 1
80 453.38468 -1.8 1 1 1 1
80 464.84649 -1.8 1 1 1 1
80 476.59807 -1.8 1 1 1 1
80 488.64674 -1.8 1 1 1 1
80 501 -1.8 1 1 1 1
80 8.14308 -1.4 1 1 1 1
80 8.34894 -1.4 1 1 1 1
80 8.56001 -1.4 1 1 1 1
80 8.77641 -1.4 1 1 1 1
80 8.99828 -1.4 1 1 1 1
80 9.22576 -1.4 1 1 1 1
80 9.45899 -1.4 1 1 1 1
80 9.69812 -1.4 1 1 1 1
80 9.9433 -1.4 1 1 1 1
80 10.19467 -1.4 1 1 1 1
80 10.4524 -1.4 1 1 1 1
80 10.71664 -1.4 1 1 1 1
80 10.98756 -1.4 1 1 1 1
80 11.26533 -1.4 1 1 1 1
80 11.55013 -1.4 1 1 1 1
80 11.84212 -1.4 1 1 1 1
80 12.1415 -1.4 1 1 1 1
80 12.44844 -1.4 1 1 1 1
80 12.76314 -1.4 1 1 1 1
80 13.0858 -1.4 1 1 1 1
80 13.41662 -1.4 1 1 1 1
80 13.7558 -1.4 1 1 1 1
80 14.10355 -1.4 1 1 1 1
80 14.4601 -1.4 1 1 1 1
80 14.82566 -1.4 1 1 1 1
80 15.20046 -1.4 1 1 1 1
80 15.58473 -1.4 1 1 1 1
80 15.97872 -1.4 1 1 1 1
80 16.38268 -1.4 1 1 1 1
80 16.79684 -1.4 1 1 1 1
80 17.22147 -1.4 1 1 1 1
80 17.65684 -1.4 1 1 1 1
80 18.10322 -1.4 1 1 1 1
80 18.56088 -1.4 1 1 1 1
80 19.0301 -1.4 1 1 1 1
80 19.5112 -1.4 1 1 1 1
80 20.00445 -1.4 1 1 1 1
80 20.51017 -1.4 1 1 1 1
80 21.02868 -1.4 1 1 1 1
80 21.5603 -1.4 1 1 1 1
80 22.10536 -1.4 1 1 1 1
80 22.66419 -1.4 1 1 1 1
80 23.23715 -1.4 1 1 1 1
80 23.8246 -1.4 1 1 1 1
80 24.4269 -1.4 1 1 1 1
80 25.04443 -1.4 1 1 1 1
80 25.67756 -1.4 1 1 1 1
80 26.32671 -1.4 1 1 1 1
80 26.99226 -1.4 1 1 1 1
80 27.67464 -1.4 1 1 1 1
80 28.37427 -1.4 1 1 1 1
80 29.09159 -1.4 1 1 1 1
80 29.82704 -1.4 1 1 1 1
80 30.58108 -1.4 1 1 1 1
80 31.35419 -1.4 1 1 1 1
80 32.14684 -1.4 1 1 1 1
80 32.95953 -1.4 1 1 1 1
80 33.79277 -1.4 1 1 1 1
80 34.64707 -1.4 1 1 1 1
80 35.52297 -1.4 1 1 1 1
80 36.42101 -1.4 1 1 1 1
80 37.34175 -1.4 1 1 1 1
80 38.28577 -1.4 1 1 1 1
80 39.25366 -1.4 1 1 1 1
80 40.24601 -1.4 1 1 1 1
80 41.26345 -1.4 1 1 1 1
80 42.30661 -1.4 1 1 1 1
80 43.37615 -1.4 1 1 1 1
80 44.47272 -1.4 1 1 1 1
80 45.59702 -1.4 1 1 1 1
80 46.74974 -1.4 1 1 1 1
80 47.93159 -1.4 1 1 1 1
80 49.14333 -1.4 1 1 1 1
80 50.3857 -1.4 1 1 1 1
80 51.65948 -1.4 1 1 1 1
80 52.96546 -1.4 1 1 1 1
80 54.30446 -1.4 1 1 1 1
80 55.67731 -1.4 1 1 1 1
80 57.08486 -1.4 1 1 1 1
80 58.528 -1.4 1 1 1 1
80 60.00762 -1.4 1 1 1 1
80 61.52464 -1.4 1 1 1 1
80 63.08002 -1.4 1 1 1 1
80 64.67472 -1.4 1 1 1 1
80 66.30973 -1.4 1 1 1 1
80 67.98608 -1.4 1 1 1 1
80 69.7048 -1.4 1 1 1 1
80 71.46698 -1.4 1 1 1 1
80 73.2737 -1.4 1 1 1 1
80 75.1261 -1.4 1 1 1 1
80 77.02533 -1.4 1 1 1 1
80 78.97258 -1.4 1 1 1 1
80 80.96905 -1.4 1 1 1 1
80 83.01599 -1.4 1 1 1 1
80 85.11468 -1.4 1 1 1 1
80 87.26643 -1.4 1 1 1 1
80 89.47257 -1.4 1 1 1 1
80 91.73449 -1.4 1 1 1 1
80 94.05359 -1.4 1 1 1 1
80 96.43131 -1.4 1 1 1 1
80 98.86915 -1.4 1 1 1 1
80 101.36862 -1.4 1 1 1 1
80 103.93127 -1.4 1 1 1 1
80 106.55872 -1.4 1 1 1 1
80 109.25258 -1.4 1 1 1 1
80 112.01454 -1.4 1 1 1 1
80 114.84633 -1.4 1 1 1 1
80 117.74971 -1.4 1 1 1 1
80 120.72649 -1.4 1 1 1 1
80 123.77853 -1.4 1 1 1 1
80 126.90772 -1.4 1 1 1 1
80 130.11601 -1.4 1 1 1 1
80 133.40542 -1.4 1 1 1 1
80 136.77798 -1.4 1 1 1 1
80 140.23581 -1.4 1 1 1 1
80 143.78105 -1.4 1 1 1 1
80 147.41591 -1.4 1 1 1 1
80 151.14267 -1.4 1 1 1 1
80 154.96364 -1.4 1 1 1 1
80 158.8812 -1.4 1 1 1 1
80 162.89781 -1.4 1 1 1 1
80 167.01596 -1.4 1 1 1 1
80 171.23821 -1.4 1 1 1 1
80 175.56721 -1.4 1 1 1 1
80 180.00565 -1.4 1 1 1 1
80 184.55629 -1.4 1 1 1 1
80 189.22198 -1.4 1 1 1 1
80 194.00561 -1.4 1 1 1 1
80 198.91018 -1.4 1 1 1 1
80 203.93874 -1.4 1 1 1 1
80 209.09443 -1.4 1 1 1 1
80 214.38045 -1.4 1 1 1 1
80 219.80011 -1.4 1 1 1 1
80 225.35678 -1.4 1 1 1 1
80 231.05392 -1.4 1 1 1 1
80 236.8951 -1.4 1 1 1 1
80 242.88394 -1.4 1 1 1 1
80 249.02418 -1.4 1 1 1 1
80 255.31965 -1.4 1 1 1 1
80 261.77427 -1.4 1 1 1 1
80 268.39207 -1.4 1 1 1 1
80 275.17717 -1.4 1 1 1 1
80 282.1338 -1.4 1 1 1 1
80 289.2663 -1.4 1 1 1 1
80 296.57912 -1.4 1 1 1 1
80 304.0768 -1.4 1 1 1 1
80 311.76403 -1.4 1 1 1 1
80 319.6456 -1.4 1 1 1 1
80 327.72642 -1.4 1 1 1 1
80 336.01153 -1.4 1 1 1 1
80 344.50609 -1.4 1 1 1 1
80 353.21539 -1.4 1 1 1 1
80 362.14487 -1.4 1 1 1 1
80 371.3001 -1.4 1 1 1 1
80 380.68677 -1.4 1 1 1 1
80 390.31075 -1.4 1 1 1 1
80 400.17802 -1.4 1 1 1 1
80 410.29474 -1.4 1 1 1 1
80 420.66722 -1.4 1 1 1 1
80 431.30192 -1.4 1 1 1 1
80 442.20548 -1.4 1 1 1 1
80 453.38468 -1.4 1 1 1 1
80 464.84649 -1.4 1 1 1 1
80 476.59807 -1.4 1 1 1 1
80 488.64674 -1.4 1 1 1 1
80 501 -1.4 1 1 1 1
80 8.14308 -1 1 1 1 1
80 8.34894 -1 1 1 1 1
80 8.56001 -1 1 1 1 1
80 8.77641 -1 1 1 1 1
80 8.99828 -1 1 1 1 1
80 9.22576 -1 1 1 1 1
80 9.45899 -1 1 1 1 1
80 9.69812 -1 1 1 1 1
80 9.9433 -1 1 1 1 1
80 10.19467 -1 1 1 1 1
80 10.4524 -1 1 1 1 1
80 10.71664 -1 1 1 1 1
80 10.98756 -1 1 1 1 1
80 11.26533 -1 1 1 1 1
80 11.55013 -1 1 1 1 1
80 11.84212 -1 1 1 1 1
80 12.1415 -1 1 1 1 1
80 12.44844 -1 1 1 1 1
80 12.76314 -1 1 1 1 1
80 13.0858 -1 1 1 1 1
80 13.41662 -1 1 1 1 1
80 13.7558 -1 1 1 1 1
80 14.10355 -1 1 1 1 1
80 14.4601 -1 1 1 1 1
80 14.82566 -1 1 1 1 1
80 15.20046 -1 1 1 1 1
80 15.58473 -1 1 1 1 1
80 15.97872 -1 1 1 1 1
80 16.38268 -1 1 1 1 1
80 16.79684 -1 1 1 1 1
80 17.22147 -1 1 1 1 1
80 17.65684 -1 1 1 1 1
80 18.10322 -1 1 1 1 1
80 18.56088 -1 1 1 1 1
80 19.0301 -1 1 1 1 1
80 19.5112 -1 1 1 1 1
80 20.00445 -1 1 1 1 1
80 20.51017 -1 1 1 1 1
80 21.02868 -1 1 1 1 1
80 21.5603 -1 1 1 1 1
80 22.10536 -1 1 1 1 1
80 22.66419 -1 1 1 1 1
80 23.23715 -1 1 1 1 1
80 23.8246 -1 1 1 1 1
80 24.4269 -1 1 1 1 1
80 25.04443 -1 1 1 1 1
80 25.67756 -1 1 1 1 1
80 26.32671 -1 1 1 1 1
80 26.99226 -1 1 1 1 1
80 27.67464 -1 1 1 1 1
80 28.37427 -1 1 1 1 1
80 29.09159 -1 1 1 1 1
80 29.82704 -1 1 1 1 1
80 30.58108 -1 1 1 1 1
80 31.35419 -1 1 1 1 1
80 32.14684 -1 1 1 1 1
80 32.95953 -1 1 1 1 1
80 33.79277 -1 1 1 1 1
80 34.64707 -1 1 1 1 1
80 35.52297 -1 1 1 1 1
80 36.42101 -1 1 1 1 1
80 37.34175 -1 1 1 1 1
80 38.28577 -1 1 1 1 1
80 39.25366 -1 1 1 1 1
80 40.24601 -1 1 1 1 1
80 41.26345 -1 1 1 1 1
80 42.30661 -1 1 1 1 1
80 43.37615 -1 1 1 1 1
80 44.47272 -1 1 1 1 1
80 45.59702 -1 1 1 1 1
80 46.74974 -1 1 1 1 1
80 47.93159 -1 1 1 1 1
80 49.14333 -1 1 1 1 1
80 50.3857 -1 1 1 1 1
80 51.65948 -1 1 1 1 1
80 52.96546 -1 1 1 1 1
80 54.30446 -1 1 1 1 1
80 55.67731 -1 1 1 1 1
80 57.08486 -1 1 1 1 1
80 58.528 -1 1 1 1 1
80 60.00762 -1 1 1 1 1
80 61.52464 -1 1 1 1 1
80 63.08002 -1 1 1 1 1
80 64.67472 -1 1 1 1 1
80 66.30973 -1 1 1 1 1
80 67.98608 -1 1 1 1 1
80 69.7048 -1 1 1 1 1
80 71.46698 -1 1 1 1 1
80 73.2737 -1 1 1 1 1
80 75.1261 -1 1 1 1 1
80 77.02533 -1 1 1 1 1
80 78.97258 -1 1 1 1 1
80 80.96905 -1 1 1 1 1
80 83.01599 -1 1 1 1 1
80 85.11468 -1 1 1 1 1
80 87.26643 -1 1 1 1 1
80 89.47257 -1 1 1 1 1
80 91.73449 -1 1 1 1 1
80 94.05359 -1 1 1 1 1
80 96.43131 -1 1 1 1 1
80 98.86915 -1 1 1 1 1
80 101.36862 -1 1 1 1 1
80 103.93127 -1 1 1 1 1
80 106.55872 -1 1 1 1 1
80 109.25258 -1 1 1 1 1
80 112.01454 -1 1 1 1 1
80 114.84633 -1 1 1 1 1
80 117.74971 -1 1 1 1 1
80 120.72649 -1 1 1 1 1
80 123.77853 -1 1 1 1 1
80 126.90772 -1 1 1 1 1
80 130.11601 -1 1 1 1 1
80 133.40542 -1 1 1 1 1
80 136.77798 -1 1 1 1 1
80 140.23581 -1 1 1 1 1
80 143.78105 -1 1 1 1 1
80 147.41591 -1 1 1 1 1
80 151.14267 -1 1 1 1 1
80 154.96364 -1 1 1 1 1
80 158.8812 -1 1 1 1 1
80 162.89781 -1 1 1 1 1
80 167.01596 -1 1 1 1 1
80 171.23821 -1 1 1 1 1
80 175.56721 -1 1 1 1 1
80 180.00565 -1 1 1 1 1
80 184.55629 -1 1 1 1 1
80 189.22198 -1 1 1 1 1
80 194.00561 -1 1 1 1 1
80 198.91018 -1 1 1 1 1
80 203.93874 -1 1 1 1 1
80 209.09443 -1 1 1 1 1
80 214.38045 -1 1 1 1 1
80 219.80011 -1 1 1 1 1
80 225.35678 -1 1 1 1 1
80 231.05392 -1 1 1 1 1
80 236.8951 -1 1 1 1 1
80 242.88394 -1 1 1 1 1
80 249.02418 -1 1 1 1 1
80 255.31965 -1 1 1 1 1
80 261.77427 -1 1 1 1 1
80 268.39207 -1 1 1 1 1
80 275.17717 -1 1 1 1 1
80 282.1338 -1 1 1 1 1
80 289.2663 -1 1 1 1 1
80 296.57912 -1 1 1 1 1
80 304.0768 -1 1 1 1 1
80 311.76403 -1 1 1 1 1
80 319.6456 -1 1 1 1 1
80 327.72642 -1 1 1 1 1
80 336.01153 -1 1 1 1 1
80 344.50609 -1 1 1 1 1
80 353.21539 -1 1 1 1 1
80 362.14487 -1 1 1 1 1
80 371.3001 -1 1 1 1 1
80 380.68677 -1 1 1 1 1
80 390.31075 -1 1 1 1 1
80 400.17802 -1 1 1 1 1
80 410.29474 -1 1 1 1 1
80 420.66722 -1 1 1 1 1
80 431.30192 -1 1 1 1 1
80 442.20548 -1 1 1 1 1
80 453.38468 -1 1 1 1 1
80 464.84649 -1 1 1 1 1
80 476.59807 -1 1 1 1 1
80 488.64674 -1 1 1 1 1
80 501 -1 1 1 1 1
80 8.14308 -0.6 1 1 1 1
80 8.34894 -0.6 1 1 1 1
80 8.56001 -0.6 1 1 1 1
80 8.77641 -0.6 1 1 1 1
80 8.99828 -0.6 1 1 1 1
80 9.22576 -0.6 1 1 1 1
80 9.45899 -0.6 1 1 1 1
80 9.69812 -0.6 1 1 1 1
80 9.9433 -0.6 1 1 1 1
80 10.19467 -0.6 1 1 1 1
80 10.4524 -0.6 1 1 1 1
80 10.71664 -0.6 1 1 1 1
80 10.98756 -0.6 1 1 1 1
80 11.26533 -0.6 1 1 1 1
80 11.55013 -0.6 1 1 1 1
80 11.84212 -0.6 1 1 1 1
80 12.1415 -0.6 1 1 1 1
80 12.44844 -0.6 1 1 1 1
80 12.76314 -0.6 1 1 1 1
80 13.0858 -0.6 1 1 1 1
80 13.41662 -0.6 1 1 1 1
80 13.7558 -0.6 1 1 1 1
80 14.10355 -0.6 1 1 1 1
80 14.4601 -0.6 1 1 1 1
80 14.82566 -0.6 1 1 1 1
80 15.20046 -0.6 1 1 1 1
80 15.58473 -0.6 1 1 1 1
80 15.97872 -0.6 1 1 1 1
80 16.38268 -0.6 1 1 1 1
80 16.79684 -0.6 1 1 1 1
80 17.22147 -0.6 1 1 1 1
80 17.65684 -0.6 1 1 1 1
80 18.10322 -0.6 1 1 1 1
80 18.56088 -0.6 1 1 1 1
80 19.0301 -0.6 1 1 1 1
80 19.5112 -0.6 1 1 1 1
80 20.00445 -0.6 1 1 1 1
80 20.51017 -0.6 1 1 1 1
80 21.02868 -0.6 1 1 1 1
80 21.5603 -0.6 1 1 1 1
80 22.10536 -0.6 1 1 1 1
80 22.66419 -0.6 1 1 1 1
80 23.23715 -0.6 1 1 1 1
80 23.8246 -0.6 1 1 1 1
80 24.4269 -0.6 1 1 1 1
80 25.04443 -0.6 1 1 1 1
80 25.67756 -0.6 1 1 1 1
80 26.32671 -0.6 1 1 1 1
80 26.99226 -0.6 1 1 1 1
80 27.67464 -0.6 1 1 1 1
80 28.37427 -0.6 1 1 1 1
80 29.09159 -0.6 1 1 1 1
80 29.82704 -0.6 1 1 1 1
80 30.58108 -0.6 1 1 1 1
80 31.35419 -0.6 1 1 1 1
80 32.14684 -0.6 1 1 1 1
80 32.95953 -0.6 1 1 1 1
80 33.79277 -0.6 1 1 1 1
80 34.64707 -0.6 1 1 1 1
80 35.52297 -0.6 1 1 1 1
80 36.42101 -0.6 1 1 1 1
80 37.34175 -0.6 1 1 1 1
80 38.28577 -0.6 1 1 1 1
80 39.25366 -0.6 1 1 1 1
80 40.24601 -0.6 1 1 1 1
80 41.26345 -0.6 1 1 1 1
80 42.30661 -0.6 1 1 1 1
80 43.37615 -0.6 1 1 1 1
80 44.47272 -0.6 1 1 1 1
80 45.59702 -0.6 1 1 1 1
80 46.74974 -0.6 1 1 1 1
80 47.93159 -0.6 1 1 1 1
80 49.14333 -0.6 1 1 1 1
80 50.3857 -0.6 1 1 1 1
80 51.65948 -0.6 1 1 1 1
80 52.96546 -0.6 1 1 1 1
80 54.30446 -0.6 1 1 1 1
80 55.67731 -0.6 1 1 1 1
80 57.08486 -0.6 1 1 1 1
80 58.528 -0.6 1 1 1 1
80 60.00762 -0.6 1 1 1 1
80 61.52464 -0.6 1 1 1 1
80 63.08002 -0.6 1 1 1 1
80 64.67472 -0.6 1 1 1 1
80 66.30973 -0.6 1 1 1 1
80 67.98608 -0.6 1 1 1 1
80 69.7048 -0.6 1 1 1 1
80 71.46698 -0.6 1 1 1 1
80 73.2737 -0.6 1 1 1 1
80 75.1261 -0.6 1 1 1 1
80 77.02533 -0.6 1 1 1 1
80 78.97258 -0.6 1 1 1 1
80 80.96905 -0.6 1 1 1 1
80 83.01599 -0.6 1 1 1 1
80 85.11468 -0.6 1 1 1 1
80 87.26643 -0.6 1 1 1 1
80 89.47257 -0.6 1 1 1 1
80 91.73449 -0.6 1 1 1 1
80 94.05359 -0.6 1 1 1 1
80 96.43131 -0.6 1 1 1 1
80 98.86915 -0.6 1 1 1 1
80 101.36862 -0.6 1 1 1 1
80 103.93127 -0.6 1 1 1 1
80 106.55872 -0.6 1 1 1 1
80 109.25258 -0.6 1 1 1 1
80 112.01454 -0.6 1 1 1 1
80 114.84633 -0.6 1 1 1 1
80 117.74971 -0.6 1 1 1 1
80 120.72649 -0.6 1 1 1 1
80 123.77853 -0.6 1 1 1 1
80 126.90772 -0.6 1 1 1 1
80 130.11601 -0.6 1 1 1 1
80 133.40542 -0.6 1 1 1 1
80 136.77798 -0.6 1 1 1 1
80 140.23581 -0.6 1 1 1 1
80 143.78105 -0.6 1 1 1 1
80 147.41591 -0.6 1 1 1 1
80 151.14267 -0.6 1 1 1 1
80 154.96364 -0.6 1 1 1 1
80 158.8812 -0.6 1 1 1 1
80 162.89781 -0.6 1 1 1 1
80 167.01596 -0.6 1 1 1 1
80 171.23821 -0.6 1 1 1 1
80 175.56721 -0.6 1 1 1 1
80 180.00565 -0.6 1 1 1 1
80 184.55629 -0.6 1 1 1 1
80 189.22198 -0.6 1 1 1 1
80 194.00561 -0.6 1 1 1 1
80 198.91018 -0.6 1 1 1 1
80 203.93874 -0.6 1 1 1 1
80 209.09443 -0.6 1 1 1 1
80 214.38045 -0.6 1 1 1 1
80 219.80011 -0.6 1 1 1 1
80 225.35678 -0.6 1 1 1 1
80 231.05392 -0.6 1 1 1 1
80 236.8951 -0.6 1 1 1 1
80 242.88394 -0.6 1 1 1 1
80 249.02418 -0.6 1 1 1 1
80 255.31965 -0.6 1 1 1 1
80 261.77427 -0.6 1 1 1 1
80 268.39207 -0.6 1 1 1 1
80 275.17717 -0.6 1 1 1 1
80 282.1338 -0.6 1 1 1 1
80 289.2663 -0.6 1 1 1 1
80 296.57912 -0.6 1 1 1 1
80 304.0768 -0.6 1 1 1 1
80 311.76403 -0.6 1 1 1 1
80 319.6456 -0.6 1 1 1 1
80 327.72642 -0.6 1 1 1 1
80 336.01153 -0.6 1 1 1 1
80 344.50609 -0.6 1 1 1 1
80 353.21539 -0.6 1 1 1 1
80 362.14487 -0.6 1 1 1 1
80 371.3001 -0.6 1 1 1 1
80 380.68677 -0.6 1 1 1 1
80 390.31075 -0.6 1 1 1 1
80 400.17802 -0.6 1 1 1 1
80 410.29474 -0.6 1 1 1 1
80 420.66722 -0.6 1 1 1 1
80 431.30192 -0.6 1 1 1 1
80 442.20548 -0.6 1 1 1 1
80 453.38468 -0.6 1 1 1 1
80 464.84649 -0.6 1 1 1 1
80 476.59807 -0.6 1 1 1 1
80 488.64674 -0.6 1 1 1 1
80 501 -0.6 1 1 1 1
80 8.14308 -0.2 1 1 1 1
80 8.34894 -0.2 1 1 1 1
80 8.56001 -0.2 1 1 1 1
80 8.77641 -0.2 1 1 1 1
80 8.99828 -0.2 1 1 1 1
80 9.22576 -0.2 1 1 1 1
80 9.45899 -0.2 1 1 1 1
80 9.69812 -0.2 1 1 1 1
80 9.9433 -0.2 1 1 1 1
80 10.19467 -0.2 1 1 1 1
80 10.4524 -0.2 1 1 1 1
80 10.71664 -0.2 1 1 1 1
80 10.98756 -0.2 1 1 1 1
80 11.26533 -0.2 1 1 1 1
80 11.55013 -0.2 1 1 1 1
80 11.84212 -0.2 1 1 1 1
80 12.1415 -0.2 1 1 1 1
80 12.44844 -0.2 1 1 1 1
80 12.76314 -0.2 1 1 1 1
80 13.0858 -0.2 1 1 1 1
80 13.41662 -0.2 1 1 1 1
80 13.7558 -0.2 1 1 1 1
80 14.10355 -0.2 1 1 1 1
80 14.4601 -0.2 1 1 1 1
80 14.82566 -0.2 1 1 1 1
80 15.20046 -0.2 1 1 1 1
80 15.58473 -0.2 1 1 1 1
80 15.97872 -0.2 1 1 1 1
80 16.38268 -0.2 1 1 1 1
80 16.79684 -0.2 1 1 1 1
80 17.22147 -0.2 1 1 1 1
80 17.65684 -0.2 1 1 1 1
80 18.10322 -0.2 1 1 1 1
80 18.56088 -0.2 1 1 1 1
80 19.0301 -0.2 1 1 1 1
80 19.5112 -0.2 1 1 1 1
80 20.00445 -0.2 1 1 1 1
80 20.51017 -0.2 1 1 1 1
80 21.02868 -0.2 1 1 1 1
80 21.5603 -0.2 1 1 1 1
80 22.10536 -0.2 1 1 1 1
80 22.66419 -0.2 1 1 1 1
80 23.23715 -0.2 1 1 1 1
80 23.8246 -0.2 1 1 1 1
80 24.4269 -0.2 1 1 1 1
80 25.04443 -0.2 1 1 1 1
80 25.67756 -0.2 1 1 1 1
80 26.32671 -0.2 1 1 1 1
80 26.99226 -0.2 1 1 1 1
80 27.67464 -0.2 1 1 1 1
80 28.37427 -0.2 1 1 1 1
80 29.09159 -0.2 1 1 1 1
80 29.82704 -0.2 1 1 1 1
80 30.58108 -0.2 1 1 1 1
80 31.35419 -0.2 1 1 1 1
80 32.14684 -0.2 1 1 1 1
80 32.95953 -0.2 1 1 1 1
80 33.79277 -0.2 1 1 1 1
80 34.64707 -0.2 1 1 1 1
80 35.52297 -0.2 1 1 1 1
80 36.42101 -0.2 1 1 1 1
80 37.34175 -0.2 1 1 1 1
80 38.28577 -0.2 1 1 1 1
80 39.25366 -0.2 1 1 1 1
80 40.24601 -0.2 1 1 1 1
80 41.26345 -0.2 1 1 1 1
80 42.30661 -0.2 1 1 1 1
80 43.37615 -0.2 1 1 1 1
80 44.47272 -0.2 1 1 1 1
80 45.59702 -0.2 1 1 1 1
80 46.74974 -0.2 1 1 1 1
80 47.93159 -0.2 1 1 1 1
80 49.14333 -0.2 1 1 1 1
80 50.3857 -0.2 1 1 1 1
80 51.65948 -0.2 1 1 1 1
80 52.96546 -0.2 1 1 1 1
80 54.30446 -0.2 1 1 1 1
80 55.67731 -0.2 1 1 1 1
80 57.08486 -0.2 1 1 1 1
80 58.528 -0.2 1 1 1 1
80 60.00762 -0.2 1 1 1 1
80 61.52464 -0.2 1 1 1 1
80 63.08002 -0.2 1 1 1 1
80 64.67472 -0.2 1 1 1 1
80 66.30973 -0.2 1 1 1 1
80 67.98608 -0.2 1 1 1 1
80 69.7048 -0.2 1 1 1 1
80 71.46698 -0.2 1 1 1 1
80 73.2737 -0.2 1 1 1 1
80 75.1261 -0.2 1 1 1 1
80 77.02533 -0.2 1 1 1 1
80 78.97258 -0.2 1 1 1 1
80 80.96905 -0.2 1 1 1 1
80 83.01599 -0.2 1 1 1 1
80 85.11468 -0.2 1 1 1 1
80 87.26643 -0.2 1 1 1 1
80 89.47257 -0.2 1 1 1 1
80 91.73449 -0.2 1 1 1 1
80 94.05359 -0.2 1 1 1 1
80 96.43131 -0.2 1 1 1 1
80 98.86915 -0.2 1 1 1 1
80 101.36862 -0.2 1 1 1 1
80 103.93127 -0.2 1 1 1 1
80 106.55872 -0.2 1 1 1 1
80 109.25258 -0.2 1 1 1 1
80 112.01454 -0.2 1 1 1 1
80 114.84633 -0.2 1 1 1 1
80 117.74971 -0.2 1 1 1 1
80 120.72649 -0.2 1 1 1 1
80 123.77853 -0.2 1 1 1 1
80 126.90772 -0.2 1 1 1 1
80 130.11601 -0.2 1 1 1 1
80 133.40542 -0.2 1 1 1 1
80 136.77798 -0.2 1 1 1 1
80 140.23581 -0.2 1 1 1 1
80 143.78105 -0.2 1 1 1 1
80 147.41591 -0.2 1 1 1 1
80 151.14267 -0.2 1 1 1 1
80 154.96364 -0.2 1 1 1 1
80 158.8812 -0.2 1 1 1 1
80 162.89781 -0.2 1 1 1 1
80 167.01596 -0.2 1 1 1 1
80 171.23821 -0.2 1 1 1 1
80 175.56721 -0.2 1 1 1 1
80 180.00565 -0.2 1 1 1 1
80 184.55629 -0.2 1 1 1 1
80 189.22198 -0.2 1 1 1 1
80 194.00561 -0.2 1 1 1 1
80 198.91018 -0.2 1 1 1 1
80 203.93874 -0.2 1 1 1 1
80 209.09443 -0.2 1 1 1 1
80 214.38045 -0.2 1 1 1 1
80 219.80011 -0.2 1 1 1 1
80 225.35678 -0.2 1 1 1 1
80 231.05392 -0.2 1 1 1 1
80 236.8951 -0.2 1 1 1 1
80 242.88394 -0.2 1 1 1 1
80 249.02418 -0.2 1 1 1 1
80 255.31965 -0.2 1 1 1 1
80 261.77427 -0.2 1 1 1 1
80 268.39207 -0.2 1 1 1 1
80 275.17717 -0.2 1 1 1 1
80 282.1338 -0.2 1 1 1 1
80 289.2663 -0.2 1 1 1 1
80 296.57912 -0.2 1 1 1 1
80 304.0768 -0.2 1 1 1 1
80 311.76403 -0.2 1 1 1 1
80 319.6456 -0.2 1 1 1 1
80 327.72642 -0.2 1 1 1 1
80 336.01153 -0.2 1 1 1 1
80 344.50609 -0.2 1 1 1 1
80 353.21539 -0.2 1 1 1 1
80 362.14487 -0.2 1 1 1 1
80 371.3001 -0.2 1 1 1 1
80 380.68677 -0.2 1 1 1 1
80 390.31075 -0.2 1 1 1 1
80 400.17802 -0.2 1 1 1 1
80 410.29474 -0.2 1 1 1 1
80 420.66722 -0.2 1 1 1 1
80 431.30192 -0.2 1 1 1 1
80 442.20548 -0.2 1 1 1 1
80 453.38468 -0.2 1 1 1 1
80 464.84649 -0.2 1 1 1 1
80 476.59807 -0.2 1 1 1 1
80 488.64674 -0.2 1 1 1 1
80 501 -0.2 1 1 1 1
80 8.14308 0.2 1 1 1 1
80 8.34894 0.2 1 1 1 1
80 8.56001 0.2 1 1 1 1
80 8.77641 0.2 1 1 1 1
80 8.99828 0.2 1 1 1 1
80 9.22576 0.2 1 1 1 1
80 9.45899 0.2 1 1 1 1
80 9.69812 0.2 1 1 1 1
80 9.9433 0.2 1 1 1 1
80 10.19467 0.2 1 1 1 1
80 10.4524 0.2 1 1 1 1
80 10.71664 0.2 1 1 1 1
80 10.98756 0.2 1 1 1 1
80 11.26533 0.2 1 1 1 1
80 11.55013 0.2 1 1 1 1
80 11.84212 0.2 1 1 1 1
80 12.1415 0.2 1 1 1 1
80 12.44844 0.2 1 1 1 1
80 12.76314 0.2 1 1 1 1
80 13.0858 0.2 1 1 1 1
80 13.41662 0.2 1 1 1 1
80 13.7558 0.2 1 1 1 1
80 14.10355 0.2 1 1 1 1
80 14.4601 0.2 1 1 1 1
80 14.82566 0.2 1 1 1 1
80 15.20046 0.2 1 1 1 1
80 15.58473 0.2 1 1 1 1
80 15.97872 0.2 1 1 1 1
80 16.38268 0.2 1 1 1 1
80 16.79684 0.2 1 1 1 1
80 17.22147 0.2 1 1 1 1
80 17.65684 0.2 1 1 1 1
80 18.10322 0.2 1 1 1 1
80 18.56088 0.2 1 1 1 1
80 19.0301 0.2 1 1 1 1
80 19.5112 0.2 1 1 1 1
80 20.00445 0.2 1 1 1 1
80 20.51017 0.2 1 1 1 1
80 21.02868 0.2 1 1 1 1
80 21.5603 0.2 1 1 1 1
80 22.10536 0.2 1 1 1 1
80 22.66419 0.2 1 1 1 1
80 23.23715 0.2 1 1 1 1
80 23.8246 0.2 1 1 1 1
80 24.4269 0.2 1 1 1 1
80 25.04443 0.2 1 1 1 1
80 25.67756 0.2 1 1 1 1
80 26.32671 0.2 1 1 1 1
80 26.99226 0.2 1 1 1 1
80 27.67464 0.2 1 1 1 1
80 28.37427 0.2 1 1 1 1
80 29.09159 0.2 1 1 1 1
80 29.82704 0.2 1 1 1 1
80 30.58108 0.2 1 1 1 1
80 31.35419 0.2 1 1 1 1
80 32.14684 0.2 1 1 1 1
80 32.95953 0.2 1 1 1 1
80 33.79277 0.2 1 1 1 1
80 34.64707 0.2 1 1 1 1
80 35.52297 0.2 1 1 1 1
80 36.42101 0.2 1 1 1 1
80 37.34175 0.2 1 1 1 1
80 38.28577 0.2 1 1 1 1
80 39.25366 0.2 1 1 1 1
80 40.24601 0.2 1 1 1 1
80 41.26345 0.2 1 1 1 1
80 42.30661 0.2 1 1 1 1
80 43.37615 0.2 1 1 1 1
80 44.47272 0.2 1 1 1 1
80 45.59702 0.2 1 1 1 1
80 46.74974 0.2 1 1 1 1
80 47.93159 0.2 1 1 1 1
80 49.14333 0.2 1 1 1 1
80 50.3857 0.2 1 1 1 1
80 51.65948 0.2 1 1 1 1
80 52.96546 0.2 1 1 1 1
80 54.30446 0.2 1 1 1 1
80 55.67731 0.2 1 1 1 1
80 57.08486 0.2 1 1 1 1
80 58.528 0.2 1 1 1 1
80 60.00762 0.2 1 1 1 1
80 61.52464 0.2 1 1 1 1
80 63.08002 0.2 1 1 1 1
80 64.67472 0.2 1 1 1 1
80 66.30973 0.2 1 1 1 1
80 67.98608 0.2 1 1 1 1
80 69.7048 0.2 1 1 1 1
80 71.46698 0.2 1 1 1 1
80 73.2737 0.2 1 1 1 1
80 75.1261 0.2 1 1 1 1
80 77.02533 0.2 1 1 1 1
80 78.97258 0.2 1 1 1 1
80 80.96905 0.2 1 1 1 1
80 83.01599 0.2 1 1 1 1
80 85.11468 0.2 1 1 1 1
80 87.26643 0.2 1 1 1 1
80 89.47257 0.2 1 1 1 1
80 91.73449 0.2 1 1 1 1
80 94.05359 0.2 1 1 1 1
80 96.43131 0.2 1 1 1 1
80 98.86915 0.2 1 1 1 1
80 101.36862 0.2 1 1 1 1
80 103.93127 0.2 1 1 1 1
80 106.55872 0.2 1 1 1 1
80 109.25258 0.2 1 1 1 1
80 112.01454 0.2 1 1 1 1
80 114.84633 0.2 1 1 1 1
80 117.74971 0.2 1 1 1 1
80 120.72649 0.2 1 1 1 1
80 123.77853 0.2 1 1 1 1
80 126.90772 0.2 1 1 1 1
80 130.11601 0.2 1 1 1 1
80 133.40542 0.2 1 1 1 1
80 136.77798 0.2 1 1 1 1
80 140.23581 0.2 1 1 1 1
80 143.78105 0.2 1 1 1 1
80 147.41591 0.2 1 1 1 1
80 151.14267 0.2 1 1 1 1
80 154.96364 0.2 1 1 1 1
80 158.8812 0.2 1 1 1 1
80 162.89781 0.2 1 1 1 1
80 167.01596 0.2 1 1 1 1
80 171.23821 0.2 1 1 1 1
80 175.56721 0.2 1 1 1 1
80 180.00565 0.2 1 1 1 1
80 184.55629 0.2 1 1 1 1
80 189.22198 0.2 1 1 1 1
80 194.00561 0.2 1 1 1 1
80 198.91018 0.2 1 1 1 1
80 203.93874 0.2 1 1 1 1
80 209.09443 0.2 1 1 1 1
80 214.38045 0.2 1 1 1 1
80 219.80011 0.2 1 1 1 1
80 225.35678 0.2 1 1 1 1
80 231.05392 0.2 1 1 1 1
80 236.8951 0.2 1 1 1 1
80 242.88394 0.2 1 1 1 1
80 249.02418 0.2 1 1 1 1
80 255.31965 0.2 1 1 1 1
80 261.77427 0.2 1 1 1 1
80 268.39207 0.2 1 1 1 1
80 275.17717 0.2 1 1 1 1
80 282.1338 0.2 1 1 1 1
80 289.2663 0.2 1 1 1 1
80 296.57912 0.2 1 1 1 1
80 304.0768 0.2 1 1 1 1
80 311.76403 0.2 1 1 1 1
80 319.6456 0.2 1 1 1 1
80 327.72642 0.2 1 1 1 1
80 336.01153 0.2 1 1 1 1
80 344.50609 0.2 1 1 1 1
80 353.21539 0.2 1 1 1 1
80 362.14487 0.2 1 1 1 1
80 371.3001 0.2 1 1 1 1
80 380.68677 0.2 1 1 1 1
80 390.31075 0.2 1 1 1 1
80 400.17802 0.2 1 1 1 1
80 410.29474 0.2 1 1 1 1
80 420.66722 0.2 1 1 1 1
80 431.30192 0.2 1 1 1 1
80 442.20548 0.2 1 1 1 1
80 453.38468 0.2 1 1 1 1
80 464.84649 0.2 1 1 1 1
80 476.59807 0.2 1 1 1 1
80 488.64674 0.2 1 1 1 1
80 501 0.2 1 1 1 1
80 8.14308 0.6 1 1 1 1
80 8.34894 0.6 1 1 1 1
80 8.56001 0.6 1 1 1 1
80 8.77641 0.6 1 1 1 1
80 8.99828 0.6 1 1 1 1
80 9.22576 0.6 1 1 1 1
80 9.45899 0.6 1 1 1 1
80 9.69812 0.6 1 1 1 1
80 9.9433 0.6 1 1 1 1
80 10.19467 0.6 1 1 1 1
80 10.4524 0.6 1 1 1 1
80 10.71664 0.6 1 1 1 1
80 10.98756 0.6 1 1 1 1
80 11.26533 0.6 1 1 1 1
80 11.55013 0.6 1 1 1 1
80 11.84212 0.6 1 1 1 1
80 12.1415 0.6 1 1 1 1
80 12.44844 0.6 1 1 1 1
80 12.76314 0.6 1 1 1 1
80 13.0858 0.6 1 1 1 1
80 13.41662 0.6 1 1 1 1
80 13.7558 0.6 1 1 1 1
80 14.10355 0.6 1 1 1 1
80 14.4601 0.6 1 1 1 1
80 14.82566 0.6 1 1 1 1
80 15.20046 0.6 1 1 1 1
80 15.58473 0.6 1 1 1 1
80 15.97872 0.6 1 1 1 1
80 16.38268 0.6 1 1 1 1
80 16.79684 0.6 1 1 1 1
80 17.22147 0.6 1 1 1 1
80 17.65684 0.6 1 1 1 1
80 18.10322 0.6 1 1 1 1
80 18.56088 0.6 1 1 1 1
80 19.0301 0.6 1 1 1 1
80 19.5112 0.6 1 1 1 1
80 20.00445 0.6 1 1 1 1
80 20.51017 0.6 1 1 1 1
80 21.02868 0.6 1 1 1 1
80 21.5603 0.6 1 1 1 1
80 22.10536 0.6 1 1 1 1
80 22.66419 0.6 1 1 1 1
80 23.23715 0.6 1 1 1 1
80 23.8246 0.6 1 1 1 1
80 24.4269 0.6 1 1 1 1
80 25.04443 0.6 1 1 1 1
80 25.67756 0.6 1 1 1 1
80 26.32671 0.6 1 1 1 1
80 26.99226 0.6 1 1 1 1
80 27.67464 0.6 1 1 1 1
80 28.37427 0.6 1 1 1 1
80 29.09159 0.6 1 1 1 1
80 29.82704 0.6 1 1 1 1
80 30.58108 0.6 1 1 1 1
80 31.35419 0.6 1 1 1 1
80 32.14684 0.6 1 1 1 1
80 32.95953 0.6 1 1 1 1
80 33.79277 0.6 1 1 1 1
80 34.64707 0.6 1 1 1 1
80 35.52297 0.6 1 1 1 1
80 36.42101 0.6 1 1 1 1
80 37.34175 0.6 1 1 1 1
80 38.28577 0.6 1 1 1 1
80 39.25366 0.6 1 1 1 1
80 40.24601 0.6 1 1 1 1
80 41.26345 0.6 1 1 1 1
80 42.30661 0.6 1 1 1 1
80 43.37615 0.6 1 1 1 1
80 44.47272 0.6 1 1 1 1
80 45.59702 0.6 1 1 1 1
80 46.74974 0.6 1 1 1 1
80 47.93159 0.6 1 1 1 1
80 49.14333 0.6 1 1 1 1
80 50.3857 0.6 1 1 1 1
80 51.65948 0.6 1 1 1 1
80 52.96546 0.6 1 1 1 1
80 54.30446 0.6 1 1 1 1
80 55.67731 0.6 1 1 1 1
80 57.08486 0.6 1 1 1 1
80 58.528 0.6 1 1 1 1
80 60.00762 0.6 1 1 1 1
80 61.52464 0.6 1 1 1 1
80 63.08002 0.6 1 1 1 1
80 64.67472 0.6 1 1 1 1
80 66.30973 0.6 1 1 1 1
80 67.98608 0.6 1 1 1 1
80 69.7048 0.6 1 1 1 1
80 71.46698 0.6 1 1 1 1
80 73.2737 0.6 1 1 1 1
80 75.1261 0.6 1 1 1 1
80 77.02533 0.6 1 1 1 1
80 78.97258 0.6 1 1 1 1
80 80.96905 0.6 1 1 1 1
80 83.01599 0.6 1 1 1 1
80 85.11468 0.6 1 1 1 1
80 87.26643 0.6 1 1 1 1
80 89.47257 0.6 1 1 1 1
80 91.73449 0.6 1 1 1 1
80 94.05359 0.6 1 1 1 1
80 96.43131 0.6 1 1 1 1
80 98.86915 0.6 1 1 1 1
80 101.36862 0.6 1 1 1 1
80 103.93127 0.6 1 1 1 1
80 106.55872 0.6 1 1 1 1
80 109.25258 0.6 1 1 1 1
80 112.01454 0.6 1 1 1 1
80 114.84633 0.6 1 1 1 1
80 117.74971 0.6 1 1 1 1
80 120.72649 0.6 1 1 1 1
80 123.77853 0.6 1 1 1 1
80 126.90772 0.6 1 1 1 1
80 130.11601 0.6 1 1 1 1
80 133.40542 0.6 1 1 1 1
80 136.77798 0.6 1 1 1 1
80 140.23581 0.6 1 1 1 1
80 143.78105 0.6 1 1 1 1
80 147.41591 0.6 1 1 1 1
80 151.14267 0.6 1 1 1 1
80 154.96364 0.6 1 1 1 1
80 158.8812 0.6 1 1 1 1
80 162.89781 0.6 1 1 1 1
80 167.01596 0.6 1 1 1 1
80 171.23821 0.6 1 1 1 1
80 175.56721 0.6 1 1 1 1
80 180.00565 0.6 1 1 1 1
80 184.55629 0.6 1 1 1 1
80 189.22198 0.6 1 1 1 1
80 194.00561 0.6 1 1 1 1
80 198.91018 0.6 1 1 1 1
80 203.93874 0.6 1 1 1 1
80 209.09443 0.6 1 1 1 1
80 214.38045 0.6 1 1 1 1
80 219.80011 0.6 1 1 1 1
80 225.35678 0.6 1 1 1 1
80 231.05392 0.6 1 1 1 1
80 236.8951 0.6 1 1 1 1
80 242.88394 0.6 1 1 1 1
80 249.02418 0.6 1 1 1 1
80 255.31965 0.6 1 1 1 1
80 261.77427 0.6 1 1 1 1
80 268.39207 0.6 1 1 1 1
80 275.17717 0.6 1 1 1 1
80 282.1338 0.6 1 1 1 1
80 289.2663 0.6 1 1 1 1
80 296.57912 0.6 1 1 1 1
80 304.0768 0.6 1 1 1 1
80 311.76403 0.6 1 1 1 1
80 319.6456 0.6 1 1 1 1
80 327.72642 0.6 1 1 1 1
80 336.01153 0.6 1 1 1 1
80 344.50609 0.6 1 1 1 1
80 353.21539 0.6 1 1 1 1
80 362.14487 0.6 1 1 1 1
80 371.3001 0.6 1 1 1 1
80 380.68677 0.6 1 1 1 1
80 390.31075 0.6 1 1 1 1
80 400.17802 0.6 1 1 1 1
80 410.29474 0.6 1 1 1 1
80 420.66722 0.6 1 1 1 1
80 431.30192 0.6 1 1 1 1
80 442.20548 0.6 1 1 1 1
80 453.38468 0.6 1 1 1 1
80 464.84649 0.6 1 1 1 1
80 476.59807 0.6 1 1 1 1
80 488.64674 0.6 1 1 1 1
80 501 0.6 1 1 1 1
80 8.14308 1 1 1 1 1
80 8.34894 1 1 1 1 1
80 8.56001 1 1 1 1 1
80 8.77641 1 1 1 1 1
80 8.99828 1 1 1 1 1
80 9.22576 1 1 1 1 1
80 9.45899 1 1 1 1 1
80 9.69812 1 1 1 1 1
80 9.9433 1 1 1 1 1
80 10.19467 1 1 1 1 1
80 10.4524 1 1 1 1 1
80 10.71664 1 1 1 1 1
80 10.98756 1 1 1 1 1
80 11.26533 1 1 1 1 1
80 11.55013 1 1 1 1 1
80 11.84212 1 1 1 1 1
80 12.1415 1 1 1 1 1
80 12.44844 1 1 1 1 1
80 12.76314 1 1 1 1 1
80 13.0858 1 1 1 1 1
80 13.41662 1 1 1 1 1
80 13.7558 1 1 1 1 1
80 14.10355 1 1 1 1 1
80 14.4601 1 1 1 1 1
80 14.82566 1 1 1 1 1
80 15.20046 1 1 1 1 1
80 15.58473 1 1 1 1 1
80 15.97872 1 1 1 1 1
80 16.38268 1 1 1 1 1
80 16.79684 1 1 1 1 1
80 17.22147 1 1 1 1 1
80 17.65684 1 1 1 1 1
80 18.10322 1 1 1 1 1
80 18.56088 1 1 1 1 1
80 19.0301 1 1 1 1 1
80 19.5112 1 1 1 1 1
80 20.00445 1 1 1 1 1
80 20.51017 1 1 1 1 1
80 21.02868 1 1 1 1 1
80 21.5603 1 1 1 1 1
80 22.10536 1 1 1 1 1
80 22.66419 1 1 1 1 1
80 23.23715 1 1 1 1 1
80 23.8246 1 1 1 1 1
80 24.4269 1 1 1 1 1
80 25.04443 1 1 1 1 1
80 25.67756 1 1 1 1 1
80 26.32671 1 1 1 1 1
80 26.99226 1 1 1 1 1
80 27.67464 1 1 1 1 1
80 28.37427 1 1 1 1 1
80 29.09159 1 1 1 1 1
80 29.82704 1 1 1 1 1
80 30.58108 1 1 1 1 1
80 31.35419 1 1 1 1 1
80 32.14684 1 1 1 1 1
80 32.95953 1 1 1 1 1
80 33.79277 1 1 1 1 1
80 34.64707 1 1 1 1 1
80 35.52297 1 1 1 1 1
80 36.42101 1 1 1 1 1
80 37.34175 1 1 1 1 1
80 38.28577 1 1 1 1 1
80 39.25366 1 1 1 1 1
80 40.24601 1 1 1 1 1
80 41.26345 1 1 1 1 1
80 42.30661 1 1 1 1 1
80 43.37615 1 1 1 1 1
80 44.47272 1 1 1 1 1
80 45.59702 1 1 1 1 1
80 46.74974 1 1 1 1 1
80 47.93159 1 1 1 1 1
80 49.14333 1 1 1 1 1
80 50.3857 1 1 1 1 1
80 51.65948 1 1 1 1 1
80 52.96546 1 1 1 1 1
80 54.30446 1 1 1 1 1
80 55.67731 1 1 1 1 1
80 57.08486 1 1 1 1 1
80 58.528 1 1 1 1 1
80 60.00762 1 1 1 1 1
80 61.52464 1 1 1 1 1
80 63.08002 1 1 1 1 1
80 64.67472 1 1 1 1 1
80 66.30973 1 1 1 1 1
80 67.98608 1 1 1 1 1
80 69.7048 1 1 1 1 1
80 71.46698 1 1 1 1 1
80 73.2737 1 1 1 1 1
80 75.1261 1 1 1 1 1
80 77.02533 1 1 1 1 1
80 78.97258 1 1 1 1 1
80 80.96905 1 1 1 1 1
80 83.01599 1 1 1 1 1
80 85.11468 1 1 1 1 1
80 87.26643 1 1 1 1 1
80 89.47257 1 1 1 1 1
80 91.73449 1 1 1 1 1
80 94.05359 1 1 1 1 1
80 96.43131 1 1 1 1 1
80 98.86915 1 1 1 1 1
80 101.36862 1 1 1 1 1
80 103.93127 1 1 1 1 1
80 106.55872 1 1 1 1 1
80 109.25258 1 1 1 1 1
80 112.01454 1 1 1 1 1
80 114.84633 1 1 1 1 1
80 117.74971 1 1 1 1 1
80 120.72649 1 1 1 1 1
80 123.77853 1 1 1 1 1
80 126.90772 1 1 1 1 1
80 130.11601 1 1 1 1 1
80 133.40542 1 1 1 1 1
80 136.77798 1 1 1 1 1
80 140.23581 1 1 1 1 1
80 143.78105 1 1 1 1 1
80 147.41591 1 1 1 1 1
80 151.14267 1 1 1 1 1
80 154.96364 1 1 1 1 1
80 158.8812 1 1 1 1 1
80 162.89781 1 1 1 1 1
80 167.01596 1 1 1 1 1
80 171.23821 1 1 1 1 1
80 175.56721 1 1 1 1 1
80 180.00565 1 1 1 1 1
80 184.55629 1 1 1 1 1
80 189.22198 1 1 1 1 1
80 194.00561 1 1 1 1 1
80 198.91018 1 1 1 1 1
80 203.93874 1 1 1 1 1
80 209.09443 1 1 1 1 1
80 214.38045 1 1 1 1 1
80 219.80011 1 1 1 1 1
80 225.35678 1 1 1 1 1
80 231.05392 1 1 1 1 1
80 236.8951 1 1 1 1 1
80 242.88394 1 1 1 1 1
80 249.02418 1 1 1 1 1
80 255.31965 1 1 1 1 1
80 261.77427 1 1 1 1 1
80 268.39207 1 1 1 1 1
80 275.17717 1 1 1 1 1
80 282.1338 1 1 1 1 1
80 289.2663 1 1 1 1 1
80 296.57912 1 1 1 1 1
80 304.0768 1 1 1 1 1
80 311.76403 1 1 1 1 1
80 319.6456 1 1 1 1 1
80 327.72642 1 1 1 1 1
80 336.01153 1 1 1 1 1
80 344.50609 1 1 1 1 1
80 353.21539 1 1 1 1 1
80 362.14487 1 1 1 1 1
80 371.3001 1 1 1 1 1
80 380.68677 1 1 1 1 1
80 390.31075 1 1 1 1 1
80 400.17802 1 1 1 1 1
80 410.29474 1 1 1 1 1
80 420.66722 1 1 1 1 1
80 431.30192 1 1 1 1 1
80 442.20548 1 1 1 1 1
80 453.38468 1 1 1 1 1
80 464.84649 1 1 1 1 1
80 476.59807 1 1 1 1 1
80 488.64674 1 1 1 1 1
80 501 1 1 1 1 1
80 8.14308 1.4 1 1 1 1
80 8.34894 1.4 1 1 1 1
80 8.56001 1.4 1 1 1 1
80 8.77641 1.4 1 1 1 1
80 8.99828 1.4 1 1 1 1
80 9.22576 1.4 1 1 1 1
80 9.45899 1.4 1 1 1 1
80 9.69812 1.4 1 1 1 1
80 9.9433 1.4 1 1 1 1
80 10.19467 1.4 1 1 1 1
80 10.4524 1.4 1 1 1 1
80 10.71664 1.4 1 1 1 1
80 10.98756 1.4 1 1 1 1
80 11.26533 1.4 1 1 1 1
80 11.55013 1.4 1 1 1 1
80 11.84212 1.4 1 1 1 1
80 12.1415 1.4 1 1 1 1
80 12.44844 1.4 1 1 1 1
80 12.76314 1.4 1 1 1 1
80 13.0858 1.4 1 1 1 1
80 13.41662 1.4 1 1 1 1
80 13.7558 1.4 1 1 1 1
80 14.10355 1.4 1 1 1 1
80 14.4601 1.4 1 1 1 1
80 14.82566 1.4 1 1 1 1
80 15.20046 1.4 1 1 1 1
80 15.58473 1.4 1 1 1 1
80 15.97872 1.4 1 1 1 1
80 16.38268 1.4 1 1 1 1
80 16.79684 1.4 1 1 1 1
80 17.22147 1.4 1 1 1 1
80 17.65684 1.4 1 1 1 1
80 18.10322 1.4 1 1 1 1
80 18.56088 1.4 1 1 1 1
80 19.0301 1.4 1 1 1 1
80 19.5112 1.4 1 1 1 1
80 20.00445 1.4 1 1 1 1
80 20.51017 1.4 1 1 1 1
80 21.02868 1.4 1 1 1 1
80 21.5603 1.4 1 1 1 1
80 22.10536 1.4 1 1 1 1
80 22.66419 1.4 1 1 1 1
80 23.23715 1.4 1 1 1 1
80 23.8246 1.4 1 1 1 1
80 24.4269 1.4 1 1 1 1
80 25.04443 1.4 1 1 1 1
80 25.67756 1.4 1 1 1 1
80 26.32671 1.4 1 1 1 1
80 26.99226 1.4 1 1 1 1
80 27.67464 1.4 1 1 1 1
80 28.37427 1.4 1 1 1 1
80 29.09159 1.4 1 1 1 1
80 29.82704 1.4 1 1 1 1
80 30.58108 1.4 1 1 1 1
80 31.35419 1.4 1 1 1 1
80 32.14684 1.4 1 1 1 1
80 32.95953 1.4 1 1 1 1
80 33.79277 1.4 1 1 1 1
80 34.64707 1.4 1 1 1 1
80 35.52297 1.4 1 1 1 1
80 36.42101 1.4 1 1 1 1
80 37.34175 1.4 1 1 1 1
80 38.28577 1.4 1 1 1 1
80 39.25366 1.4 1 1 1 1
80 40.24601 1.4 1 1 1 1
80 41.26345 1.4 1 1 1 1
80 42.30661 1.4 1 1 1 1
80 43.37615 1.4 1 1 1 1
80 44.47272 1.4 1 1 1 1
80 45.59702 1.4 1 1 1 1
80 46.74974 1.4 1 1 1 1
80 47.93159 1.4 1 1 1 1
80 49.14333 1.4 1 1 1 1
80 50.3857 1.4 1 1 1 1
80 51.65948 1.4 1 1 1 1
80 52.96546 1.4 1 1 1 1
80 54.30446 1.4 1 1 1 1
80 55.67731 1.4 1 1 1 1
80 57.08486 1.4 1 1 1 1
80 58.528 1.4 1 1 1 1
80 60.00762 1.4 1 1 1 1
80 61.52464 1.4 1 1 1 1
80 63.08002 1.4 1 1 1 1
80 64.67472 1.4 1 1 1 1
80 66.30973 1.4 1 1 1 1
80 67.98608 1.4 1 1 1 1
80 69.7048 1.4 1 1 1 1
80 71.46698 1.4 1 1 1 1
80 73.2737 1.4 1 1 1 1
80 75.1261 1.4 1 1 1 1
80 77.02533 1.4 1 1 1 1
80 78.97258 1.4 1 1 1 1
80 80.96905 1.4 1 1 1 1
80 83.01599 1.4 1 1 1 1
80 85.11468 1.4 1 1 1 1
80 87.26643 1.4 1 1 1 1
80 89.47257 1.4 1 1 1 1
80 91.73449 1.4 1 1 1 1
80 94.05359 1.4 1 1 1 1
80 96.43131 1.4 1 1 1 1
80 98.86915 1.4 1 1 1 1
80 101.36862 1.4 1 1 1 1
80 103.93127 1.4 1 1 1 1
80 106.55872 1.4 1 1 1 1
80 109.25258 1.4 1 1 1 1
80 112.01454 1.4 1 1 1 1
80 114.84633 1.4 1 1 1 1
80 117.74971 1.4 1 1 1 1
80 120.72649 1.4 1 1 1 1
80 123.77853 1.4 1 1 1 1
80 126.90772 1.4 1 1 1 1
80 130.11601 1.4 1 1 1 1
80 133.40542 1.4 1 1 1 1
80 136.77798 1.4 1 1 1 1
80 140.23581 1.4 1 1 1 1
80 143.78105 1.4 1 1 1 1
80 147.41591 1.4 1 1 1 1
80 151.14267 1.4 1 1 1 1
80 154.96364 1.4 1 1 1 1
80 158.8812 1.4 1 1 1 1
80 162.89781 1.4 1 1 1 1
80 167.01596 1.4 1 1 1 1
80 171.23821 1.4 1 1 1 1
80 175.56721 1.4 1 1 1 1
80 180.00565 1.4 1 1 1 1
80 184.55629 1.4 1 1 1 1
80 189.22198 1.4 1 1 1 1
80 194.00561 1.4 1 1 1 1
80 198.91018 1.4 1 1 1 1
80 203.93874 1.4 1 1 1 1
80 209.09443 1.4 1 1 1 1
80 214.38045 1.4 1 1 1 1
80 219.80011 1.4 1 1 1 1
80 225.35678 1.4 1 1 1 1
80 231.05392 1.4 1 1 1 1
80 236.8951 1.4 1 1 1 1
80 242.88394 1.4 1 1 1 1
80 249.02418 1.4 1 1 1 1
80 255.31965 1.4 1 1 1 1
80 261.77427 1.4 1 1 1 1
80 268.39207 1.4 1 1 1 1
80 275.17717 1.4 1 1 1 1
80 282.1338 1.4 1 1 1 1
80 289.2663 1.4 1 1 1 1
80 296.57912 1.4 1 1 1 1
80 304.0768 1.4 1 1 1 1
80 311.76403 1.4 1 1 1 1
80 319.6456 1.4 1 1 1 1
80 327.72642 1.4 1 1 1 1
80 336.01153 1.4 1 1 1 1
80 344.50609 1.4 1 1 1 1
80 353.21539 1.4 1 1 1 1
80 362.14487 1.4 1 1 1 1
80 371.3001 1.4 1 1 1 1
80 380.68677 1.4 1 1 1 1
80 390.31075 1.4 1 1 1 1
80 400.17802 1.4 1 1 1 1
80 410.29474 1.4 1 1 1 1
80 420.66722 1.4 1 1 1 1
80 431.30192 1.4 1 1 1 1
80 442.20548 1.4 1 1 1 1
80 453.38468 1.4 1 1 1 1
80 464.84649 1.4 1 1 1 1
80 476.59807 1.4 1 1 1 1
80 488.64674 1.4 1 1 1 1
80 501 1.4 1 1 1 1
80 8.14308 1.8 1 1 1 1
80 8.34894 1.8 1 1 1 1
80 8.56001 1.8 1 1 1 1
80 8.77641 1.8 1 1 1 1
80 8.99828 1.8 1 1 1 1
80 9.22576 1.8 1 1 1 1
80 9.45899 1.8 1 1 1 1
80 9.69812 1.8 1 1 1 1
80 9.9433 1.8 1 1 1 1
80 10.19467 1.8 1 1 1 1
80 10.4524 1.8 1 1 1 1
80 10.71664 1.8 1 1 1 1
80 10.98756 1.8 1 1 1 1
80 11.26533 1.8 1 1 1 1
80 11.55013 1.8 1 1 1 1
80 11.84212 1.8 1 1 1 1
80 12.1415 1.8 1 1 1 1
80 12.44844 1.8 1 1 1 1
80 12.76314 1.8 1 1 1 1
80 13.0858 1.8 1 1 1 1
80 13.41662 1.8 1 1 1 1
80 13.7558 1.8 1 1 1 1
80 14.10355 1.8 1 1 1 1
80 14.4601 1.8 1 1 1 1
80 14.82566 1.8 1 1 1 1
80 15.20046 1.8 1 1 1 1
80 15.58473 1.8 1 1 1 1
80 15.97872 1.8 1 1 1 1
80 16.38268 1.8 1 1 1 1
80 16.79684 1.8 1 1 1 1
80 17.22147 1.8 1 1 1 1
80 17.65684 1.8 1 1 1 1
80 18.10322 1.8 1 1 1 1
80 18.56088 1.8 1 1 1 1
80 19.0301 1.8 1 1 1 1
80 19.5112 1.8 1 1 1 1
80 20.00445 1.8 1 1 1 1
80 20.51017 1.8 1 1 1 1
80 21.02868 1.8 1 1 1 1
80 21.5603 1.8 1 1 1 1
80 22.10536 1.8 1 1 1 1
80 22.66419 1.8 1 1 1 1
80 23.23715 1.8 1 1 1 1
80 23.8246 1.8 1 1 1 1
80 24.4269 1.8 1 1 1 1
80 25.04443 1.8 1 1 1 1
80 25.67756 1.8 1 1 1 1
80 26.32671 1.8 1 1 1 1
80 26.99226 1.8 1 1 1 1
80 27.67464 1.8 1 1 1 1
80 28.37427 1.8 1 1 1 1
80 29.09159 1.8 1 1 1 1
80 29.82704 1.8 1 1 1 1
80 30.58108 1.8 1 1 1 1
80 31.35419 1.8 1 1 1 1
80 32.14684 1.8 1 1 1 1
80 32.95953 1.8 1 1 1 1
80 33.79277 1.8 1 1 1 1
80 34.64707 1.8 1 1 1 1
80 35.52297 1.8 1 1 1 1
80 36.42101 1.8 1 1 1 1
80 37.34175 1.8 1 1 1 1
80 38.28577 1.8 1 1 1 1
80 39.25366 1.8 1 1 1 1
80 40.24601 1.8 1 1 1 1
80 41.26345 1.8 1 1 1 1
80 42.30661 1.8 1 1 1 1
80 43.37615 1.8 1 1 1 1
80 44.47272 1.8 1 1 1 1
80 45.59702 1.8 1 1 1 1
80 46.74974 1.8 1 1 1 1
80 47.93159 1.8 1 1 1 1
80 49.14333 1.8 1 1 1 1
80 50.3857 1.8 1 1 1 1
80 51.65948 1.8 1 1 1 1
80 52.96546 1.8 1 1 1 1
80 54.30446 1.8 1 1 1 1
80 55.67731 1.8 1 1 1 1
80 57.08486 1.8 1 1 1 1
80 58.528 1.8 1 1 1 1
80 60.00762 1.8 1 1 1 1
80 61.52464 1.8 1 1 1 1
80 63.08002 1.8 1 1 1 1
80 64.67472 1.8 1 1 1 1
80 66.30973 1.8 1 1 1 1
80 67.98608 1.8 1 1 1 1
80 69.7048 1.8 1 1 1 1
80 71.46698 1.8 1 1 1 1
80 73.2737 1.8 1 1 1 1
80 75.1261 1.8 1 1 1 1
80 77.02533 1.8 1 1 1 1
80 78.97258 1.8 1 1 1 1
80 80.96905 1.8 1 1 1 1
80 83.01599 1.8 1 1 1 1
80 85.11468 1.8 1 1 1 1
80 87.26643 1.8 1 1 1 1
80 89.47257 1.8 1 1 1 1
80 91.73449 1.8 1 1 1 1
80 94.05359 1.8 1 1 1 1
80 96.43131 1.8 1 1 1 1
80 98.86915 1.8 1 1 1 1
80 101.36862 1.8 1 1 1 1
80 103.93127 1.8 1 1 1 1
80 106.55872 1.8 1 1 1 1
80 109.25258 1.8 1 1 1 1
80 112.01454 1.8 1 1 1 1
80 114.84633 1.8 1 1 1 1
80 117.74971 1.8 1 1 1 1
80 120.72649 1.8 1 1 1 1
80 123.77853 1.8 1 1 1 1
80 126.90772 1.8 1 1 1 1
80 130.11601 1.8 1 1 1 1
80 133.40542 1.8 1 1 1 1
80 136.77798 1.8 1 1 1 1
80 140.23581 1.8 1 1 1 1
80 143.78105 1.8 1 1 1 1
80 147.41591 1.8 1 1 1 1
80 151.14267 1.8 1 1 1 1
80 154.96364 1.8 1 1 1 1
80 158.8812 1.8 1 1 1 1
80 162.89781 1.8 1 1 1 1
80 167.01596 1.8 1 1 1 1
80 171.23821 1.8 1 1 1 1
80 175.56721 1.8 1 1 1 1
80 180.00565 1.8 1 1 1 1
80 184.55629 1.8 1 1 1 1
80 189.22198 1.8 1 1 1 1
80 194.00561 1.8 1 1 1 1
80 198.91018 1.8 1 1 1 1
80 203.93874 1.8 1 1 1 1
80 209.09443 1.8 1 1 1 1
80 214.38045 1.8 1 1 1 1
80 219.80011 1.8 1 1 1 1
80 225.35678 1.8 1 1 1 1
80 231.05392 1.8 1 1 1 1
80 236.8951 1.8 1 1 1 1
80 242.88394 1.8 1 1 1 1
80 249.02418 1.8 1 1 1 1
80 255.31965 1.8 1 1 1 1
80 261.77427 1.8 1 1 1 1
80 268.39207 1.8 1 1 1 1
80 275.17717 1.8 1 1 1 1
80 282.1338 1.8 1 1 1 1
80 289.2663 1.8 1 1 1 1
80 296.57912 1.8 1 1 1 1
80 304.0768 1.8 1 1 1 1
80 311.76403 1.8 1 1 1 1
80 319.6456 1.8 1 1 1 1
80 327.72642 1.8 1 1 1 1
80 336.01153 1.8 1 1 1 1
80 344.50609 1.8 1 1 1 1
80 353.21539 1.8 1 1 1 1
80 362.14487 1.8 1 1 1 1
80 371.3001 1.8 1 1 1 1
80 380.68677 1.8 1 1 1 1
80 390.31075 1.8 1 1 1 1
80 400.17802 1.8 1 1 1 1
80 410.29474 1.8 1 1 1 1
80 420.66722 1.8 1 1 1 1
80 431.30192 1.8 1 1 1 1
80 442.20548 1.8 1 1 1 1
80 453.38468 1.8 1 1 1 1
80 464.84649 1.8 1 1 1 1
80 476.59807 1.8 1 1 1 1
80 488.64674 1.8 1 1 1 1
80 501 1.8 1 1 1 1
80 8.14308 2.2 1 1 1 1
80 8.34894 2.2 1 1 1 1
80 8.56001 2.2 1 1 1 1
80 8.77641 2.2 1 1 1 1
80 8.99828 2.2 1 1 1 1
80 9.22576 2.2 1 1 1 1
80 9.45899 2.2 1 1 1 1
80 9.69812 2.2 1 1 1 1
80 9.9433 2.2 1 1 1 1
80 10.19467 2.2 1 1 1 1
80 10.4524 2.2 1 1 1 1
80 10.71664 2.2 1 1 1 1
80 10.98756 2.2 1 1 1 1
80 11.26533 2.2 1 1 1 1
80 11.55013 2.2 1 1 1 1
80 11.84212 2.2 1 1 1 1
80 12.1415 2.2 1 1 1 1
80 12.44844 2.2 1 1 1 1
80 12.76314 2.2 1 1 1 1
80 13.0858 2.2 1 1 1 1
80 13.41662 2.2 1 1 1 1
80 13.7558 2.2 1 1 1 1
80 14.10355 2.2 1 1 1 1
80 14.4601 2.2 1 1 1 1
80 14.82566 2.2 1 1 1 1
80 15.20046 2.2 1 1 1 1
80 15.58473 2.2 1 1 1 1
80 15.97872 2.2 1 1 1 1
80 16.38268 2.2 1 1 1 1
80 16.79684 2.2 1 1 1 1
80 17.22147 2.2 1 1 1 1
80 17.65684 2.2 1 1 1 1
80 18.10322 2.2 1 1 1 1
80 18.56088 2.2 1 1 1 1
80 19.0301 2.2 1 1 1 1
80 19.5112 2.2 1 1 1 1
80 20.00445 2.2 1 1 1 1
80 20.51017 2.2 1 1 1 1
80 21.02868 2.2 1 1 1 1
80 21.5603 2.2 1 1 1 1
80 22.10536 2.2 1 1 1 1
80 22.66419 2.2 1 1 1 1
80 23.23715 2.2 1 1 1 1
80 23.8246 2.2 1 1 1 1
80 24.4269 2.2 1 1 1 1
80 25.04443 2.2 1 1 1 1
80 25.67756 2.2 1 1 1 1
80 26.32671 2.2 1 1 1 1
80 26.99226 2.2 1 1 1 1
80 27.67464 2.2 1 1 1 1
80 28.37427 2.2 1 1 1 1
80 29.09159 2.2 1 1 1 1
80 29.82704 2.2 1 1 1 1
80 30.58108 2.2 1 1 1 1
80 31.35419 2.2 1 1 1 1
80 32.14684 2.2 1 1 1 1
80 32.95953 2.2 1 1 1 1
80 33.79277 2.2 1 1 1 1
80 34.64707 2.2 1 1 1 1
80 35.52297 2.2 1 1 1 1
80 36.42101 2.2 1 1 1 1
80 37.34175 2.2 1 1 1 1
80 38.28577 2.2 1 1 1 1
80 39.25366 2.2 1 1 1 1
80 40.24601 2.2 1 1 1 1
80 41.26345 2.2 1 1 1 1
80 42.30661 2.2 1 1 1 1
80 43.37615 2.2 1 1 1 1
80 44.47272 2.2 1 1 1 1
80 45.59702 2.2 1 1 1 1
80 46.74974 2.2 1 1 1 1
80 47.93159 2.2 1 1 1 1
80 49.14333 2.2 1 1 1 1
80 50.3857 2.2 1 1 1 1
80 51.65948 2.2 1 1 1 1
80 52.96546 2.2 1 1 1 1
80 54.30446 2.2 1 1 1 1
80 55.67731 2.2 1 1 1 1
80 57.08486 2.2 1 1 1 1
80 58.528 2.2 1 1 1 1
80 60.00762 2.2 1 1 1 1
80 61.52464 2.2 1 1 1 1
80 63.08002 2.2 1 1 1 1
80 64.67472 2.2 1 1 1 1
80 66.30973 2.2 1 1 1 1
80 67.98608 2.2 1 1 1 1
80 69.7048 2.2 1 1 1 1
80 71.46698 2.2 1 1 1 1
80 73.2737 2.2 1 1 1 1
80 75.1261 2.2 1 1 1 1
80 77.02533 2.2 1 1 1 1
80 78.97258 2.2 1 1 1 1
80 80.96905 2.2 1 1 1 1
80 83.01599 2.2 1 1 1 1
80 85.11468 2.2 1 1 1 1
80 87.26643 2.2 1 1 1 1
80 89.47257 2.2 1 1 1 1
80 91.73449 2.2 1 1 1 1
80 94.05359 2.2 1 1 1 1
80 96.43131 2.2 1 1 1 1
80 98.86915 2.2 1 1 1 1
80 101.36862 2.2 1 1 1 1
80 103.93127 2.2 1 1 1 1
80 106.55872 2.2 1 1 1 1
80 109.25258 2.2 1 1 1 1
80 112.01454 2.2 1 1 1 1
80 114.84633 2.2 1 1 1 1
80 117.74971 2.2 1 1 1 1
80 120.72649 2.2 1 1 1 1
80 123.77853 2.2 1 1 1 1
80 126.90772 2.2 1 1 1 1
80 130.11601 2.2 1 1 1 1
80 133.40542 2.2 1 1 1 1
80 136.77798 2.2 1 1 1 1
80 140.23581 2.2 1 1 1 1
80 143.78105 2.2 1 1 1 1
80 147.41591 2.2 1 1 1 1
80 151.14267 2.2 1 1 1 1
80 154.96364 2.2 1 1 1 1
80 158.8812 2.2 1 1 1 1
80 162.89781 2.2 1 1 1 1
80 167.01596 2.2 1 1 1 1
80 171.23821 2.2 1 1 1 1
80 175.56721 2.2 1 1 1 1
80 180.00565 2.2 1 1 1 1
80 184.55629 2.2 1 1 1 1
80 189.22198 2.2 1 1 1 1
80 194.00561 2.2 1 1 1 1
80 198.91018 2.2 1 1 1 1
80 203.93874 2.2 1 1 1 1
80 209.09443 2.2 1 1 1 1
80 214.38045 2.2 1 1 1 1
80 219.80011 2.2 1 1 1 1
80 225.35678 2.2 1 1 1 1
80 231.05392 2.2 1 1 1 1
80 236.8951 2.2 1 1 1 1
80 242.88394 2.2 1 1 1 1
80 249.02418 2.2 1 1 1 1
80 255.31965 2.2 1 1 1 1
80 261.77427 2.2 1 1 1 1
80 268.39207 2.2 1 1 1 1
80 275.17717 2.2 1 1 1 1
80 282.1338 2.2 1 1 1 1
80 289.2663 2.2 1 1 1 1
80 296.57912 2.2 1 1 1 1
80 304.0768 2.2 1 1 1 1
80 311.76403 2.2 1 1 1 1
80 319.6456 2.2 1 1 1 1
80 327.72642 2.2 1 1 1 1
80 336.01153 2.2 1 1 1 1
80 344.50609 2.2 1 1 1 1
80 353.21539 2.2 1 1 1 1
80 362.14487 2.2 1 1 1 1
80 371.3001 2.2 1 1 1 1
80 380.68677 2.2 1 1 1 1
80 390.31075 2.2 1 1 1 1
80 400.17802 2.2 1 1 1 1
80 410.29474 2.2 1 1 1 1
80 420.66722 2.2 1 1 1 1
80 431.30192 2.2 1 1 1 1
80 442.20548 2.2 1 1 1 1
80 453.38468 2.2 1 1 1 1
80 464.84649 2.2 1 1 1 1
80 476.59807 2.2 1 1 1 1
80 488.64674 2.2 1 1 1 1
80 501 2.2 1 1 1 1
80 8.14308 2.6 1 1 1 1
80 8.34894 2.6 1 1 1 1
80 8.56001 2.6 1 1 1 1
80 8.77641 2.6 1 1 1 1
80 8.99828 2.6 1 1 1 1
80 9.22576 2.6 1 1 1 1
80 9.45899 2.6 1 1 1 1
80 9.69812 2.6 1 1 1 1
80 9.9433 2.6 1 1 1 1
80 10.19467 2.6 1 1 1 1
80 10.4524 2.6 1 1 1 1
80 10.71664 2.6 1 1 1 1
80 10.98756 2.6 1 1 1 1
80 11.26533 2.6 1 1 1 1
80 11.55013 2.6 1 1 1 1
80 11.84212 2.6 1 1 1 1
80 12.1415 2.6 1 1 1 1
80 12.44844 2.6 1 1 1 1
80 12.76314 2.6 1 1 1 1
80 13.0858 2.6 1 1 1 1
80 13.41662 2.6 1 1 1 1
80 13.7558 2.6 1 1 1 1
80 14.10355 2.6 1 1 1 1
80 14.4601 2.6 1 1 1 1
80 14.82566 2.6 1 1 1 1
80 15.20046 2.6 1 1 1 1
80 15.58473 2.6 1 1 1 1
80 15.97872 2.6 1 1 1 1
80 16.38268 2.6 1 1 1 1
80 16.79684 2.6 1 1 1 1
80 17.22147 2.6 1 1 1 1
80 17.65684 2.6 1 1 1 1
80 18.10322 2.6 1 1 1 1
80 18.56088 2.6 1 1 1 1
80 19.0301 2.6 1 1 1 1
80 19.5112 2.6 1 1 1 1
80 20.00445 2.6 1 1 1 1
80 20.51017 2.6 1 1 1 1
80 21.02868 2.6 1 1 1 1
80 21.5603 2.6 1 1 1 1
80 22.10536 2.6 1 1 1 1
80 22.66419 2.6 1 1 1 1
80 23.23715 2.6 1 1 1 1
80 23.8246 2.6 1 1 1 1
80 24.4269 2.6 1 1 1 1
80 25.04443 2.6 1 1 1 1
80 25.67756 2.6 1 1 1 1
80 26.32671 2.6 1 1 1 1
80 26.99226 2.6 1 1 1 1
80 27.67464 2.6 1 1 1 1
80 28.37427 2.6 1 1 1 1
80 29.09159 2.6 1 1 1 1
80 29.82704 2.6 1 1 1 1
80 30.58108 2.6 1 1 1 1
80 31.35419 2.6 1 1 1 1
80 32.14684 2.6 1 1 1 1
80 32.95953 2.6 1 1 1 1
80 33.79277 2.6 1 1 1 1
80 34.64707 2.6 1 1 1 1
80 35.52297 2.6 1 1 1 1
80 36.42101 2.6 1 1 1 1
80 37.34175 2.6 1 1 1 1
80 38.28577 2.6 1 1 1 1
80 39.25366 2.6 1 1 1 1
80 40.24601 2.6 1 1 1 1
80 41.26345 2.6 1 1 1 1
80 42.30661 2.6 1 1 1 1
80 43.37615 2.6 1 1 1 1
80 44.47272 2.6 1 1 1 1
80 45.59702 2.6 1 1 1 1
80 46.74974 2.6 1 1 1 1
80 47.93159 2.6 1 1 1 1
80 49.14333 2.6 1 1 1 1
80 50.3857 2.6 1 1 1 1
80 51.65948 2.6 1 1 1 1
80 52.96546 2.6 1 1 1 1
80 54.30446 2.6 1 1 1 1
80 55.67731 2.6 1 1 1 1
80 57.08486 2.6 1 1 1 1
80 58.528 2.6 1 1 1 1
80 60.00762 2.6 1 1 1 1
80 61.52464 2.6 1 1 1 1
80 63.08002 2.6 1 1 1 1
80 64.67472 2.6 1 1 1 1
80 66.30973 2.6 1 1 1 1
80 67.98608 2.6 1 1 1 1
80 69.7048 2.6 1 1 1 1
80 71.46698 2.6 1 1 1 1
80 73.2737 2.6 1 1 1 1
80 75.1261 2.6 1 1 1 1
80 77.02533 2.6 1 1 1 1
80 78.97258 2.6 1 1 1 1
80 80.96905 2.6 1 1 1 1
80 83.01599 2.6 1 1 1 1
80 85.11468 2.6 1 1 1 1
80 87.26643 2.6 1 1 1 1
80 89.47257 2.6 1 1 1 1
80 91.73449 2.6 1 1 1 1
80 94.05359 2.6 1 1 1 1
80 96.43131 2.6 1 1 1 1
80 98.86915 2.6 1 1 1 1
80 101.36862 2.6 1 1 1 1
80 103.93127 2.6 1 1 1 1
80 106.55872 2.6 1 1 1 1
80 109.25258 2.6 1 1 1 1
80 112.01454 2.6 1 1 1 1
80 114.84633 2.6 1 1 1 1
80 117.74971 2.6 1 1 1 1
80 120.72649 2.6 1 1 1 1
80 123.77853 2.6 1 1 1 1
80 126.90772 2.6 1 1 1 1
80 130.11601 2.6 1 1 1 1
80 133.40542 2.6 1 1 1 1
80 136.77798 2.6 1 1 1 1
80 140.23581 2.6 1 1 1 1
80 143.78105 2.6 1 1 1 1
80 147.41591 2.6 1 1 1 1
80 151.14267 2.6 1 1 1 1
80 154.96364 2.6 1 1 1 1
80 158.8812 2.6 1 1 1 1
80 162.89781 2.6 1 1 1 1
80 167.01596 2.6 1 1 1 1
80 171.23821 2.6 1 1 1 1
80 175.56721 2.6 1 1 1 1
80 180.00565 2.6 1 1 1 1
80 184.55629 2.6 1 1 1 1
80 189.22198 2.6 1 1 1 1
80 194.00561 2.6 1 1 1 1
80 198.91018 2.6 1 1 1 1
80 203.93874 2.6 1 1 1 1
80 209.09443 2.6 1 1 1 1
80 214.38045 2.6 1 1 1 1
80 219.80011 2.6 1 1 1 1
80 225.35678 2.6 1 1 1 1
80 231.05392 2.6 1 1 1 1
80 236.8951 2.6 1 1 1 1
80 242.88394 2.6 1 1 1 1
80 249.02418 2.6 1 1 1 1
80 255.31965 2.6 1 1 1 1
80 261.77427 2.6 1 1 1 1
80 268.39207 2.6 1 1 1 1
80 275.17717 2.6 1 1 1 1
80 282.1338 2.6 1 1 1 1
80 289.2663 2.6 1 1 1 1
80 296.57912 2.6 1 1 1 1
80 304.0768 2.6 1 1 1 1
80 311.76403 2.6 1 1 1 1
80 319.6456 2.6 1 1 1 1
80 327.72642 2.6 1 1 1 1
80 336.01153 2.6 1 1 1 1
80 344.50609 2.6 1 1 1 1
80 353.21539 2.6 1 1 1 1
80 362.14487 2.6 1 1 1 1
80 371.3001 2.6 1 1 1 1
80 380.68677 2.6 1 1 1 1
80 390.31075 2.6 1 1 1 1
80 400.17802 2.6 1 1 1 1
80 410.29474 2.6 1 1 1 1
80 420.66722 2.6 1 1 1 1
80 431.30192 2.6 1 1 1 1
80 442.20548 2.6 1 1 1 1
80 453.38468 2.6 1 1 1 1
80 464.84649 2.6 1 1 1 1
80 476.59807 2.6 1 1 1 1
80 488.64674 2.6 1 1 1 1
80 501 2.6 1 1 1 1
80 8.14308 3 1 1 1 1
80 8.34894 3 1 1 1 1
80 8.56001 3 1 1 1 1
80 8.77641 3 1 1 1 1
80 8.99828 3 1 1 1 1
80 9.22576 3 1 1 1 1
80 9.45899 3 1 1 1 1
80 9.69812 3 1 1 1 1
80 9.9433 3 1 1 1 1
80 10.19467 3 1 1 1 1
80 10.4524 3 1 1 1 1
80 10.71664 3 1 1 1 1
80 10.98756 3 1 1 1 1
80 11.26533 3 1 1 1 1
80 11.55013 3 1 1 1 1
80 11.84212 3 1 1 1 1
80 12.1415 3 1 1 1 1
80 12.44844 3 1 1 1 1
80 12.76314 3 1 1 1 1
80 13.0858 3 1 1 1 1
80 13.41662 3 1 1 1 1
80 13.7558 3 1 1 1 1
80 14.10355 3 1 1 1 1
80 14.4601 3 1 1 1 1
80 14.82566 3 1 1 1 1
80 15.20046 3 1 1 1 1
80 15.58473 3 1 1 1 1
80 15.97872 3 1 1 1 1
80 16.38268 3 1 1 1 1
80 16.79684 3 1 1 1 1
80 17.22147 3 1 1 1 1
80 17.65684 3 1 1 1 1
80 18.10322 3 1 1 1 1
80 18.56088 3 1 1 1 1
80 19.0301 3 1 1 1 1
80 19.5112 3 1 1 1 1
80 20.00445 3 1 1 1 1
80 20.51017 3 1 1 1 1
80 21.02868 3 1 1 1 1
80 21.5603 3 1 1 1 1
80 22.10536 3 1 1 1 1
80 22.66419 3 1 1 1 1
80 23.23715 3 1 1 1 1
80 23.8246 3 1 1 1 1
80 24.4269 3 1 1 1 1
80 25.04443 3 1 1 1 1
80 25.67756 3 1 1 1 1
80 26.32671 3 1 1 1 1
80 26.99226 3 1 1 1 1
80 27.67464 3 1 1 1 1
80 28.37427 3 1 1 1 1
80 29.09159 3 1 1 1 1
80 29.82704 3 1 1 1 1
80 30.58108 3 1 1 1 1
80 31.35419 3 1 1 1 1
80 32.14684 3 1 1 1 1
80 32.95953 3 1 1 1 1
80 33.79277 3 1 1 1 1
80 34.64707 3 1 1 1 1
80 35.52297 3 1 1 1 1
80 36.42101 3 1 1 1 1
80 37.34175 3 1 1 1 1
80 38.28577 3 1 1 1 1
80 39.25366 3 1 1 1 1
80 40.24601 3 1 1 1 1
80 41.26345 3 1 1 1 1
80 42.30661 3 1 1 1 1
80 43.37615 3 1 1 1 1
80 44.47272 3 1 1 1 1
80 45.59702 3 1 1 1 1
80 46.74974 3 1 1 1 1
80 47.93159 3 1 1 1 1
80 49.14333 3 1 1 1 1
80 50.3857 3 1 1 1 1
80 51.65948 3 1 1 1 1
80 52.96546 3 1 1 1 1
80 54.30446 3 1 1 1 1
80 55.67731 3 1 1 1 1
80 57.08486 3 1 1 1 1
80 58.528 3 1 1 1 1
80 60.00762 3 1 1 1 1
80 61.52464 3 1 1 1 1
80 63.08002 3 1 1 1 1
80 64.67472 3 1 1 1 1
80 66.30973 3 1 1 1 1
80 67.98608 3 1 1 1 1
80 69.7048 3 1 1 1 1
80 71.46698 3 1 1 1 1
80 73.2737 3 1 1 1 1
80 75.1261 3 1 1 1 1
80 77.02533 3 1 1 1 1
80 78.97258 3 1 1 1 1
80 80.96905 3 1 1 1 1
80 83.01599 3 1 1 1 1
80 85.11468 3 1 1 1 1
80 87.26643 3 1 1 1 1
80 89.47257 3 1 1 1 1
80 91.73449 3 1 1 1 1
80 94.05359 3 1 1 1 1
80 96.43131 3 1 1 1 1
80 98.86915 3 1 1 1 1
80 101.36862 3 1 1 1 1
80 103.93127 3 1 1 1 1
80 106.55872 3 1 1 1 1
80 109.25258 3 1 1 1 1
80 112.01454 3 1 1 1 1
80 114.84633 3 1 1 1 1
80 117.74971 3 1 1 1 1
80 120.72649 3 1 1 1 1
80 123.77853 3 1 1 1 1
80 126.90772 3 1 1 1 1
80 130.11601 3 1 1 1 1
80 133.40542 3 1 1 1 1
80 136.77798 3 1 1 1 1
80 140.23581 3 1 1 1 1
80 143.78105 3 1 1 1 1
80 147.41591 3 1 1 1 1
80 151.14267 3 1 1 1 1
80 154.96364 3 1 1 1 1
80 158.8812 3 1 1 1 1
80 162.89781 3 1 1 1 1
80 167.01596 3 1 1 1 1
80 171.23821 3 1 1 1 1
80 175.56721 3 1 1 1 1
80 180.00565 3 1 1 1 1
80 184.55629 3 1 1 1 1
80 189.22198 3 1 1 1 1
80 194.00561 3 1 1 1 1
80 198.91018 3 1 1 1 1
80 203.93874 3 1 1 1 1
80 209.09443 3 1 1 1 1
80 214.38045 3 1 1 1 1
80 219.80011 3 1 1 1 1
80 225.35678 3 1 1 1 1
80 231.05392 3 1 1 1 1
80 236.8951 3 1 1 1 1
80 242.88394 3 1 1 1 1
80 249.02418 3 1 1 1 1
80 255.31965 3 1 1 1 1
80 261.77427 3 1 1 1 1
80 268.39207 3 1 1 1 1
80 275.17717 3 1 1 1 1
80 282.1338 3 1 1 1 1
80 289.2663 3 1 1 1 1
80 296.57912 3 1 1 1 1
80 304.0768 3 1 1 1 1
80 311.76403 3 1 1 1 1
80 319.6456 3 1 1 1 1
80 327.72642 3 1 1 1 1
80 336.01153 3 1 1 1 1
80 344.50609 3 1 1 1 1
80 353.21539 3 1 1 1 1
80 362.14487 3 1 1 1 1
80 371.3001 3 1 1 1 1
80 380.68677 3 1 1 1 1
80 390.31075 3 1 1 1 1
80 400.17802 3 1 1 1 1
80 410.29474 3 1 1 1 1
80 420.66722 3 1 1 1 1
80 431.30192 3 1 1 1 1
80 442.20548 3 1 1 1 1
80 453.38468 3 1 1 1 1
80 464.84649 3 1 1 1 1
80 476.59807 3 1 1 1 1
80 488.64674 3 1 1 1 1
80 501 3 1 1 1 1
80 8.14308 3.4 1 1 1 1
80 8.34894 3.4 1 1 1 1
80 8.56001 3.4 1 1 1 1
80 8.77641 3.4 1 1 1 1
80 8.99828 3.4 1 1 1 1
80 9.22576 3.4 1 1 1 1
80 9.45899 3.4 1 1 1 1
80 9.69812 3.4 1 1 1 1
80 9.9433 3.4 1 1 1 1
80 10.19467 3.4 1 1 1 1
80 10.4524 3.4 1 1 1 1
80 10.71664 3.4 1 1 1 1
80 10.98756 3.4 1 1 1 1
80 11.26533 3.4 1 1 1 1
80 11.55013 3.4 1 1 1 1
80 11.84212 3.4 1 1 1 1
80 12.1415 3.4 1 1 1 1
80 12.44844 3.4 1 1 1 1
80 12.76314 3.4 1 1 1 1
80 13.0858 3.4 1 1 1 1
80 13.41662 3.4 1 1 1 1
80 13.7558 3.4 1 1 1 1
80 14.10355 3.4 1 1 1 1
80 14.4601 3.4 1 1 1 1
80 14.82566 3.4 1 1 1 1
80 15.20046 3.4 1 1 1 1
80 15.58473 3.4 1 1 1 1
80 15.97872 3.4 1 1 1 1
80 16.38268 3.4 1 1 1 1
80 16.79684 3.4 1 1 1 1
80 17.22147 3.4 1 1 1 1
80 17.65684 3.4 1 1 1 1
80 18.10322 3.4 1 1 1 1
80 18.56088 3.4 1 1 1 1
80 19.0301 3.4 1 1 1 1
80 19.5112 3.4 1 1 1 1
80 20.00445 3.4 1 1 1 1
80 20.51017 3.4 1 1 1 1
80 21.02868 3.4 1 1 1 1
80 21.5603 3.4 1 1 1 1
80 22.10536 3.4 1 1 1 1
80 22.66419 3.4 1 1 1 1
80 23.23715 3.4 1 1 1 1
80 23.8246 3.4 1 1 1 1
80 24.4269 3.4 1 1 1 1
80 25.04443 3.4 1 1 1 1
80 25.67756 3.4 1 1 1 1
80 26.32671 3.4 1 1 1 1
80 26.99226 3.4 1 1 1 1
80 27.67464 3.4 1 1 1 1
80 28.37427 3.4 1 1 1 1
80 29.09159 3.4 1 1 1 1
80 29.82704 3.4 1 1 1 1
80 30.58108 3.4 1 1 1 1
80 31.35419 3.4 1 1 1 1
80 32.14684 3.4 1 1 1 1
80 32.95953 3.4 1 1 1 1
80 33.79277 3.4 1 1 1 1
80 34.64707 3.4 1 1 1 1
80 35.52297 3.4 1 1 1 1
80 36.42101 3.4 1 1 1 1
80 37.34175 3.4 1 1 1 1
80 38.28577 3.4 1 1 1 1
80 39.25366 3.4 1 1 1 1
80 40.24601 3.4 1 1 1 1
80 41.26345 3.4 1 1 1 1
80 42.30661 3.4 1 1 1 1
80 43.37615 3.4 1 1 1 1
80 44.47272 3.4 1 1 1 1
80 45.59702 3.4 1 1 1 1
80 46.74974 3.4 1 1 1 1
80 47.93159 3.4 1 1 1 1
80 49.14333 3.4 1 1 1 1
80 50.3857 3.4 1 1 1 1
80 51.65948 3.4 1 1 1 1
80 52.96546 3.4 1 1 1 1
80 54.30446 3.4 1 1 1 1
80 55.67731 3.4 1 1 1 1
80 57.08486 3.4 1 1 1 1
80 58.528 3.4 1 1 1 1
80 60.00762 3.4 1 1 1 1
80 61.52464 3.4 1 1 1 1
80 63.08002 3.4 1 1 1 1
80 64.67472 3.4 1 1 1 1
80 66.30973 3.4 1 1 1 1
80 67.98608 3.4 1 1 1 1
80 69.7048 3.4 1 1 1 1
80 71.46698 3.4 1 1 1 1
80 73.2737 3.4 1 1 1 1
80 75.1261 3.4 1 1 1 1
80 77.02533 3.4 1 1 1 1
80 78.97258 3.4 1 1 1 1
80 80.96905 3.4 1 1 1 1
80 83.01599 3.4 1 1 1 1
80 85.11468 3.4 1 1 1 1
80 87.26643 3.4 1 1 1 1
80 89.47257 3.4 1 1 1 1
80 91.73449 3.4 1 1 1 1
80 94.05359 3.4 1 1 1 1
80 96.43131 3.4 1 1 1 1
80 98.86915 3.4 1 1 1 1
80 101.36862 3.4 1 1 1 1
80 103.93127 3.4 1 1 1 1
80 106.55872 3.4 1 1 1 1
80 109.25258 3.4 1 1 1 1
80 112.01454 3.4 1 1 1 1
80 114.84633 3.4 1 1 1 1
80 117.74971 3.4 1 1 1 1
80 120.72649 3.4 1 1 1 1
80 123.77853 3.4 1 1 1 1
80 126.90772 3.4 1 1 1 1
80 130.11601 3.4 1 1 1 1
80 133.40542 3.4 1 1 1 1
80 136.77798 3.4 1 1 1 1
80 140.23581 3.4 1 1 1 1
80 143.78105 3.4 1 1 1 1
80 147.41591 3.4 1 1 1 1
80 151.14267 3.4 1 1 1 1
80 154.96364 3.4 1 1 1 1
80 158.8812 3.4 1 1 1 1
80 162.89781 3.4 1 1 1 1
80 167.01596 3.4 1 1 1 1
80 171.23821 3.4 1 1 1 1
80 175.56721 3.4 1 1 1 1
80 180.00565 3.4 1 1 1 1
80 184.55629 3.4 1 1 1 1
80 189.22198 3.4 1 1 1 1
80 194.00561 3.4 1 1 1 1
80 198.91018 3.4 1 1 1 1
80 203.93874 3.4 1 1 1 1
80 209.09443 3.4 1 1 1 1
80 214.38045 3.4 1 1 1 1
80 219.80011 3.4 1 1 1 1
80 225.35678 3.4 1 1 1 1
80 231.05392 3.4 1 1 1 1
80 236.8951 3.4 1 1 1 1
80 242.88394 3.4 1 1 1 1
80 249.02418 3.4 1 1 1 1
80 255.31965 3.4 1 1 1 1
80 261.77427 3.4 1 1 1 1
80 268.39207 3.4 1 1 1 1
80 275.17717 3.4 1 1 1 1
80 282.1338 3.4 1 1 1 1
80 289.2663 3.4 1 1 1 1
80 296.57912 3.4 1 1 1 1
80 304.0768 3.4 1 1 1 1
80 311.76403 3.4 1 1 1 1
80 319.6456 3.4 1 1 1 1
80 327.72642 3.4 1 1 1 1
80 336.01153 3.4 1 1 1 1
80 344.50609 3.4 1 1 1 1
80 353.21539 3.4 1 1 1 1
80 362.14487 3.4 1 1 1 1
80 371.3001 3.4 1 1 1 1
80 380.68677 3.4 1 1 1 1
80 390.31075 3.4 1 1 1 1
80 400.17802 3.4 1 1 1 1
80 410.29474 3.4 1 1 1 1
80 420.66722 3.4 1 1 1 1
80 431.30192 3.4 1 1 1 1
80 442.20548 3.4 1 1 1 1
80 453.38468 3.4 1 1 1 1
80 464.84649 3.4 1 1 1 1
80 476.59807 3.4 1 1 1 1
80 488.64674 3.4 1 1 1 1
80 501 3.4 1 1 1 1
80 8.14308 3.8 1 1 1 1
80 8.34894 3.8 1 1 1 1
80 8.56001 3.8 1 1 1 1
80 8.77641 3.8 1 1 1 1
80 8.99828 3.8 1 1 1 1
80 9.22576 3.8 1 1 1 1
80 9.45899 3.8 1 1 1 1
80 9.69812 3.8 1 1 1 1
80 9.9433 3.8 1 1 1 1
80 10.19467 3.8 1 1 1 1
80 10.4524 3.8 1 1 1 1
80 10.71664 3.8 1 1 1 1
80 10.98756 3.8 1 1 1 1
80 11.26533 3.8 1 1 1 1
80 11.55013 3.8 1 1 1 1
80 11.84212 3.8 1 1 1 1
80 12.1415 3.8 1 1 1 1
80 12.44844 3.8 1 1 1 1
80 12.76314 3.8 1 1 1 1
80 13.0858 3.8 1 1 1 1
80 13.41662 3.8 1 1 1 1
80 13.7558 3.8 1 1 1 1
80 14.10355 3.8 1 1 1 1
80 14.4601 3.8 1 1 1 1
80 14.82566 3.8 1 1 1 1
80 15.20046 3.8 1 1 1 1
80 15.58473 3.8 1 1 1 1
80 15.97872 3.8 1 1 1 1
80 16.38268 3.8 1 1 1 1
80 16.79684 3.8 1 1 1 1
80 17.22147 3.8 1 1 1 1
80 17.65684 3.8 1 1 1 1
80 18.10322 3.8 1 1 1 1
80 18.56088 3.8 1 1 1 1
80 19.0301 3.8 1 1 1 1
80 19.5112 3.8 1 1 1 1
80 20.00445 3.8 1 1 1 1
80 20.51017 3.8 1 1 1 1
80 21.02868 3.8 1 1 1 1
80 21.5603 3.8 1 1 1 1
80 22.10536 3.8 1 1 1 1
80 22.66419 3.8 1 1 1 1
80 23.23715 3.8 1 1 1 1
80 23.8246 3.8 1 1 1 1
80 24.4269 3.8 1 1 1 1
80 25.04443 3.8 1 1 1 1
80 25.67756 3.8 1 1 1 1
80 26.32671 3.8 1 1 1 1
80 26.99226 3.8 1 1 1 1
80 27.67464 3.8 1 1 1 1
80 28.37427 3.8 1 1 1 1
80 29.09159 3.8 1 1 1 1
80 29.82704 3.8 1 1 1 1
80 30.58108 3.8 1 1 1 1
80 31.35419 3.8 1 1 1 1
80 32.14684 3.8 1 1 1 1
80 32.95953 3.8 1 1 1 1
80 33.79277 3.8 1 1 1 1
80 34.64707 3.8 1 1 1 1
80 35.52297 3.8 1 1 1 1
80 36.42101 3.8 1 1 1 1
80 37.34175 3.8 1 1 1 1
80 38.28577 3.8 1 1 1 1
80 39.25366 3.8 1 1 1 1
80 40.24601 3.8 1 1 1 1
80 41.26345 3.8 1 1 1 1
80 42.30661 3.8 1 1 1 1
80 43.37615 3.8 1 1 1 1
80 44.47272 3.8 1 1 1 1
80 45.59702 3.8 1 1 1 1
80 46.74974 3.8 1 1 1 1
80 47.93159 3.8 1 1 1 1
80 49.14333 3.8 1 1 1 1
80 50.3857 3.8 1 1 1 1
80 51.65948 3.8 1 1 1 1
80 52.96546 3.8 1 1 1 1
80 54.30446 3.8 1 1 1 1
80 55.67731 3.8 1 1 1 1
80 57.08486 3.8 1 1 1 1
80 58.528 3.8 1 1 1 1
80 60.00762 3.8 1 1 1 1
80 61.52464 3.8 1 1 1 1
80 63.08002 3.8 1 1 1 1
80 64.67472 3.8 1 1 1 1
80 66.30973 3.8 1 1 1 1
80 67.98608 3.8 1 1 1 1
80 69.7048 3.8 1 1 1 1
80 71.46698 3.8 1 1 1 1
80 73.2737 3.8 1 1 1 1
80 75.1261 3.8 1 1 1 1
80 77.02533 3.8 1 1 1 1
80 78.97258 3.8 1 1 1 1
80 80.96905 3.8 1 1 1 1
80 83.01599 3.8 1 1 1 1
80 85.11468 3.8 1 1 1 1
80 87.26643 3.8 1 1 1 1
80 89.47257 3.8 1 1 1 1
80 91.73449 3.8 1 1 1 1
80 94.05359 3.8 1 1 1 1
80 96.43131 3.8 1 1 1 1
80 98.86915 3.8 1 1 1 1
80 101.36862 3.8 1 1 1 1
80 103.93127 3.8 1 1 1 1
80 106.55872 3.8 1 1 1 1
80 109.25258 3.8 1 1 1 1
80 112.01454 3.8 1 1 1 1
80 114.84633 3.8 1 1 1 1
80 117.74971 3.8 1 1 1 1
80 120.72649 3.8 1 1 1 1
80 123.77853 3.8 1 1 1 1
80 126.90772 3.8 1 1 1 1
80 130.11601 3.8 1 1 1 1
80 133.40542 3.8 1 1 1 1
80 136.77798 3.8 1 1 1 1
80 140.23581 3.8 1 1 1 1
80 143.78105 3.8 1 1 1 1
80 147.41591 3.8 1 1 1 1
80 151.14267 3.8 1 1 1 1
80 154.96364 3.8 1 1 1 1
80 158.8812 3.8 1 1 1 1
80 162.89781 3.8 1 1 1 1
80 167.01596 3.8 1 1 1 1
80 171.23821 3.8 1 1 1 1
80 175.56721 3.8 1 1 1 1
80 180.00565 3.8 1 1 1 1
80 184.55629 3.8 1 1 1 1
80 189.22198 3.8 1 1 1 1
80 194.00561 3.8 1 1 1 1
80 198.91018 3.8 1 1 1 1
80 203.93874 3.8 1 1 1 1
80 209.09443 3.8 1 1 1 1
80 214.38045 3.8 1 1 1 1
80 219.80011 3.8 1 1 1 1
80 225.35678 3.8 1 1 1 1
80 231.05392 3.8 1 1 1 1
80 236.8951 3.8 1 1 1 1
80 242.88394 3.8 1 1 1 1
80 249.02418 3.8 1 1 1 1
80 255.31965 3.8 1 1 1 1
80 261.77427 3.8 1 1 1 1
80 268.39207 3.8 1 1 1 1
80 275.17717 3.8 1 1 1 1
80 282.1338 3.8 1 1 1 1
80 289.2663 3.8 1 1 1 1
80 296.57912 3.8 1 1 1 1
80 304.0768 3.8 1 1 1 1
80 311.76403 3.8 1 1 1 1
80 319.6456 3.8 1 1 1 1
80 327.72642 3.8 1 1 1 1
80 336.01153 3.8 1 1 1 1
80 344.50609 3.8 1 1 1 1
80 353.21539 3.8 1 1 1 1
80 362.14487 3.8 1 1 1 1
80 371.3001 3.8 1 1 1 1
80 380.68677 3.8 1 1 1 1
80 390.31075 3.8 1 1 1 1
80 400.17802 3.8 1 1 1 1
80 410.29474 3.8 1 1 1 1
80 420.66722 3.8 1 1 1 1
80 431.30192 3.8 1 1 1 1
80 442.20548 3.8 1 1 1 1
80 453.38468 3.8 1 1 1 1
80 464.84649 3.8 1 1 1 1
80 476.59807 3.8 1 1 1 1
80 488.64674 3.8 1 1 1 1
80 501 3.8 1 1 1 1
80 8.14308 4.2 1 1 1 1
80 8.34894 4.2 1 1 1 1
80 8.56001 4.2 1 1 1 1
80 8.77641 4.2 1 1 1 1
80 8.99828 4.2 1 1 1 1
80 9.22576 4.2 1 1 1 1
80 9.45899 4.2 1 1 1 1
80 9.69812 4.2 1 1 1 1
80 9.9433 4.2 1 1 1 1
80 10.19467 4.2 1 1 1 1
80 10.4524 4.2 1 1 1 1
80 10.71664 4.2 1 1 1 1
80 10.98756 4.2 1 1 1 1
80 11.26533 4.2 1 1 1 1
80 11.55013 4.2 1 1 1 1
80 11.84212 4.2 1 1 1 1
80 12.1415 4.2 1 1 1 1
80 12.44844 4.2 1 1 1 1
80 12.76314 4.2 1 1 1 1
80 13.0858 4.2 1 1 1 1
80 13.41662 4.2 1 1 1 1
80 13.7558 4.2 1 1 1 1
80 14.10355 4.2 1 1 1 1
80 14.4601 4.2 1 1 1 1
80 14.82566 4.2 1 1 1 1
80 15.20046 4.2 1 1 1 1
80 15.58473 4.2 1 1 1 1
80 15.97872 4.2 1 1 1 1
80 16.38268 4.2 1 1 1 1
80 16.79684 4.2 1 1 1 1
80 17.22147 4.2 1 1 1 1
80 17.65684 4.2 1 1 1 1
80 18.10322 4.2 1 1 1 1
80 18.56088 4.2 1 1 1 1
80 19.0301 4.2 1 1 1 1
80 19.5112 4.2 1 1 1 1
80 20.00445 4.2 1 1 1 1
80 20.51017 4.2 1 1 1 1
80 21.02868 4.2 1 1 1 1
80 21.5603 4.2 1 1 1 1
80 22.10536 4.2 1 1 1 1
80 22.66419 4.2 1 1 1 1
80 23.23715 4.2 1 1 1 1
80 23.8246 4.2 1 1 1 1
80 24.4269 4.2 1 1 1 1
80 25.04443 4.2 1 1 1 1
80 25.67756 4.2 1 1 1 1
80 26.32671 4.2 1 1 1 1
80 26.99226 4.2 1 1 1 1
80 27.67464 4.2 1 1 1 1
80 28.37427 4.2 1 1 1 1
80 29.09159 4.2 1 1 1 1
80 29.82704 4.2 1 1 1 1
80 30.58108 4.2 1 1 1 1
80 31.35419 4.2 1 1 1 1
80 32.14684 4.2 1 1 1 1
80 32.95953 4.2 1 1 1 1
80 33.79277 4.2 1 1 1 1
80 34.64707 4.2 1 1 1 1
80 35.52297 4.2 1 1 1 1
80 36.42101 4.2 1 1 1 1
80 37.34175 4.2 1 1 1 1
80 38.28577 4.2 1 1 1 1
80 39.25366 4.2 1 1 1 1
80 40.24601 4.2 1 1 1 1
80 41.26345 4.2 1 1 1 1
80 42.30661 4.2 1 1 1 1
80 43.37615 4.2 1 1 1 1
80 44.47272 4.2 1 1 1 1
80 45.59702 4.2 1 1 1 1
80 46.74974 4.2 1 1 1 1
80 47.93159 4.2 1 1 1 1
80 49.14333 4.2 1 1 1 1
80 50.3857 4.2 1 1 1 1
80 51.65948 4.2 1 1 1 1
80 52.96546 4.2 1 1 1 1
80 54.30446 4.2 1 1 1 1
80 55.67731 4.2 1 1 1 1
80 57.08486 4.2 1 1 1 1
80 58.528 4.2 1 1 1 1
80 60.00762 4.2 1 1 1 1
80 61.52464 4.2 1 1 1 1
80 63.08002 4.2 1 1 1 1
80 64.67472 4.2 1 1 1 1
80 66.30973 4.2 1 1 1 1
80 67.98608 4.2 1 1 1 1
80 69.7048 4.2 1 1 1 1
80 71.46698 4.2 1 1 1 1
80 73.2737 4.2 1 1 1 1
80 75.1261 4.2 1 1 1 1
80 77.02533 4.2 1 1 1 1
80 78.97258 4.2 1 1 1 1
80 80.96905 4.2 1 1 1 1
80 83.01599 4.2 1 1 1 1
80 85.11468 4.2 1 1 1 1
80 87.26643 4.2 1 1 1 1
80 89.47257 4.2 1 1 1 1
80 91.73449 4.2 1 1 1 1
80 94.05359 4.2 1 1 1 1
80 96.43131 4.2 1 1 1 1
80 98.86915 4.2 1 1 1 1
80 101.36862 4.2 1 1 1 1
80 103.93127 4.2 1 1 1 1
80 106.55872 4.2 1 1 1 1
80 109.25258 4.2 1 1 1 1
80 112.01454 4.2 1 1 1 1
80 114.84633 4.2 1 1 1 1
80 117.74971 4.2 1 1 1 1
80 120.72649 4.2 1 1 1 1
80 123.77853 4.2 1 1 1 1
80 126.90772 4.2 1 1 1 1
80 130.11601 4.2 1 1 1 1
80 133.40542 4.2 1 1 1 1
80 136.77798 4.2 1 1 1 1
80 140.23581 4.2 1 1 1 1
80 143.78105 4.2 1 1 1 1
80 147.41591 4.2 1 1 1 1
80 151.14267 4.2 1 1 1 1
80 154.96364 4.2 1 1 1 1
80 158.8812 4.2 1 1 1 1
80 162.89781 4.2 1 1 1 1
80 167.01596 4.2 1 1 1 1
80 171.23821 4.2 1 1 1 1
80 175.56721 4.2 1 1 1 1
80 180.00565 4.2 1 1 1 1
80 184.55629 4.2 1 1 1 1
80 189.22198 4.2 1 1 1 1
80 194.00561 4.2 1 1 1 1
80 198.91018 4.2 1 1 1 1
80 203.93874 4.2 1 1 1 1
80 209.09443 4.2 1 1 1 1
80 214.38045 4.2 1 1 1 1
80 219.80011 4.2 1 1 1 1
80 225.35678 4.2 1 1 1 1
80 231.05392 4.2 1 1 1 1
80 236.8951 4.2 1 1 1 1
80 242.88394 4.2 1 1 1 1
80 249.02418 4.2 1 1 1 1
80 255.31965 4.2 1 1 1 1
80 261.77427 4.2 1 1 1 1
80 268.39207 4.2 1 1 1 1
80 275.17717 4.2 1 1 1 1
80 282.1338 4.2 1 1 1 1
80 289.2663 4.2 1 1 1 1
80 296.57912 4.2 1 1 1 1
80 304.0768 4.2 1 1 1 1
80 311.76403 4.2 1 1 1 1
80 319.6456 4.2 1 1 1 1
80 327.72642 4.2 1 1 1 1
80 336.01153 4.2 1 1 1 1
80 344.50609 4.2 1 1 1 1
80 353.21539 4.2 1 1 1 1
80 362.14487 4.2 1 1 1 1
80 371.3001 4.2 1 1 1 1
80 380.68677 4.2 1 1 1 1
80 390.31075 4.2 1 1 1 1
80 400.17802 4.2 1 1 1 1
80 410.29474 4.2 1 1 1 1
80 420.66722 4.2 1 1 1 1
80 431.30192 4.2 1 1 1 1
80 442.20548 4.2 1 1 1 1
80 453.38468 4.2 1 1 1 1
80 464.84649 4.2 1 1 1 1
80 476.59807 4.2 1 1 1 1
80 488.64674 4.2 1 1 1 1
80 501 4.2 1 1 1 1
