0.09106   
0.1006    
0.1112    
0.1229    
0.1358    
0.1501    
0.1659    
0.1834    
0.2027    
0.224     
0.2475    
0.2736    
0.3023    
0.3341    
0.3693    
0.4081    
0.451     
0.4985    
0.5509    
0.6088    
0.6729    
0.7436    
0.8218    
0.9083    
1.004     
1.109     
1.226     
1.355     
1.497     
1.655     
1.829     
2.021     
2.234     
2.469     
2.729     
3.016     
3.333     
3.683     
4.071     
4.499     
4.972     
5.495     
6.073     
6.711     
7.417     
8.197     
9.059     
10.01     
11.06     
12.23     
13.51     
14.94     
16.51     
18.24     
19.56
20.16     
21.73
22.28     
23.87
24.63     
25.49
26.34
26.8
27.22     
28.0
28.45
29.0
29.56
29.75
30.08     
30.75
31.48
32.0
32.46
32.75
33.24     
34
34.5
35
36.0
36.74     
37.25
38
39
40.6      
41
42
43
44.87     
45
46
47
48
49.59     
50
51
52
53
54.81     
56
58
60.57     
63
66.94     
68
73.98     
81.76     
90.36     
99.86     
110.4
120
130
140
150
160
170
180
190
200
210
220
230
240
250
260
270
280
290
300
310
320
330
340
350
360
370
380
400
450
500
550
600
650
700
750
800
850
900
950
1000
1050
1100
1150
1200
1250
1300
1350
1400
1450
1500
1550
1600
1650
1700
1750
1800
1850
1900
1950
2000
2050
2100
2150
2200
2250
2300
2350
2400
2450
2500
