0.0911
0.1006
0.1112
0.1229
0.1358
0.1501
0.1659
0.1834
0.2027
0.2240
0.2475
0.2736
0.3023
0.3341
0.3693
0.4081
0.4510
0.4985
0.5509
0.6088
0.6729
0.7436
0.8218
0.9083
1.0040
1.1090
1.2260
1.3550
1.4970
1.6550
1.8290
2.0210
2.2340
2.4690
2.7290
3.0160
3.3330
3.6830
4.0710
4.4990
4.9720
5.4950
6.0730
6.7110
7.4170
8.1970
9.0590
10.0100
11.0600
12.2300
13.5100
14.9400
16.5100
18.2400
20.1600
22.2800
24.6300
27.2200
30.0800
33.2400
36.7400
40.6000
44.8700
49.5900
54.8100
60.5700
66.9400
73.9800
81.7600
90.3600
99.8600
110.4000
120.0000
130.0000
140.0000
150.0000
160.0000
170.0000
180.0000
190.0000
200.0000
210.0000
220.0000
230.0000
240.0000
250.0000
260.0000
270.0000
280.0000
290.0000
300.0000
310.0000
320.0000
330.0000
340.0000
350.0000
360.0000
370.0000
380.0000

