  0.09106   
  0.1006    
  0.1112    
  0.1229    
  0.1358    
  0.1501    
  0.1659    
  0.1834    
  0.2027    
  0.224     
  0.2475    
  0.2736    
  0.3023    
  0.3341    
  0.3693    
  0.4081    
  0.451     
  0.4985    
  0.5509    
  0.6088    
  0.6729    
  0.7436    
  0.8218    
  0.9083    
  1.004     
  1.109     
  1.226     
  1.355     
  1.497     
  1.655     
  1.829     
  2.021     
  2.234     
  2.469     
  2.729     
  3.016     
  3.333     
  3.683     
  4.071     
  4.499     
  4.972     
  5.495     
  6.073     
  6.711     
  7.417     
  8.197     
  9.059     
  10.01     
  11.06     
  12.23     
  13.51     
  14.94     
  16.51     
  18.24     
  20.16     
  22.28     
  24.63     
  27.22     
  30.08     
  33.24     
  36.74     
  40.6      
  44.87     
  49.59     
  54.81     
  60.57     
  66.94     
  73.98     
  81.76     
  90.36     
  99.86     
  110.4     
  120       
  130     
  140       
  150     
  160       
  170
  180
  190
  200     
  210
  220     
  230     
  240
  250
  260
  270     
  280
  290
  300       
  310
  320
  330
  340
  350
  360
  370
  380
  390
  400
  410
  420
  430
  440
  450
  460
  470
  480
  490
  500
