GFORTRAN module version '10' created from dummy_pdfs.f90
MD5:ae9ed0dc9285ad3f0ab327ca47984833 -- If you edit this, you'll get what you deserve.

(() () () () () () () () () () () () () () () () () () () () () () ()
() () () ())

()

()

()

()

()

(2 'lha_unpolarized_dummy_pdf' 'dummy_pdfs' '' 1 ((PROCEDURE
UNKNOWN-INTENT MODULE-PROC DECL UNKNOWN 0 0 SUBROUTINE PURE) (UNKNOWN 0
0 0 0 UNKNOWN ()) 3 0 (4 5 6) () 0 () () () 0 0)
7 'unpolarized_dummy_pdf' 'dummy_pdfs' '' 1 ((PROCEDURE UNKNOWN-INTENT
MODULE-PROC DECL UNKNOWN 0 0 DIMENSION FUNCTION ALWAYS_EXPLICIT) (REAL 8
0 0 0 REAL ()) 8 0 (9) (2 0 EXPLICIT (CONSTANT (INTEGER 4 0 0 0 INTEGER
()) 0 '1') (FUNCTION (INTEGER 4 0 0 0 INTEGER ()) 0 10 (('' (VARIABLE (
REAL 8 0 0 0 REAL ()) 1 9 ((ARRAY (FULL 1 2))))) ('' ()) ('' ())) '' 0
'size') (CONSTANT (INTEGER 4 0 0 0 INTEGER ()) 0 '-6') (CONSTANT (
INTEGER 4 0 0 0 INTEGER ()) 0 '7')) 11 () () () 0 0)
4 'x' '' '' 3 ((VARIABLE IN UNKNOWN-PROC UNKNOWN UNKNOWN 0 0 DUMMY) (
REAL 8 0 0 0 REAL ()) 0 0 () () 0 () () () 0 0)
5 'q' '' '' 3 ((VARIABLE IN UNKNOWN-PROC UNKNOWN UNKNOWN 0 0 DUMMY) (
REAL 8 0 0 0 REAL ()) 0 0 () () 0 () () () 0 0)
6 'xpdf' '' '' 3 ((VARIABLE OUT UNKNOWN-PROC UNKNOWN UNKNOWN 0 0
DIMENSION DUMMY) (REAL 8 0 0 0 REAL ()) 0 0 () (1 0 EXPLICIT (CONSTANT (
INTEGER 4 0 0 0 INTEGER ()) 0 '-6') (CONSTANT (INTEGER 4 0 0 0 INTEGER ())
0 '6')) 0 () () () 0 0)
9 'xvals' '' '' 8 ((VARIABLE IN UNKNOWN-PROC UNKNOWN UNKNOWN 0 0
DIMENSION DUMMY) (REAL 8 0 0 0 REAL ()) 0 0 () (1 0 ASSUMED_SHAPE (
CONSTANT (INTEGER 4 0 0 0 INTEGER ()) 0 '1') ()) 0 () () () 0 0)
10 'size' '(intrinsic)' '' 8 ((PROCEDURE UNKNOWN-INTENT UNKNOWN-PROC
UNKNOWN UNKNOWN 0 0 FUNCTION) (UNKNOWN 0 0 0 0 UNKNOWN ()) 0 0 () () 10
() () () 0 0)
11 'pdf' '' '' 8 ((VARIABLE UNKNOWN-INTENT UNKNOWN-PROC UNKNOWN UNKNOWN
0 0 DIMENSION RESULT ALWAYS_EXPLICIT) (REAL 8 0 0 0 REAL ()) 0 0 () (2 0
EXPLICIT (CONSTANT (INTEGER 4 0 0 0 INTEGER ()) 0 '1') (FUNCTION (
INTEGER 4 0 0 0 INTEGER ()) 0 10 (('' (VARIABLE (REAL 8 0 0 0 REAL ()) 1
9 ((ARRAY (FULL 1 2))))) ('' ()) ('' ())) '' 0 'size') (CONSTANT (
INTEGER 4 0 0 0 INTEGER ()) 0 '-6') (CONSTANT (INTEGER 4 0 0 0 INTEGER ())
0 '7')) 0 () () () 0 0)
)

('lha_unpolarized_dummy_pdf' 0 2 'unpolarized_dummy_pdf' 0 7)
