10.0
15.0
20.0
25.0
30.0
35.0
40.0
45.0
50.0
55.0
60.0
65.0
70.0
74.0
76.0
78.0
80.0
81.0
81.42
82.0
83.0
85.0
87.0
90.0
91.18
100.0
110.0
140.0
190.0
200.0
250.0
300.0
400.0
500.0
700.0
800.0
900.0
1000.0
1500.0
2000.0
