15   
17.5 
20   
22.5 
25   
27.5 
30   
32.5 
35   
37.5 
40   
42.5 
45   
47.5 
50   
55   
60   
65   
70   
75   
80   
90   
100  
120  
140  
170  
200  
250  
300  
350  
400  
450  
500  
600  
700  
800  
900  
1000 
